\relax 
\providecommand\hyper@newdestlabel[2]{}
\catcode `"\active 
\providecommand\HyperFirstAtBeginDocument{\AtBeginDocument}
\HyperFirstAtBeginDocument{\ifx\hyper@anchor\@undefined
\global\let\oldcontentsline\contentsline
\gdef\contentsline#1#2#3#4{\oldcontentsline{#1}{#2}{#3}}
\global\let\oldnewlabel\newlabel
\gdef\newlabel#1#2{\newlabelxx{#1}#2}
\gdef\newlabelxx#1#2#3#4#5#6{\oldnewlabel{#1}{{#2}{#3}}}
\AtEndDocument{\ifx\hyper@anchor\@undefined
\let\contentsline\oldcontentsline
\let\newlabel\oldnewlabel
\fi}
\fi}
\global\let\hyper@last\relax 
\gdef\HyperFirstAtBeginDocument#1{#1}
\providecommand\HyField@AuxAddToFields[1]{}
\providecommand\HyField@AuxAddToCoFields[2]{}
\select@language{ngerman}
\@writefile{toc}{\select@language{ngerman}}
\@writefile{lof}{\select@language{ngerman}}
\@writefile{lot}{\select@language{ngerman}}
\citation{q:Anleitung}
\citation{q:bandstr}
\citation{q:bandstr}
\@writefile{toc}{\contentsline {section}{\numberline {1}Versuchsziel und Versuchsmethode}{3}{section.1}}
\@writefile{toc}{\contentsline {section}{\numberline {2}Grundlagen}{3}{section.2}}
\@writefile{toc}{\contentsline {subsection}{\numberline {2.1}Bandstruktur und B\IeC {\"a}ndermodell}{3}{subsection.2.1}}
\@writefile{lof}{\contentsline {figure}{\numberline {1}{\ignorespaces Schematische Darstellung des B\IeC {\"a}ndermodells f\IeC {\"u}r Isolatoren, Leiter und Halbleiter\cite  {q:bandstr}.\relax }}{3}{figure.caption.2}}
\providecommand*\caption@xref[2]{\@setref\relax\@undefined{#1}}
\newlabel{abb: bandstr}{{1}{3}{Schematische Darstellung des Bändermodells für Isolatoren, Leiter und Halbleiter\cite {q:bandstr}.\relax }{figure.caption.2}{}}
\citation{q:zustandsdichte}
\citation{q:bandstr}
\citation{q:zustandsdichte}
\citation{q:zustandsdichte}
\citation{q:zustandsdichte}
\@writefile{toc}{\contentsline {subsection}{\numberline {2.2}Zustandsdichte und Dotierung}{4}{subsection.2.2}}
\citation{q:zustandsdichte}
\citation{q:zustandsdichte}
\citation{q:halleffekt}
\@writefile{lof}{\contentsline {figure}{\numberline {2}{\ignorespaces Schematische Darstellung zweier wichtiger Gr\IeC {\"o}\IeC {\ss }en in Abh\IeC {\"a}ngigkeit der Energie. Einerseits in verschiedenen Farben und nach rechts die Zustandsdichten. Hierbei speziell f\IeC {\"u}r den Fall eines Halbleiters, welcher nicht dotiert wurde. Weiterhin liegt ein direkter Band\IeC {\"u}bergang vor. Des Weiteren gilt es an dieser Stelle anzumerken, dass es sich bei Elektronen um Fermionen handelt und somit muss gem\IeC {\"a}\IeC {\ss } den Grundlagen der Statistischen Physik eine Fermi-Verteilung f\IeC {\"u}r die Besetzungswahrscheinlichkeit angesetzt werden. Auch diese ist in dieser Abbildung schematisch nach links dargestellt unter der Annahme von Raumtemperatur \cite  {q:zustandsdichte}.\relax }}{5}{figure.caption.3}}
\newlabel{abb: zustandsdichte}{{2}{5}{Schematische Darstellung zweier wichtiger Größen in Abhängigkeit der Energie. Einerseits in verschiedenen Farben und nach rechts die Zustandsdichten. Hierbei speziell für den Fall eines Halbleiters, welcher nicht dotiert wurde. Weiterhin liegt ein direkter Bandübergang vor. Des Weiteren gilt es an dieser Stelle anzumerken, dass es sich bei Elektronen um Fermionen handelt und somit muss gemäß den Grundlagen der Statistischen Physik eine Fermi-Verteilung für die Besetzungswahrscheinlichkeit angesetzt werden. Auch diese ist in dieser Abbildung schematisch nach links dargestellt unter der Annahme von Raumtemperatur \cite {q:zustandsdichte}.\relax }{figure.caption.3}{}}
\citation{q:halleffekt}
\citation{q:halleffekt}
\citation{q:halleffekt}
\citation{q:halleffekt}
\citation{q:halleffekt}
\citation{q:halleffekt}
\@writefile{toc}{\contentsline {subsection}{\numberline {2.3}Hall-Effekt}{6}{subsection.2.3}}
\@writefile{lof}{\contentsline {figure}{\numberline {3}{\ignorespaces Schematische Darstellung der Anordnung f\IeC {\"u}r die Herleitung der zentralen Gr\IeC {\"o}\IeC {\ss }en des Hall-Effekts, insbesondere der Hallspannung. \cite  {q:halleffekt}.\relax }}{6}{figure.caption.4}}
\newlabel{abb: halleffekt}{{3}{6}{Schematische Darstellung der Anordnung für die Herleitung der zentralen Größen des Hall-Effekts, insbesondere der Hallspannung. \cite {q:halleffekt}.\relax }{figure.caption.4}{}}
\citation{q:halleffekt}
\citation{q:halleffekt}
\citation{q:halleffekt}
\citation{q:halleffekt}
\citation{q:halleffekt}
\citation{q:halleffekt}
\citation{q:halleffekt}
\citation{q:Anleitung}
\citation{q:Anleitung}
\citation{q:Anleitung}
\citation{q:Anleitung}
\@writefile{toc}{\contentsline {section}{\numberline {3}Messprinzip mit Skizze und Versuchsablauf}{7}{section.3}}
\@writefile{toc}{\contentsline {subsection}{\numberline {3.1}Beschreibung}{7}{subsection.3.1}}
\citation{q:Anleitung}
\citation{q:Anleitung}
\@writefile{lof}{\contentsline {figure}{\numberline {4}{\ignorespaces Schematische Darstellung des Versuchsaufbaus f\IeC {\"u}r ein homogenes Magnetfeld \cite  {q:Anleitung}.\relax }}{8}{figure.caption.5}}
\newlabel{abb: ding2}{{4}{8}{Schematische Darstellung des Versuchsaufbaus für ein homogenes Magnetfeld \cite {q:Anleitung}.\relax }{figure.caption.5}{}}
\@writefile{toc}{\contentsline {subsection}{\numberline {3.2}Ger\IeC {\"a}teliste}{8}{subsection.3.2}}
\@writefile{lof}{\contentsline {figure}{\numberline {5}{\ignorespaces Grundger\IeC {\"a}t f\IeC {\"u}r den Hall-Effekt mit Beschreibung der einzelnen Elemente \cite  {q:Anleitung}.\relax }}{9}{figure.caption.6}}
\newlabel{abb: ding1}{{5}{9}{Grundgerät für den Hall-Effekt mit Beschreibung der einzelnen Elemente \cite {q:Anleitung}.\relax }{figure.caption.6}{}}
\@writefile{toc}{\contentsline {section}{\numberline {4}Formeln}{10}{section.4}}
\newlabel{eq:hall}{{14}{10}{Formeln}{equation.4.14}{}}
\newlabel{eq:fit1}{{16}{10}{Formeln}{equation.4.16}{}}
\newlabel{eq:psrh}{{17}{10}{Formeln}{equation.4.17}{}}
\newlabel{eq:nseq}{{18}{10}{Formeln}{equation.4.18}{}}
\newlabel{eq:vdieq}{{20}{10}{Formeln}{equation.4.20}{}}
\newlabel{eq:muvieq}{{22}{10}{Formeln}{equation.4.22}{}}
\newlabel{eq:u5eq}{{24}{10}{Formeln}{equation.4.24}{}}
\newlabel{eq:her1}{{25}{11}{Formeln}{equation.4.25}{}}
\newlabel{eq:her2}{{26}{11}{Formeln}{equation.4.26}{}}
\newlabel{eq:her3}{{27}{11}{Formeln}{equation.4.27}{}}
\newlabel{eq:eqstep}{{28}{11}{Formeln}{equation.4.28}{}}
\newlabel{eq:htfit}{{29}{11}{Formeln}{equation.4.29}{}}
\@writefile{toc}{\contentsline {section}{\numberline {5}Messwerte}{11}{section.5}}
\@writefile{toc}{\contentsline {subsection}{\numberline {5.1}Versuchsteil 1}{11}{subsection.5.1}}
\@writefile{lof}{\contentsline {figure}{\numberline {6}{\ignorespaces Gemessene Hallspannung $U_H$ in Abh\IeC {\"a}ngigkeit vom Strom $I$ bei verschiedenen magnetischen Flussdichten $B$ sowie Fits nach Gleichung \ref  {eq:fit1}. Es wurde p-dotiertes Germanium verwendet.\relax }}{12}{figure.caption.7}}
\newlabel{fig:1}{{6}{12}{Gemessene Hallspannung $U_H$ in Abhängigkeit vom Strom $I$ bei verschiedenen magnetischen Flussdichten $B$ sowie Fits nach Gleichung \ref {eq:fit1}. Es wurde p-dotiertes Germanium verwendet.\relax }{figure.caption.7}{}}
\@writefile{toc}{\contentsline {subsection}{\numberline {5.2}Versuchsteil 2}{12}{subsection.5.2}}
\@writefile{lof}{\contentsline {figure}{\numberline {7}{\ignorespaces Gemessene Hallspannung $U_H$ in Abh\IeC {\"a}ngigkeit von der magnetischen Flussdichte $B$ bei verschiedenen Str\IeC {\"o}men $I$ sowie Fits nach Gleichung \ref  {eq:fit1}. Es wurde p-dotiertes Germanium verwendet.\relax }}{13}{figure.caption.8}}
\newlabel{fig:2}{{7}{13}{Gemessene Hallspannung $U_H$ in Abhängigkeit von der magnetischen Flussdichte $B$ bei verschiedenen Strömen $I$ sowie Fits nach Gleichung \ref {eq:fit1}. Es wurde p-dotiertes Germanium verwendet.\relax }{figure.caption.8}{}}
\@writefile{toc}{\contentsline {subsection}{\numberline {5.3}Versuchsteil 3}{14}{subsection.5.3}}
\@writefile{lof}{\contentsline {figure}{\numberline {8}{\ignorespaces Hallspannung $U_H$ am p-dotierten Germanium in Abh\IeC {\"a}ngigkeit der Temperatur $T$.\relax }}{14}{figure.caption.9}}
\newlabel{fig:3}{{8}{14}{Hallspannung $U_H$ am p-dotierten Germanium in Abhängigkeit der Temperatur $T$.\relax }{figure.caption.9}{}}
\@writefile{toc}{\contentsline {subsection}{\numberline {5.4}Versuchsteil 4}{14}{subsection.5.4}}
\@writefile{lof}{\contentsline {figure}{\numberline {9}{\ignorespaces Spannungsabfall $U$ am p-dotierten Germanium bei $I=30$ mA in Abh\IeC {\"a}ngigkeit der Temperatur, sowie ein Fit nach Gleichung \textup  {\hbox {\mathsurround \z@ \normalfont  (\ignorespaces \ref  {eq:u5eq}\unskip \@@italiccorr )}}.\relax }}{15}{figure.caption.10}}
\newlabel{fig:4}{{9}{15}{Spannungsabfall $U$ am p-dotierten Germanium bei $I=30$ mA in Abhängigkeit der Temperatur, sowie ein Fit nach Gleichung \eqref {eq:u5eq}.\relax }{figure.caption.10}{}}
\@writefile{toc}{\contentsline {subsection}{\numberline {5.5}Versuchsteil 5}{15}{subsection.5.5}}
\@writefile{lof}{\contentsline {figure}{\numberline {10}{\ignorespaces Spannungsabfall $U$ am undotierten Germanium bei $I=2$ mA in Abh\IeC {\"a}ngigkeit der Temperatur\relax }}{16}{figure.caption.11}}
\newlabel{fig:5}{{10}{16}{Spannungsabfall $U$ am undotierten Germanium bei $I=2$ mA in Abhängigkeit der Temperatur\relax }{figure.caption.11}{}}
\@writefile{toc}{\contentsline {section}{\numberline {6}Auswertung}{16}{section.6}}
\@writefile{toc}{\contentsline {subsection}{\numberline {6.1}Versuchsteil 1 und 2}{16}{subsection.6.1}}
\@writefile{toc}{\contentsline {subsection}{\numberline {6.2}Versuchsteil 3}{21}{subsection.6.2}}
\@writefile{toc}{\contentsline {subsection}{\numberline {6.3}Versuchsteil 4}{21}{subsection.6.3}}
\@writefile{toc}{\contentsline {subsection}{\numberline {6.4}Versuchsteil 5}{22}{subsection.6.4}}
\@writefile{toc}{\contentsline {section}{\numberline {7}Fehlerbetrachtung}{22}{section.7}}
\@writefile{toc}{\contentsline {subsection}{\numberline {7.1}Fehlerfortpflanzung f\IeC {\"u}r die Ladungsdichte}{23}{subsection.7.1}}
\@writefile{toc}{\contentsline {subsection}{\numberline {7.2}Fehlerfortpflanzung f\IeC {\"u}r die Driftgeschwindigkeit}{24}{subsection.7.2}}
\@writefile{toc}{\contentsline {subsection}{\numberline {7.3}Fehlerfortpflanzung f\IeC {\"u}r die Beweglichkeit}{25}{subsection.7.3}}
\@writefile{toc}{\contentsline {section}{\numberline {8}Zusammenfassung}{26}{section.8}}
\bibcite{q:bandstr}{1}
\bibcite{q:zustandsdichte}{2}
\bibcite{q:halleffekt}{3}
\bibcite{q:Anleitung}{4}
\bibcite{q:Demtroeder2}{5}
\bibcite{q:Demtroeder1}{6}
\bibcite{q:Halliday}{7}
\bibcite{q:Gerthsen}{8}
\bibcite{q:TaschenbuchPhy}{9}
\bibcite{q:Tipler}{10}
\bibcite{q:Bronstein}{11}
\bibcite{q:Kumric}{12}
\@writefile{toc}{\contentsline {section}{\numberline {9}Literatur}{28}{section.9}}
\newlabel{LastPage}{{}{28}{}{page.28}{}}
\xdef\lastpage@lastpage{28}
\xdef\lastpage@lastpageHy{28}
