#eq: t ; eq: U_1 ; eq: U_2
# s ; V; V
0.00000000	0.11857530	-0.07569283
0.05010000	0.14009280	0.04562935
0.10020000	0.15770360	0.16969840
0.15030000	0.17046150	0.29010500
0.20040000	0.17778660	0.40379690
0.25050000	0.17909900	0.50619580
0.30060000	0.17403250	0.59363940
0.35070000	0.16246490	0.66215970
0.40080000	0.14451840	0.71053590
0.45090000	0.12074230	0.73602120
0.50099999	0.09168600	0.73739470
0.55109999	0.05832621	0.71526680
0.60119999	0.02167013	0.67116340
0.65129999	-0.01700037	0.60966300
0.70139999	-0.05606763	0.53610670
0.75149999	-0.09339519	0.45278350
0.80159999	-0.12666340	0.36228790
0.85169999	-0.15407150	0.26721400
0.90179999	-0.17406300	0.17000370
0.95189999	-0.18553900	0.07340373
1.00199999	-0.18810280	-0.02075449
1.05209999	-0.18178490	-0.10835060
1.10219999	-0.16713470	-0.18648520
1.15229999	-0.14528140	-0.25271640
1.20239999	-0.11765960	-0.30551820
1.25249999	-0.08594799	-0.34229640
1.30259999	-0.05194726	-0.36091440
1.35269999	-0.01748871	-0.36045660
1.40279999	0.01571847	-0.34092300
1.45289999	0.04633134	-0.30170310
1.50299998	0.07331217	-0.24432300
1.55309998	0.09598950	-0.17091930
1.60319998	0.11402760	-0.08622268
1.65329998	0.12751800	0.00167867
1.70339998	0.13630810	0.08591747
1.75349998	0.13990970	0.16145770
1.80359998	0.13801730	0.22326330
1.85369998	0.13032600	0.26812960
1.90379998	0.11671350	0.29330970
1.95389998	0.09730192	0.29697230
2.00399998	0.07236601	0.27988030
2.05409998	0.04227201	0.24584910
2.10419998	0.00808815	0.19777800
2.15429998	-0.02838481	0.14085580
2.20439998	-0.06507142	0.07706629
2.25449998	-0.09943841	0.00976682
2.30459998	-0.12928820	-0.06043218
2.35469998	-0.15260650	-0.13185200
2.40479998	-0.16783670	-0.20052500
2.45489998	-0.17391040	-0.26523010
2.50499997	-0.17058360	-0.32276280
2.55509997	-0.15813090	-0.37144430
2.60519997	-0.13734590	-0.40837500
2.65529997	-0.10957150	-0.43050300
2.70539997	-0.07663900	-0.43614940
2.75549997	-0.04031864	-0.42104140
2.80559997	-0.00259431	-0.38334760
2.85569997	0.03485533	-0.32215230
2.90579997	0.07050421	-0.23669270
2.95589997	0.10328410	-0.12818950
3.00599997	0.13240140	-0.00045782
3.05609997	0.15748990	0.13963500
3.10619997	0.17818340	0.28659500
3.15629997	0.19387130	0.43202900
3.20639997	0.20385180	0.57212190
3.25649997	0.20742280	0.70183740
3.30659997	0.20421800	0.81873400
3.35669997	0.19408500	0.91945430
3.40679997	0.17726770	1.00048800
3.45689997	0.15419360	1.06061500
3.50699996	0.12568670	1.09815600
3.55709996	0.09281528	1.11234900
3.60719996	0.05683067	1.10227700
3.65729996	0.01925894	1.06916100
3.70739996	-0.01846539	1.01391800
3.75749996	-0.05496887	0.93868270
3.80759996	-0.08906116	0.84818700
3.85769996	-0.11933830	0.74563540
3.90779996	-0.14445730	0.63392750
3.95789996	-0.16344160	0.51642050
4.00799996	-0.17555850	0.39662430
4.05809996	-0.18044190	0.27743860
4.10819996	-0.17827490	0.16099990
4.15829996	-0.16945430	0.05097058
4.20839996	-0.15465140	-0.04990233
4.25849996	-0.13502620	-0.13994020
4.30859996	-0.11173850	-0.21792210
4.35869996	-0.08616164	-0.28140640
4.40879996	-0.05963863	-0.33100350
4.45889996	-0.03366500	-0.36564520
4.50899995	-0.00933952	-0.38563670
4.55909995	0.01226956	-0.39219870
4.60919995	0.03058235	-0.38685750
4.65929995	0.04498840	-0.37190210
4.70939995	0.05530460	-0.34977410
4.75949995	0.06156147	-0.32596750
4.80959995	0.06400317	-0.30506040
4.85969995	0.06253815	-0.29132580
4.90979995	0.05704432	-0.28628980
4.95989995	0.04755219	-0.29163100
5.00999995	0.03412282	-0.30506040
5.06009995	0.01733610	-0.32489930
5.11019995	-0.00192284	-0.35175800
5.16029995	-0.02261629	-0.38212670
5.21039995	-0.04343181	-0.41600540
5.26049995	-0.06290440	-0.45049440
5.31059995	-0.07975216	-0.48452570
5.36069995	-0.09266268	-0.51626780
5.41079995	-0.10065930	-0.54404220
5.46089995	-0.10303990	-0.56678060
5.51099994	-0.09943841	-0.58310950
5.56109994	-0.09003785	-0.59104500
5.61119994	-0.07529606	-0.58890860
5.66129994	-0.05594555	-0.57547910
5.71139994	-0.03302405	-0.54846780
5.76149994	-0.00775241	-0.50711140
5.81159994	0.01867904	-0.45034180
5.86169994	0.04514101	-0.37861680
5.91179994	0.07065682	-0.29315710
5.96189994	0.09437187	-0.19518370
6.01199994	0.11552310	-0.09049566
6.06209994	0.13334760	0.01602368
6.11219994	0.14699060	0.12193260
6.16229994	0.15575020	0.22188990
6.21239994	0.15904650	0.31208030
6.26249994	0.15642170	0.38853620
6.31259994	0.14772310	0.44744230
6.36269994	0.13285920	0.48635700
6.41279994	0.11204370	0.50253330
6.46289994	0.08579539	0.49566600
6.51299993	0.05457209	0.46651810
6.56309993	0.01928946	0.41966790
6.61319993	-0.01870956	0.36060920
6.66329993	-0.05738005	0.29224150
6.71339993	-0.09421927	0.21715910
6.76349993	-0.12702970	0.13749850
6.81359993	-0.15370530	0.05554877
6.86369993	-0.17247590	-0.02716396
6.91379993	-0.18233430	-0.10712980
6.96389993	-0.18270050	-0.18297520
7.01399993	-0.17381880	-0.25103770
7.06409993	-0.15633010	-0.30933340
7.11419993	-0.13145530	-0.35419970
7.16429993	-0.10068980	-0.38288970
7.21439993	-0.06598706	-0.39326700
7.26449993	-0.02920889	-0.38350020
7.31459993	0.00766085	-0.35221580
7.36469993	0.04312660	-0.29819310
7.41479993	0.07584544	-0.22188990
7.46489993	0.10484070	-0.12528990
7.51499992	0.12953240	-0.01236113
7.56509992	0.14989010	0.11002930
7.61519992	0.16554750	0.23379320
7.66529992	0.17607740	0.35282630
7.71539992	0.18071660	0.46285560
7.76549992	0.17919060	0.55991330
7.81559992	0.17119400	0.64079480
7.86569992	0.15663530	0.70229520
7.91579992	0.13594190	0.74197290
7.96589992	0.10960200	0.75830180
8.01599992	0.07843975	0.75112930
8.06609992	0.04349286	0.71999750
8.11619992	0.00586009	0.66917960
8.16629992	-0.03311561	0.60218530
8.21639992	-0.07163350	0.52389820
8.26649992	-0.10752660	0.43691240
8.31659992	-0.13856670	0.34397510
8.36669992	-0.16307530	0.24615430
8.41679992	-0.17977050	0.14665490
8.46689992	-0.18785860	0.04929191
8.51699991	-0.18697350	-0.04364546
8.56709991	-0.17748140	-0.13002080
8.61719991	-0.16011480	-0.20617140
8.66729991	-0.13606400	-0.26919790
8.71739991	-0.10700770	-0.31803200
8.76749991	-0.07456355	-0.35007940
8.81759991	-0.04062385	-0.36488220
8.86769991	-0.00683677	-0.35969360
8.91779991	0.02511903	-0.33573430
8.96789991	0.05411427	-0.29285190
9.01799991	0.07917226	-0.23348800
9.06809991	0.09977414	-0.15901600
9.11819991	0.11567570	-0.07737151
9.16829991	0.12696860	0.00579905
9.21839991	0.13353070	0.08286534
9.26849991	0.13487360	0.14924920
9.31859991	0.13063120	0.20083020
9.36869991	0.12065070	0.23440360
9.41879991	0.10481020	0.24844340
9.46889991	0.08332316	0.24066050
9.51899990	0.05640337	0.21349650
9.56909990	0.02475278	0.17290320
9.61919990	-0.01019412	0.12147480
9.66929990	-0.04648395	0.06256867
9.71939990	-0.08170553	-0.00152607
9.76949990	-0.11350870	-0.06897815
9.81959990	-0.13981810	-0.13719330
9.86969990	-0.15886340	-0.20449270
9.91979990	-0.16930170	-0.26812960
9.96989990	-0.17046150	-0.32596750
10.01999990	-0.16231230	-0.37525940
10.07009990	-0.14552560	-0.41493710
10.12019990	-0.12095590	-0.44072760
10.17029990	-0.09040410	-0.45095230
10.22039990	-0.05560981	-0.44225370
10.27049990	-0.01840435	-0.41219020
10.32059990	0.01931999	-0.35877790
10.37069990	0.05597607	-0.28171160
10.42079990	0.09034306	-0.18099130
10.47089990	0.12141370	-0.05799048
10.52099989	0.14876080	0.08103406
10.57109989	0.17198750	0.22814670
10.62119989	0.19045290	0.37831150
10.67129989	0.20345500	0.52496640
10.72139989	0.21032230	0.66429620
10.77149989	0.21053590	0.79141740
10.82159989	0.20382130	0.90388840
10.87169989	0.19026980	0.99835180
10.92179989	0.17009520	1.07312900
10.97189989	0.14403000	1.12593100
11.02199989	0.11305090	1.15568900
11.07209989	0.07847027	1.16286200
11.12219989	0.04150897	1.14638000
11.17229989	0.00390673	1.10700800
11.22239989	-0.03302405	1.04581200
11.27249989	-0.06809303	0.96493100
11.32259989	-0.09989622	0.86909410
11.37269989	-0.12739590	0.76165910
11.42279989	-0.14952390	0.64644120
11.47289989	-0.16542550	0.52557680
11.52299988	-0.17470390	0.40303380
11.57309988	-0.17717620	0.28125380
11.62319988	-0.17305580	0.16313640
11.67329988	-0.16286170	0.05249664
11.72339988	-0.14744840	-0.04929191
11.77349988	-0.12782320	-0.13994020
11.82359988	-0.10532900	-0.21883770
11.87369988	-0.08109510	-0.28384810
11.92379988	-0.05637285	-0.33558170
11.97389988	-0.03244415	-0.37266510
12.02399988	-0.01034672	-0.39662430
12.07409988	0.00900379	-0.40822240
12.12419988	0.02502747	-0.40868030
12.17429988	0.03735808	-0.40089730
12.22439988	0.04587352	-0.38670490
12.27449988	0.05075693	-0.37007080
12.32459988	0.05206934	-0.35664140
12.37469988	0.04981077	-0.34901110
12.42479988	0.04410328	-0.34916370
12.47489988	0.03491637	-0.35603100
12.52499987	0.02249420	-0.36915520
12.57509987	0.00753876	-0.38853620
12.62519987	-0.00921743	-0.41249540
12.67529987	-0.02682823	-0.43950680
12.72539987	-0.04413380	-0.46895980
12.77549987	-0.05997436	-0.49871810
12.82559987	-0.07312904	-0.52649250
12.87569987	-0.08268221	-0.55228300
12.92579987	-0.08784031	-0.57395310
12.97589987	-0.08811501	-0.59058720
13.02599987	-0.08338420	-0.60035400
13.07609987	-0.07376999	-0.60279570
13.12619987	-0.05966915	-0.59623370
13.17629987	-0.04190575	-0.57837870
13.22639987	-0.02139543	-0.54923090
13.27649987	0.00085460	-0.50848490
13.32659987	0.02380662	-0.45507260
13.37669987	0.04651447	-0.38960440
13.42679987	0.06809303	-0.31452200
13.47689987	0.08771823	-0.23303020
13.52699986	0.10456600	-0.14787570
13.57709986	0.11793430	-0.06302649
13.62719986	0.12712120	0.01709193
13.67729986	0.13154680	0.08790135
13.72739986	0.13075330	0.14726530
13.77749986	0.12434380	0.19014770
13.82759986	0.11216580	0.21349650
13.87769986	0.09421927	0.21639600
13.92779986	0.07068734	0.19915150
13.97789986	0.04193627	0.16527290
14.02799986	0.00897326	0.11964350
14.07809986	-0.02630936	0.06577341
14.12819986	-0.06189720	0.00595165
14.17829986	-0.09544012	-0.05844830
14.22839986	-0.12464900	-0.12452690
14.27849986	-0.14750950	-0.19030030
14.32859986	-0.16255650	-0.25424240
14.37869986	-0.16866070	-0.31314860
14.42879986	-0.16554750	-0.36534000
14.47889986	-0.15333900	-0.40791720
14.52899985	-0.13282870	-0.43981200
14.57909985	-0.10539010	-0.45644610
14.62919985	-0.07279330	-0.45598830
14.67929985	-0.03671713	-0.43447070
14.72939985	0.00082408	-0.39189350
14.77949985	0.03815163	-0.32489930
14.82959985	0.07392260	-0.23425100
14.87969985	0.10685510	-0.12010130
14.92979985	0.13636920	0.01342937
14.97989985	0.16197660	0.15993160
15.02999985	0.18324990	0.31192770
15.08009985	0.19948720	0.46346600
15.13019985	0.20980340	0.60905260
15.18029985	0.21374070	0.74548290
15.23039985	0.21074960	0.86863630
15.28049985	0.20083020	0.97485040
15.33059985	0.18413500	1.06275200
15.38069985	0.16109140	1.13020400
15.43079985	0.13261510	1.17491800
15.48089984	0.09971310	1.19750300
15.53099984	0.06382005	1.19674000
15.58109984	0.02643145	1.17232300
15.63119984	-0.01098767	1.12501500
15.68129984	-0.04700281	1.05649500
15.73139984	-0.08045416	0.96996700
15.78149984	-0.11012090	0.86924670
15.83159984	-0.13514830	0.75753870
15.88169984	-0.15446830	0.63850570
15.93179984	-0.16768400	0.51519960
15.98189984	-0.17421560	0.39036750
16.03199984	-0.17427660	0.26797710
16.08209984	-0.16820290	0.14894400
16.13219984	-0.15648270	0.03830424
16.18229984	-0.14018430	-0.06287389
16.23239984	-0.12034550	-0.15306430
16.28249984	-0.09806494	-0.22997800
16.33259984	-0.07459407	-0.29407270
16.38269984	-0.05112318	-0.34519590
16.43279984	-0.02881211	-0.38182150
16.48289983	-0.00845440	-0.40654380
16.53299983	0.00903431	-0.41875230
16.58309983	0.02331828	-0.42043100
16.63319983	0.03400073	-0.41447930
16.68329983	0.04102063	-0.40333900
16.73339983	0.04468319	-0.39067270
16.78349983	0.04498840	-0.38105850
16.83359983	0.04218044	-0.37648030
16.88369983	0.03607618	-0.37846420
16.93379983	0.02701135	-0.38670490
16.98389983	0.01516909	-0.40043950
17.03399983	0.00122085	-0.41936270
17.08409983	-0.01400928	-0.44118540
17.13419983	-0.02972775	-0.46636550
17.18429983	-0.04483579	-0.49276640
17.23439983	-0.05823465	-0.51886210
17.28449983	-0.06906971	-0.54343180
17.33459983	-0.07648639	-0.56510190
17.38469983	-0.07972164	-0.58265170
17.43479983	-0.07853131	-0.59516540
17.48489982	-0.07291539	-0.60111710
17.53499982	-0.06293493	-0.59943840
17.58509982	-0.04920034	-0.58967160
17.63519982	-0.03235258	-0.56983270
17.68529982	-0.01327677	-0.54007450
17.73539982	0.00701990	-0.50009160
17.78549982	0.02774386	-0.44957880
17.83559982	0.04794897	-0.38945180
17.88569982	0.06675009	-0.32199980
17.93579982	0.08341472	-0.25073250
17.98589982	0.09727140	-0.17854960
18.03599982	0.10758760	-0.10926630
18.08609982	0.11363080	-0.04746063
18.13619982	0.11503480	0.00396777
18.18629982	0.11134170	0.04105115
18.23639982	0.10218530	0.06119521
18.28649982	0.08744353	0.06272128
18.33659982	0.06723844	0.04685020
18.38669982	0.04169210	0.01709193
18.43679982	0.01199487	-0.02243316
18.48689981	-0.02032719	-0.07080942
18.53699981	-0.05325967	-0.12437430
18.58709981	-0.08463557	-0.18083870
18.63719981	-0.11228790	-0.23867660
18.68729981	-0.13432430	-0.29544620
18.73739981	-0.14909660	-0.34916370
18.78749981	-0.15559760	-0.39815040
18.83759981	-0.15330850	-0.44011720
18.88769981	-0.14232080	-0.47308020
18.93779981	-0.12330610	-0.49383470
18.98789981	-0.09754609	-0.50085460
19.03799981	-0.06650592	-0.49169820
19.08809981	-0.03195580	-0.46193990
19.13819981	0.00430350	-0.41005370
19.18829981	0.04071542	-0.33466610
19.23839981	0.07590649	-0.23577710
19.28849981	0.10874740	-0.11476010
19.33859981	0.13850570	0.02426444
19.38869981	0.16475400	0.17565010
19.43879981	0.18672930	0.33191920
19.48889980	0.20369920	0.48818820
19.53899980	0.21474790	0.63896350
19.58909980	0.21929560	0.78073500
19.63919980	0.21691490	0.90953480
19.68929980	0.20748380	1.02292100
19.73939980	0.19112440	1.11738500
19.78949980	0.16838600	1.19139900
19.83959980	0.14003170	1.24374300
19.88969980	0.10731290	1.27350100
19.93979980	0.07148089	1.28097900
19.98989980	0.03418386	1.26510800
20.03999980	-0.00305213	1.22756700
20.09009980	-0.03879258	1.16698200
20.14019980	-0.07169454	1.08655800
20.19029980	-0.10093400	0.98934810
20.24039980	-0.12571730	0.87916610
20.29049980	-0.14528140	0.75982790
20.34059980	-0.15904650	0.63453790
20.39069980	-0.16689050	0.50604320
20.44079980	-0.16884390	0.37815900
20.49089979	-0.16508970	0.25347940
20.54099979	-0.15620800	0.13459890
20.59109979	-0.14305340	0.02426444
20.64119979	-0.12641920	-0.07645586
20.69129979	-0.10731290	-0.16634110
20.74139979	-0.08686363	-0.24340740
20.79149979	-0.06607862	-0.30765470
20.84159979	-0.04590404	-0.35893050
20.89169979	-0.02722500	-0.39784520
20.94179979	-0.01068246	-0.42561960
20.99189979	0.00317422	-0.44271150
21.04199979	0.01407032	-0.45095230
21.09209979	0.02188377	-0.45095230
21.14219979	0.02670614	-0.44698450
21.19229979	0.02881211	-0.44133810
21.24239979	0.02847638	-0.43721770
21.29249979	0.02572946	-0.43599680
21.34259979	0.02072397	-0.43874370
21.39269979	0.01358198	-0.44576360
21.44279979	0.00473080	-0.45690390
21.49289978	-0.00543279	-0.47155410
21.54299978	-0.01632890	-0.48818820
21.59309978	-0.02722500	-0.50711140
21.64319978	-0.03744964	-0.52572950
21.69329978	-0.04633134	-0.54419480
21.74339978	-0.05313759	-0.56067630
21.79349978	-0.05738005	-0.57502140
21.84359978	-0.05863142	-0.58600900
21.89369978	-0.05673910	-0.59272370
21.94379978	-0.05170309	-0.59440240
21.99389978	-0.04364546	-0.58967160
22.04399978	-0.03296301	-0.57868390
22.09409978	-0.02026615	-0.56113420
22.14419978	-0.00616530	-0.53702240
22.19429978	0.00866805	-0.50665370
22.24439978	0.02344036	-0.46957020
22.29449978	0.03760225	-0.42943470
22.34459978	0.05029911	-0.38670490
22.39469978	0.06095104	-0.34397510
22.44479978	0.06900866	-0.30460260
22.49489977	0.07380051	-0.26996090
22.54499977	0.07496032	-0.24432300
22.59509977	0.07190819	-0.22860460
22.64519977	0.06443048	-0.22539980
22.69529977	0.05249664	-0.23303020
22.74539977	0.03625931	-0.25073250
22.79549977	0.01635942	-0.27576000
22.84559977	-0.00616530	-0.30734950
22.89569977	-0.02988036	-0.34321210
22.94579977	-0.05338176	-0.38136370
22.99589977	-0.07502136	-0.42088880
23.04599977	-0.09327310	-0.45934560
23.09609977	-0.10673300	-0.49612380
23.14619977	-0.11439380	-0.52740810
23.19629977	-0.11558420	-0.55228300
23.24639977	-0.11002930	-0.57074840
23.29649977	-0.09806494	-0.57883650
23.34659977	-0.08024050	-0.57608960
23.39669977	-0.05756318	-0.56052370
23.44679977	-0.03137590	-0.52939200
23.49689976	-0.00286900	-0.48147360
23.54699976	0.02652301	-0.41570010
23.59709976	0.05579294	-0.33207180
23.64719976	0.08384202	-0.23150410
23.69729976	0.10975460	-0.11842270
23.74739976	0.13285920	0.00259431
23.79749976	0.15227080	0.12727380
23.84759976	0.16719570	0.25149550
23.89769976	0.17699300	0.37007080
23.94779976	0.18093030	0.47826880
23.99789976	0.17851910	0.57319010
24.04799976	0.16966790	0.65117200
24.09809976	0.15425470	0.71007810
24.14819976	0.13282870	0.74716150
24.19829976	0.10581740	0.75998040
24.24839976	0.07410572	0.74884020
24.29849976	0.03873153	0.71419850
24.34859976	0.00073251	0.66002320
24.39869976	-0.03836528	0.59135030
24.44879976	-0.07666951	0.51199480
24.49889975	-0.11201320	0.42363570
24.54899975	-0.14225980	0.32963010
24.59909975	-0.16585280	0.23165670
24.64919975	-0.18147970	0.13246250
24.69929975	-0.18819440	0.03525211
24.74939975	-0.18611890	-0.05676962
24.79949975	-0.17537540	-0.14146620
24.84959975	-0.15694050	-0.21578560
24.89969975	-0.13206570	-0.27728610
24.94979975	-0.10233790	-0.32383100
24.99989975	-0.06949700	-0.35236840
25.04999975	-0.03540471	-0.36305090
25.10009975	-0.00167867	-0.35481010
25.15019975	0.03003296	-0.32825660
25.20029975	0.05860090	-0.28262730
25.25039975	0.08314003	-0.21899040
25.30049975	0.10310100	-0.14268710
25.35059975	0.11848370	-0.05844830
25.40069975	0.12925770	0.02502747
25.45079975	0.13511780	0.10163590
25.50089974	0.13572820	0.16740930
25.55099974	0.13066170	0.21746430
25.60109974	0.11985720	0.24920640
25.65119974	0.10325360	0.26034670
25.70129974	0.08088145	0.24996950
25.75139974	0.05319863	0.22112680
25.80149974	0.02087657	0.17854960
25.85159974	-0.01446710	0.12590040
25.90169974	-0.05090953	0.06546819
25.95179974	-0.08597851	0.00091564
26.00189974	-0.11729340	-0.06729947
26.05199974	-0.14293130	-0.13612500
26.10209974	-0.16103040	-0.20296670
26.15219974	-0.17040040	-0.26629840
26.20229974	-0.17049200	-0.32398360
26.25239974	-0.16127460	-0.37419120
26.30249974	-0.14341960	-0.41264800
26.35259974	-0.11811740	-0.43798070
26.40269974	-0.08695519	-0.44667930
26.45279974	-0.05167257	-0.43645470
26.50289973	-0.01428397	-0.40425470
26.55299973	0.02344036	-0.34901110
26.60309973	0.05997436	-0.26980830
26.65319973	0.09394457	-0.16634110
26.70329973	0.12461850	-0.04211940
26.75339973	0.15144670	0.09736296
26.80349973	0.17409350	0.24539130
26.85359973	0.19194850	0.39479310
26.90369973	0.20430960	0.54144790
26.95379973	0.21041390	0.67909900
27.00389973	0.20980340	0.80362590
27.05399973	0.20229520	0.91350260
27.10409973	0.18785860	1.00460900
27.15419973	0.16692100	1.07572300
27.20429973	0.14027590	1.12532000
27.25439973	0.10874740	1.15248400
27.30449973	0.07376999	1.15614700
27.35459973	0.03671713	1.13615500
27.40469973	-0.00091564	1.09281500
27.45479973	-0.03781589	1.02765200
27.50489972	-0.07257966	0.94387130
27.55499972	-0.10404710	0.84574530
27.60509972	-0.13102800	0.73693690
27.65519972	-0.15242340	0.62080330
27.70529972	-0.16756190	0.49978630
27.75539972	-0.17592480	0.37785380
27.80549972	-0.17738980	0.25714200
27.85559972	-0.17223170	0.14055060
27.90569972	-0.16112200	0.03067391
27.95579972	-0.14482360	-0.06974117
28.00589972	-0.12455740	-0.15703210
28.05599972	-0.10142230	-0.23257230
28.10609972	-0.07676108	-0.29483580
28.15619972	-0.05179465	-0.34229640
28.20629972	-0.02792699	-0.37678550
28.25639972	-0.00589061	-0.39799780
28.30649972	0.01315468	-0.40684900
28.35659972	0.02878159	-0.40471250
28.40669972	0.04068490	-0.39357220
28.45679972	0.04868148	-0.37709070
28.50689971	0.05301550	-0.35969360
28.55699971	0.05374802	-0.34565380
28.60709971	0.05094006	-0.33726040
28.65719971	0.04450006	-0.33817600
28.70729971	0.03461116	-0.34656940
28.75739971	0.02151752	-0.36152490
28.80749971	0.00573801	-0.38288970
28.85759971	-0.01175070	-0.40761200
28.90769971	-0.02988036	-0.43614940
28.95779971	-0.04755219	-0.46560250
29.00789971	-0.06339274	-0.49642900
29.05799971	-0.07645586	-0.52572950
29.10809971	-0.08564278	-0.55136730
29.15819971	-0.09022097	-0.57334270
29.20829971	-0.08973263	-0.58951900
29.25839971	-0.08414723	-0.59928580
29.30849971	-0.07349530	-0.59959100
29.35859971	-0.05838725	-0.59073980
29.40869971	-0.03973874	-0.57135880
29.45879971	-0.01840435	-0.54007450
29.50889970	0.00454767	-0.49551330
29.55899970	0.02807960	-0.43828590
29.60909970	0.05118423	-0.36991820
29.65919970	0.07297644	-0.29163100
29.70929970	0.09263216	-0.20540840
29.75939970	0.10951040	-0.11720180
29.80949970	0.12278720	-0.02930045
29.85959970	0.13172990	0.05280185
29.90969970	0.13578930	0.12666340
29.95979970	0.13441580	0.18709560
30.00989970	0.12736540	0.23165670
30.05999970	0.11448540	0.25653160
30.11009970	0.09586741	0.25973630
30.16019970	0.07163350	0.24249180
30.21029970	0.04224148	0.20846050
30.26039970	0.00872909	0.16267850
30.31049970	-0.02722500	0.10636670
30.36059970	-0.06339274	0.04410328
30.41069970	-0.09736296	-0.02228055
30.46079969	-0.12687710	-0.09049566
30.51089969	-0.15004270	-0.15901600
30.56099969	-0.16527290	-0.22570500
30.61109969	-0.17140760	-0.28812110
30.66119969	-0.16817240	-0.34275420
30.71129969	-0.15581130	-0.38914660
30.76139969	-0.13530090	-0.42302530
30.81149969	-0.10783180	-0.44255890
30.86159969	-0.07505189	-0.44530580
30.91169969	-0.03894518	-0.42806130
30.96179969	-0.00128190	-0.38823100
31.01189969	0.03607618	-0.32474670
31.06199969	0.07178611	-0.23699790
31.11209969	0.10465750	-0.12590040
31.16219969	0.13398850	0.00457820
31.21229969	0.15935170	0.14772310
31.26239969	0.18038090	0.29620920
31.31249969	0.19628250	0.44484800
31.36259969	0.20647660	0.58738250
31.41269969	0.21020020	0.72076060
31.46279968	0.20717860	0.84070930
31.51289968	0.19722870	0.94356610
31.56299968	0.18056400	1.02734700
31.61309968	0.15758150	1.09067900
31.66319968	0.12907460	1.13157700
31.71329968	0.09620315	1.15004300
31.76339968	0.06037114	1.14485400
31.81349968	0.02295202	1.11616400
31.86359968	-0.01455866	1.06488800
31.91369968	-0.05078745	0.99362110
31.96379968	-0.08451349	0.90510920
32.01389968	-0.11451590	0.80316810
32.06399968	-0.13969600	0.69130750
32.11409968	-0.15901600	0.57334270
32.16419968	-0.17177390	0.45141010
32.21429968	-0.17763400	0.32978270
32.26439968	-0.17662680	0.21074960
32.31449968	-0.16911850	0.09736296
32.36459968	-0.15590280	-0.00839336
32.41469968	-0.13783420	-0.10392500
32.46479967	-0.11622510	-0.18740080
32.51489967	-0.09223538	-0.25744720
32.56499967	-0.06714687	-0.31269080
32.61509967	-0.04236357	-0.35465750
32.66519967	-0.01886217	-0.38334760
32.71529967	0.00219753	-0.39860820
32.76539967	0.02023562	-0.40211820
32.81549967	0.03461116	-0.39616650
32.86559967	0.04504944	-0.38121110
32.91569967	0.05173361	-0.36350870
32.96579967	0.05469418	-0.34656940
33.01589967	0.05405323	-0.33497130
33.06599967	0.04987181	-0.33024050
33.11609967	0.04199731	-0.33344530
33.16619967	0.03067391	-0.34382250
33.21629967	0.01623733	-0.36106700
33.26639967	-0.00054938	-0.38365280
33.31649967	-0.01864852	-0.41051150
33.36659967	-0.03705286	-0.43950680
33.41669967	-0.05451105	-0.46987550
33.46679966	-0.06964961	-0.49993900
33.51689966	-0.08155292	-0.52847640
33.56699966	-0.08924429	-0.55441950
33.61709966	-0.09199121	-0.57456360
33.66719966	-0.08954950	-0.58860330
33.71729966	-0.08188866	-0.59562330
33.76739966	-0.06940544	-0.59348670
33.81749966	-0.05267977	-0.58082040
33.86759966	-0.03256623	-0.55792940
33.91769966	-0.01016359	-0.52176170
33.96779966	0.01345989	-0.47262240
34.01789966	0.03726651	-0.41020630
34.06799966	0.06034062	-0.33619220
34.11809966	0.08176658	-0.25332680
34.16819966	0.10078130	-0.16450980
34.21829966	0.11665240	-0.07431938
34.26839966	0.12873890	0.01388719
34.31849966	0.13615550	0.09598950
34.36859966	0.13841410	0.16710410
34.41869966	0.13514830	0.22433160
34.46879965	0.12605300	0.26400930
34.51889965	0.11115860	0.28400070
34.56899965	0.09046514	0.28201680
34.61909965	0.06427786	0.25958370
34.66919965	0.03320718	0.22112680
34.71929965	-0.00158711	0.17168230
34.76939965	-0.03818215	0.11384450
34.81949965	-0.07425833	0.04974972
34.86959965	-0.10752660	-0.01831278
34.91969965	-0.13569770	-0.08820657
34.96979965	-0.15694050	-0.15840560
35.01989965	-0.16979000	-0.22524720
35.06999965	-0.17342200	-0.28766330
35.12009965	-0.16756190	-0.34244900
35.17019965	-0.15278970	-0.38701010
35.22029965	-0.13002080	-0.41921010
35.27039965	-0.10081190	-0.43660720
35.32049965	-0.06681113	-0.43660720
35.37059965	-0.02988036	-0.41463190
35.42069965	0.00790502	-0.37068120
35.47079964	0.04501892	-0.30277130
35.52089964	0.08005738	-0.21059700
35.57099964	0.11192160	-0.09629472
35.62109964	0.14009280	0.03616774
35.67119964	0.16414360	0.17946530
35.72129964	0.18373820	0.32642530
35.77139964	0.19805270	0.47124890
35.82149964	0.20641560	0.60935780
35.87159964	0.20827740	0.73724210
35.92169964	0.20327190	0.85047610
35.97179964	0.19149070	0.94677080
36.02189964	0.17305580	1.02322700
36.07199964	0.14845560	1.07847000
36.12209964	0.11869730	1.11082300
36.17219964	0.08484922	1.11921600
36.22229964	0.04837627	1.10487100
36.27239964	0.01071298	1.06733000
36.32249964	-0.02670614	1.00827100
36.37259964	-0.06266023	0.92952630
36.42269964	-0.09577585	0.83582590
36.47279963	-0.12471000	0.73098520
36.52289963	-0.14836410	0.61744590
36.57299963	-0.16570020	0.49963370
36.62309963	-0.17613840	0.37937980
36.67319963	-0.17943470	0.26049930
36.72329963	-0.17580270	0.14497620
36.77339963	-0.16570020	0.03632035
36.82349963	-0.14998170	-0.06287389
36.87359963	-0.12974610	-0.15108050
36.92369963	-0.10618360	-0.22692590
36.97379963	-0.08072884	-0.28857890
37.02389963	-0.05475522	-0.33634480
37.07399963	-0.02942254	-0.36869730
37.12409963	-0.00598218	-0.38838360
37.17419963	0.01474179	-0.39494570
37.22429963	0.03192528	-0.38975700
37.27439963	0.04520205	-0.37541200
37.32449963	0.05441948	-0.35481010
37.37459963	0.05979123	-0.33329260
37.42469963	0.06134782	-0.31482720
37.47479962	0.05905872	-0.30368700
37.52489962	0.05286290	-0.30185570
37.57499962	0.04279087	-0.30918080
37.62509962	0.02902576	-0.32383100
37.67519962	0.01211696	-0.34580640
37.72529962	-0.00695886	-0.37281770
37.77539962	-0.02707240	-0.40364420
37.82549962	-0.04697229	-0.43660720
37.87559962	-0.06534611	-0.46987550
37.92569962	-0.08082041	-0.50207540
37.97579962	-0.09226590	-0.53183370
38.02589962	-0.09873642	-0.55808200
38.07599962	-0.09965205	-0.57883650
38.12609962	-0.09489073	-0.59150280
38.17619962	-0.08451349	-0.59623370
38.22629962	-0.06903919	-0.59073980
38.27639962	-0.04938347	-0.57410570
38.32649962	-0.02652301	-0.54465260
38.37659962	-0.00164815	-0.50070200
38.42669962	0.02414235	-0.44210110
38.47679961	0.04974972	-0.36900260
38.52689961	0.07422781	-0.28369550
38.57699961	0.09672201	-0.18801120
38.62709961	0.11643880	-0.08713832
38.67719961	0.13264560	0.01541326
38.72729961	0.14460990	0.11537050
38.77739961	0.15159930	0.20800270
38.82749961	0.15306430	0.28979980
38.87759961	0.14873030	0.35587840
38.92769961	0.13826150	0.40379690
38.97779961	0.12178000	0.43096080
39.02789961	0.09943841	0.43599680
39.07799961	0.07169454	0.41707360
39.12809961	0.03931144	0.37937980
39.17819961	0.00308265	0.32795140
39.22829961	-0.03503846	0.26553540
39.27839961	-0.07285435	0.19625200
39.32849961	-0.10792330	0.12193260
39.37859961	-0.13804790	0.04410328
39.42869961	-0.16118300	-0.03433647
39.47879960	-0.17592480	-0.11231840
39.52889960	-0.18132710	-0.18602730
39.57899960	-0.17729820	-0.25332680
39.62909960	-0.16408250	-0.31177510
39.67919960	-0.14268710	-0.35816750
39.72929960	-0.11460750	-0.39082530
39.77939960	-0.08146136	-0.40593330
39.82949960	-0.04517153	-0.40181300
39.87959960	-0.00772189	-0.37556460
39.92969960	0.02911732	-0.32673050
39.97979960	0.06397265	-0.25424240
40.02989960	0.09562324	-0.16008420
40.07999960	0.12336710	-0.04593456
40.13009960	0.14680750	0.08072884
40.18019960	0.16579170	0.21303870
40.23029960	0.17986200	0.34382250
40.28039960	0.18831640	0.46773900
40.33049960	0.19060550	0.58143090
40.38059960	0.18642410	0.68031980
40.43069960	0.17549750	0.76135390
40.48079959	0.15800880	0.82285430
40.53089959	0.13447690	0.86268470
40.58099959	0.10569530	0.87794530
40.63109959	0.07257966	0.86955200
40.68119959	0.03632035	0.83719930
40.73129959	-0.00173971	0.78393970
40.78139959	-0.04050177	0.71343550
40.83149959	-0.07804297	0.63118050
40.88159959	-0.11253200	0.53870100
40.93169959	-0.14195460	0.43904890
40.98179959	-0.16487610	0.33359780
41.03189959	-0.18022830	0.22692590
41.08199959	-0.18721770	0.12132220
41.13209959	-0.18581370	0.01999145
41.18219959	-0.17629100	-0.07355634
41.23229959	-0.15947380	-0.15810040
41.28239959	-0.13652180	-0.22997800
41.33249959	-0.10893050	-0.28857890
41.38259959	-0.07834819	-0.33161400
41.43269959	-0.04642290	-0.35694660
41.48279958	-0.01483335	-0.36534000
41.53289958	0.01492492	-0.35679400
41.58299958	0.04166158	-0.33085090
41.63309958	0.06452204	-0.28949460
41.68319958	0.08289586	-0.23577710
41.73329958	0.09669149	-0.17458190
41.78339958	0.10597000	-0.11262360
41.83349958	0.11060920	-0.05768526
41.88359958	0.11048710	-0.01327677
41.93369958	0.10511540	0.01648150
41.98379958	0.09437187	0.02960566
42.03389958	0.07810402	0.02411183
42.08399958	0.05643389	0.00320474
42.13409958	0.02991088	-0.02975827
42.18419958	-0.00018313	-0.07218288
42.23429958	-0.03219998	-0.12040650
42.28439958	-0.06409474	-0.17381880
42.33449958	-0.09370040	-0.22936760
42.38459958	-0.11891100	-0.28461120
42.43469958	-0.13798680	-0.33863390
42.48479957	-0.14958490	-0.38914660
42.53489957	-0.15272860	-0.43294470
42.58499957	-0.14717370	-0.46911240
42.63509957	-0.13328650	-0.49520810
42.68519957	-0.11189110	-0.50894270
42.73529957	-0.08429984	-0.50787450
42.78539957	-0.05209986	-0.48895130
42.83549957	-0.01706141	-0.44973140
42.88559957	0.01904529	-0.38792580
42.93569957	0.05484678	-0.30277130
42.98579957	0.08903064	-0.19472590
43.03589957	0.12065070	-0.06485777
43.08599957	0.14909660	0.07981321
43.13609957	0.17363570	0.23364060
43.18619957	0.19371870	0.38960440
43.23629957	0.20836890	0.54343180
43.28639957	0.21691490	0.69130750
43.33649957	0.21883770	0.82819560
43.38659957	0.21371020	0.95073860
43.43669957	0.20150160	1.05634200
43.48679956	0.18263950	1.14378600
43.53689956	0.15761200	1.20879600
43.58699956	0.12745700	1.25167900
43.63709956	0.09336467	1.27258600
43.68719956	0.05680015	1.27075400
43.73729956	0.01928946	1.24633700
43.78739956	-0.01745819	1.19933500
43.83749956	-0.05231351	1.13081400
43.88759956	-0.08399463	1.04321800
43.93769956	-0.11161640	0.93990360
43.98779956	-0.13450740	0.82590650
44.03789956	-0.15196560	0.70366870
44.08799956	-0.16353320	0.57761570
44.13809956	-0.16893540	0.44957880
44.18819956	-0.16850810	0.32306800
44.23829956	-0.16252590	0.20052500
44.28839956	-0.15169090	0.08454401
44.33849956	-0.13682700	-0.02197534
44.38859956	-0.11891100	-0.11735440
44.43869956	-0.09901111	-0.20128800
44.48879955	-0.07816505	-0.27316570
44.53889955	-0.05731901	-0.33146140
44.58899955	-0.03751068	-0.37724330
44.63909955	-0.01953363	-0.41096930
44.68919955	-0.00390673	-0.43401290
44.73929955	0.00891222	-0.44667930
44.78939955	0.01852643	-0.45064710
44.83949955	0.02518008	-0.44805270
44.88959955	0.02884263	-0.44210110
44.93969955	0.02984983	-0.43614940
44.98979955	0.02835429	-0.43324990
45.03989955	0.02453913	-0.43401290
45.08999955	0.01840435	-0.43981200
45.14009955	0.01028568	-0.44927360
45.19019955	0.00051886	-0.46224510
45.24029955	-0.01028568	-0.47765840
45.29039955	-0.02157856	-0.49566600
45.34049955	-0.03253571	-0.51428400
45.39059955	-0.04251618	-0.53381760
45.44069954	-0.05069588	-0.55167260
45.49079954	-0.05658650	-0.56800140
45.54089954	-0.05963863	-0.58143090
45.59099954	-0.05951654	-0.59058720
45.64109954	-0.05612868	-0.59547060
45.69119954	-0.04956660	-0.59394450
45.74129954	-0.04013551	-0.58692470
45.79139954	-0.02820168	-0.57303740
45.84149954	-0.01452814	-0.55258820
45.89159954	0.00030521	-0.52542420
45.94169954	0.01562691	-0.49154560
45.99179954	0.03058235	-0.45156270
46.04189954	0.04453058	-0.40822240
46.09199954	0.05676962	-0.36320350
46.14209954	0.06659748	-0.31971060
46.19219954	0.07352582	-0.28049080
46.24229954	0.07691368	-0.24844340
46.29239954	0.07642534	-0.22570500
46.34249954	0.07154194	-0.21502260
46.39259954	0.06214137	-0.21578560
46.44269953	0.04819314	-0.22814670
46.49279953	0.03006348	-0.24905380
46.54289953	0.00848492	-0.27759130
46.59299953	-0.01519961	-0.31162250
46.64309953	-0.03958613	-0.34977410
46.69319953	-0.06311806	-0.38975700
46.74329953	-0.08414723	-0.43035040
46.79339953	-0.10114760	-0.46911240
46.84349953	-0.11277620	-0.50405930
46.89359953	-0.11814800	-0.53381760
46.94369953	-0.11680500	-0.55731900
46.99379953	-0.10859480	-0.57303740
47.04389953	-0.09403613	-0.57822610
47.09399953	-0.07383104	-0.57181660
47.14409953	-0.04920034	-0.55075690
47.19419953	-0.02139543	-0.51306310
47.24429953	0.00817971	-0.45781960
47.29439953	0.03821267	-0.38441580
47.34449953	0.06766573	-0.29285190
47.39459953	0.09544012	-0.18556950
47.44469952	0.12086440	-0.06638384
47.49479952	0.14311440	0.05936394
47.54489952	0.16142720	0.18755340
47.59499952	0.17494810	0.31360640
47.64509952	0.18294470	0.43248690
47.69519952	0.18480650	0.54068490
47.74529952	0.18028930	0.63423270
47.79539952	0.16917960	0.71007810
47.84549952	0.15166040	0.76516910
47.89559952	0.12815900	0.79828470
47.94569952	0.09931632	0.80759370
47.99579952	0.06617019	0.79294350
48.04589952	0.02991088	0.75494440
48.09599952	-0.00848492	0.69817480
48.14609952	-0.04736906	0.62644980
48.19619952	-0.08494079	0.54312660
48.24629952	-0.11903310	0.45141010
48.29639952	-0.14772310	0.35389450
48.34649952	-0.16954580	0.25286900
48.39659952	-0.18321940	0.15108050
48.44669951	-0.18828590	0.05173361
48.49679951	-0.18465390	-0.04272982
48.54689951	-0.17278110	-0.12895250
48.59699951	-0.15355270	-0.20510320
48.64709951	-0.12837260	-0.26797710
48.69719951	-0.09873642	-0.31635330
48.74729951	-0.06635331	-0.34763770
48.79739951	-0.03305457	-0.36106700
48.84749951	-0.00048834	-0.35572580
48.89759951	0.02981931	-0.33252960
48.94769951	0.05689171	-0.29132580
48.99779951	0.07978269	-0.23470880
49.04789951	0.09806494	-0.16527290
49.09799951	0.11179950	-0.09064827
49.14809951	0.12095590	-0.01754975
49.19819951	0.12532050	0.04822366
49.24829951	0.12440480	0.10209380
49.29839951	0.11805640	0.14009280
49.34849951	0.10609210	0.15886340
49.39859951	0.08838969	0.15794770
49.44869950	0.06516299	0.13749850
49.49879950	0.03674765	0.10331460
49.54889950	0.00436455	0.05814308
49.59899950	-0.03018557	0.00534123
49.64909950	-0.06467465	-0.05249664
49.69919950	-0.09690514	-0.11414970
49.74929950	-0.12474060	-0.17717620
49.79939950	-0.14622760	-0.23928700
49.84949950	-0.15977900	-0.29849830
49.89959950	-0.16444880	-0.35252110
49.94969950	-0.16002320	-0.39952390
49.99979950	-0.14665490	-0.43675990
50.04989950	-0.12538150	-0.46193990
50.09999950	-0.09745452	-0.47231720
50.15009950	-0.06455256	-0.46422900
50.20019950	-0.02853742	-0.43584420
50.25029950	0.00879014	-0.38533150
