#eq: t ; eq: U_1 ; eq: U_2
# s ; V; V
0.00000000	-0.08857282	-2.16914900
0.05010000	-0.12376390	-2.22424000
0.10020000	-0.15471250	-2.27841500
0.15030000	-0.17906850	-2.32984400
0.20040000	-0.19506170	-2.37608300
0.25050000	-0.20131850	-2.41499800
0.30060000	-0.19707610	-2.44384100
0.35070000	-0.18245630	-2.46062800
0.40080000	-0.15837500	-2.46276400
0.45090000	-0.12620560	-2.44735100
0.50099999	-0.08771823	-2.40904600
0.55109999	-0.04495788	-2.34403600
0.60119999	0.00015261	-2.24881000
0.65129999	0.04596508	-2.12107800
0.70139999	0.09113661	-1.95931500
0.75149999	0.13462950	-1.76733600
0.80159999	0.17583320	-1.55185600
0.85169999	0.21380170	-1.31821500
0.90179999	0.24734460	-1.07267100
0.95189999	0.27530220	-0.81995480
1.00199999	0.29669760	-0.56433890
1.05209999	0.31076790	-0.31146990
1.10219999	0.31690270	-0.06531559
1.15229999	0.31488830	0.17152970
1.20239999	0.30481620	0.39784520
1.25249999	0.28720550	0.61256250
1.30259999	0.26300210	0.81568180
1.35269999	0.23379320	1.00766100
1.40279999	0.20156270	1.18865200
1.45289999	0.16847760	1.36002900
1.50299998	0.13667440	1.52057100
1.55309998	0.10832010	1.66982100
1.60319998	0.08518496	1.80762400
1.65329998	0.06824563	1.93352500
1.70339998	0.05811256	2.04675900
1.75349998	0.05481626	2.14641100
1.80359998	0.05747161	2.23461700
1.85369998	0.06501038	2.31015800
1.90379998	0.07596752	2.37501500
1.95389998	0.08863387	2.42949600
2.00399998	0.10111710	2.47421000
2.05409998	0.11170800	2.51007200
2.10419998	0.11906360	2.53891500
2.15429998	0.12199360	2.55951600
2.20439998	0.11988770	2.57264100
2.25449998	0.11247100	2.57660800
2.30459998	0.09998779	2.57050400
2.35469998	0.08295690	2.55341200
2.40479998	0.06214137	2.52518000
2.45489998	0.03848736	2.48397600
2.50499997	0.01321572	2.42964800
2.55509997	-0.01257478	2.36280700
2.60519997	-0.03793798	2.28436700
2.65529997	-0.06177512	2.19722900
2.70539997	-0.08310951	2.10520700
2.75549997	-0.10093400	2.01349000
2.80559997	-0.11436330	1.92574200
2.85569997	-0.12257360	1.84714900
2.90579997	-0.12495420	1.78213900
2.95589997	-0.12077280	1.73589900
3.00599997	-0.10969360	1.71148200
3.05609997	-0.09131974	1.71178700
3.10619997	-0.06543767	1.73406800
3.15629997	-0.03226102	1.77313500
3.20639997	0.00674521	1.82303800
3.25649997	0.04947503	1.88179100
3.30659997	0.09308998	1.94725900
3.35669997	0.13475160	2.01654200
3.40679997	0.17156020	2.08674100
3.45689997	0.20095230	2.15480400
3.50699996	0.22076060	2.21996700
3.55709996	0.22955070	2.27841500
3.60719996	0.22662070	2.32816500
3.65729996	0.21206200	2.36708000
3.70739996	0.18682090	2.39149700
3.75749996	0.15242340	2.39790600
3.80759996	0.11109750	2.38111900
3.85769996	0.06501038	2.33777900
3.90779996	0.01648150	2.26315500
3.95789996	-0.03247467	2.15419400
4.00799996	-0.08024050	2.00998000
4.05809996	-0.12568670	1.82944700
4.10819996	-0.16826390	1.61824000
4.15829996	-0.20760590	1.38566700
4.20839996	-0.24270540	1.13890200
4.25849996	-0.27264680	0.88252350
4.30859996	-0.29630080	0.62248200
4.35869996	-0.31287390	0.36274570
4.40879996	-0.32169460	0.10896110
4.45889996	-0.32239650	-0.13505680
4.50899995	-0.31488830	-0.36839210
4.55909995	-0.29950560	-0.59028200
4.60919995	-0.27716400	-0.79874250
4.65929995	-0.24914540	-0.99606280
4.70939995	-0.21725060	-1.18209000
4.75949995	-0.18373820	-1.35743500
4.80959995	-0.15074470	-1.52148700
4.85969995	-0.12040650	-1.67302500
4.90979995	-0.09461604	-1.81159200
4.95989995	-0.07459407	-1.93749200
5.00999995	-0.06110365	-2.04965800
5.06009995	-0.05423636	-2.14778400
5.11019995	-0.05350384	-2.23278600
5.16029995	-0.05799048	-2.30573200
5.21039995	-0.06641436	-2.36708000
5.26049995	-0.07715786	-2.41774500
5.31059995	-0.08851178	-2.45864400
5.36069995	-0.09879746	-2.49023300
5.41079995	-0.10648880	-2.51526100
5.46089995	-0.11051760	-2.53311600
5.51099994	-0.11018190	-2.54486600
5.56109994	-0.10520690	-2.54852900
5.61119994	-0.09559272	-2.54517100
5.66129994	-0.08170553	-2.53235200
5.71139994	-0.06424734	-2.50991900
5.76149994	-0.04388963	-2.47634600
5.81159994	-0.02179221	-2.43224300
5.86169994	0.00100720	-2.37806700
5.91179994	0.02359297	-2.31473600
5.96189994	0.04492736	-2.24514700
6.01199994	0.06397265	-2.17220100
6.06209994	0.07984373	-2.10017100
6.11219994	0.09162495	-2.03363400
6.16229994	0.09849225	-1.97656000
6.21239994	0.09971310	-1.93383000
6.26249994	0.09467708	-1.90926000
6.31259994	0.08289586	-1.90575000
6.36269994	0.06366744	-1.92055300
6.41279994	0.03729703	-1.94954800
6.46289994	0.00485289	-1.98998900
6.51299993	-0.03192528	-2.03821300
6.56309993	-0.07071786	-2.09284600
6.61319993	-0.10896110	-2.15022600
6.66329993	-0.14403000	-2.20867400
6.71339993	-0.17348310	-2.26498600
6.76349993	-0.19512270	-2.31778800
6.81359993	-0.20717860	-2.36387500
6.86369993	-0.20864360	-2.40217900
6.91379993	-0.19921260	-2.43025900
6.96389993	-0.17934320	-2.44475700
7.01399993	-0.15022580	-2.44307800
7.06409993	-0.11363080	-2.42064500
7.11419993	-0.07151142	-2.37303100
7.16429993	-0.02603467	-2.29688100
7.21439993	0.02090709	-2.18746200
7.26449993	0.06775729	-2.04324900
7.31459993	0.11323400	-1.86454600
7.36469993	0.15681840	-1.65669600
7.41479993	0.19753390	-1.42656600
7.46489993	0.23455620	-1.18041100
7.51499992	0.26660360	-0.92418500
7.56509992	0.29266880	-0.66170190
7.61519992	0.31177510	-0.40089730
7.66529992	0.32322060	-0.14375530
7.71539992	0.32648640	0.10453550
7.76549992	0.32129780	0.34183860
7.81559992	0.30783790	0.56662800
7.86569992	0.28680870	0.77890370
7.91579992	0.25946160	0.97912340
7.96589992	0.22750580	1.16682900
8.01599992	0.19307780	1.34339500
8.06609992	0.15855820	1.50836300
8.11619992	0.12602250	1.66096900
8.16629992	0.09757660	1.80136700
8.21639992	0.07471615	1.92757300
8.26649992	0.05841777	2.04080700
8.31659992	0.04910878	2.14122200
8.36669992	0.04645342	2.22866600
8.41679992	0.04974972	2.30374800
8.46689992	0.05762422	2.36708000
8.51699991	0.06873398	2.41927100
8.56709991	0.08115615	2.46200100
8.61719991	0.09318154	2.49725300
8.66729991	0.10319250	2.52533300
8.71739991	0.10984620	2.54730800
8.76749991	0.11237940	2.56302600
8.81759991	0.11018190	2.57248800
8.86769991	0.10313150	2.57386200
8.91779991	0.09147234	2.56623100
8.96789991	0.07569283	2.54990200
9.01799991	0.05646441	2.52258600
9.06809991	0.03482481	2.48336600
9.11819991	0.01175070	2.43346400
9.16829991	-0.01165914	2.37287900
9.21839991	-0.03442803	2.30405300
9.26849991	-0.05554877	2.22912300
9.31859991	-0.07407521	2.15205700
9.36869991	-0.08909169	2.07666900
9.41879991	-0.09971310	2.00738600
9.46889991	-0.10505430	1.94985300
9.51899990	-0.10459650	1.90819200
9.56909990	-0.09779026	1.88545300
9.61919990	-0.08393358	1.88438500
9.66929990	-0.06278232	1.90208800
9.71939990	-0.03442803	1.93352500
9.76949990	-0.00015261	1.97625400
9.81959990	0.03809059	2.02692000
9.86969990	0.07795141	2.08353700
9.91979990	0.11671350	2.14305300
9.96989990	0.15172140	2.20394300
10.01999990	0.18065560	2.26254400
10.07009990	0.20110490	2.31763500
10.12019990	0.21163470	2.36585900
10.17029990	0.21132950	2.40599400
10.22039990	0.19994510	2.43529500
10.27049990	0.17815280	2.45147100
10.32059990	0.14732630	2.44933500
10.37069990	0.10929680	2.42644400
10.42079990	0.06607862	2.37852500
10.47089990	0.01983885	2.29947500
10.52099989	-0.02743865	2.18776700
10.57109989	-0.07422781	2.04080700
10.62119989	-0.11949090	1.85905300
10.67129989	-0.16249540	1.64830300
10.72139989	-0.20269200	1.41634100
10.77149989	-0.23895130	1.16866100
10.82159989	-0.27014400	0.91060310
10.87169989	-0.29523260	0.64750950
10.92179989	-0.31339280	0.38609450
10.97189989	-0.32383100	0.12879990
11.02199989	-0.32621170	-0.11888050
11.07209989	-0.32016850	-0.35557320
11.12219989	-0.30600660	-0.57990480
11.17229989	-0.28455010	-0.79187520
11.22239989	-0.25701990	-0.99163720
11.27249989	-0.22515570	-1.18041100
11.32259989	-0.19112440	-1.35697700
11.37269989	-0.15715420	-1.52133400
11.42279989	-0.12544260	-1.67394100
11.47289989	-0.09794286	-1.81311800
11.52299988	-0.07612013	-1.93932400
11.57309988	-0.06070687	-2.05148900
11.62319988	-0.05200830	-2.14931000
11.67329988	-0.04968868	-2.23461700
11.72339988	-0.05286290	-2.30695300
11.77349988	-0.06049322	-2.36738500
11.82359988	-0.07080942	-2.41713500
11.87369988	-0.08222439	-2.45666000
11.92379988	-0.09302893	-2.48809700
11.97389988	-0.10166650	-2.51297100
12.02399988	-0.10700770	-2.53220000
12.07409988	-0.10825910	-2.54486600
12.12419988	-0.10502380	-2.55097100
12.17429988	-0.09717983	-2.54913900
12.22439988	-0.08506288	-2.53922000
12.27449988	-0.06919180	-2.51938100
12.32459988	-0.05029911	-2.48992800
12.37469988	-0.02933097	-2.45086100
12.42479988	-0.00729459	-2.40156900
12.47489988	0.01477231	-2.34327300
12.52499987	0.03595410	-2.27826300
12.57509987	0.05521304	-2.20943700
12.62519987	0.07160298	-2.14061200
12.67529987	0.08414723	-2.07651700
12.72539987	0.09208277	-2.02096800
12.77549987	0.09473813	-1.97869600
12.82559987	0.09125870	-1.95260000
12.87569987	0.08115615	-1.94664900
12.92579987	0.06400317	-1.95901000
12.97589987	0.03970822	-1.98449500
13.02599987	0.00924796	-2.02096800
13.07609987	-0.02572946	-2.06598700
13.12619987	-0.06305701	-2.11741500
13.17629987	-0.10038460	-2.17220100
13.22639987	-0.13508730	-2.22836000
13.27649987	-0.16475400	-2.28375600
13.32659987	-0.18718720	-2.33503200
13.37669987	-0.20055550	-2.38081400
13.42679987	-0.20376020	-2.41820300
13.47689987	-0.19640460	-2.44490900
13.52699986	-0.17867170	-2.45910100
13.57709986	-0.15172140	-2.45788000
13.62719986	-0.11707970	-2.43697400
13.67729986	-0.07663900	-2.39164900
13.72739986	-0.03250519	-2.31855100
13.77749986	0.01339885	-2.21401500
13.82759986	0.05960811	-2.07605900
13.87769986	0.10468810	-1.90407200
13.92779986	0.14790620	-1.70308900
13.97789986	0.18868270	-1.47936800
14.02799986	0.22579660	-1.23977500
14.07809986	0.25824080	-0.98919550
14.12819986	0.28467220	-0.73235870
14.17829986	0.30435840	-0.47491150
14.22839986	0.31647540	-0.22127940
14.27849986	0.32059580	0.02563789
14.32859986	0.31641440	0.26248320
14.37869986	0.30411430	0.48757780
14.42879986	0.28439750	0.70000610
14.47889986	0.25845440	0.90068360
14.52899985	0.22784150	1.08991600
14.57909985	0.19466490	1.26831300
14.62919985	0.16115250	1.43618000
14.67929985	0.12950190	1.59260200
14.72939985	0.10172750	1.73727300
14.77949985	0.07944696	1.87004000
14.82959985	0.06357588	1.98983600
14.87969985	0.05460261	2.09681300
14.92979985	0.05228299	2.19112400
14.97989985	0.05579294	2.27276900
15.02999985	0.06391161	2.34281500
15.08009985	0.07505189	2.40126300
15.13019985	0.08756562	2.44979200
15.18029985	0.09959102	2.48992800
15.23039985	0.10954100	2.52212800
15.28049985	0.11595040	2.54639200
15.33059985	0.11793430	2.56363700
15.38069985	0.11497380	2.57340400
15.43079985	0.10697720	2.57416700
15.48089984	0.09406666	2.56577300
15.53099984	0.07682212	2.54715500
15.58109984	0.05615920	2.51693900
15.63119984	0.03302405	2.47451500
15.68129984	0.00854597	2.42018700
15.73139984	-0.01623733	2.35410800
15.78149984	-0.04031864	2.27826300
15.83159984	-0.06272128	2.19509200
15.88169984	-0.08237700	2.10887000
15.93179984	-0.09837016	2.02402000
15.98189984	-0.10993770	1.94481700
16.03199984	-0.11616410	1.87645000
16.08209984	-0.11637770	1.82334300
16.13219984	-0.10999880	1.79083800
16.18229984	-0.09669149	1.78000200
16.23239984	-0.07602857	1.79190600
16.28249984	-0.04776584	1.82151100
16.33259984	-0.01291051	1.86378300
16.38269984	0.02679770	1.91643300
16.43279984	0.06882554	1.97686500
16.48289983	0.11048710	2.04187500
16.53299983	0.14900500	2.10825900
16.58309983	0.18169330	2.17403200
16.63319983	0.20607980	2.23644900
16.68329983	0.22030280	2.29352300
16.73339983	0.22338540	2.34327300
16.78349983	0.21490050	2.38264600
16.83359983	0.19551950	2.41011500
16.88369983	0.16615800	2.42064500
16.93379983	0.12879990	2.41133500
16.98389983	0.08558173	2.37745700
17.03399983	0.03873153	2.31458300
17.08409983	-0.00970577	2.21935700
17.13419983	-0.05799048	2.08796200
17.18429983	-0.10462700	1.92040000
17.23439983	-0.14885240	1.71987500
17.28449983	-0.19026980	1.49401800
17.33459983	-0.22805520	1.25045800
17.38469983	-0.26120130	0.99407890
17.43479983	-0.28854840	0.73144300
17.48489982	-0.30918080	0.46697590
17.53499982	-0.32233550	0.20739230
17.58509982	-0.32755460	-0.04456110
17.63519982	-0.32431940	-0.28598460
17.68529982	-0.31275180	-0.51474180
17.73539982	-0.29352340	-0.73144300
17.78549982	-0.26773290	-0.93547800
17.83559982	-0.23705900	-1.12776200
17.88569982	-0.20330240	-1.30783800
17.93579982	-0.16878280	-1.47646800
17.98589982	-0.13585030	-1.63243200
18.03599982	-0.10645830	-1.77557700
18.08609982	-0.08225492	-1.90544500
18.13619982	-0.06424734	-2.02188400
18.18629982	-0.05298498	-2.12352000
18.23639982	-0.04831522	-2.21172600
18.28649982	-0.04959712	-2.28757200
18.33659982	-0.05570138	-2.35136100
18.38669982	-0.06528507	-2.40340000
18.43679982	-0.07657795	-2.44536700
18.48689981	-0.08790135	-2.47848200
18.53699981	-0.09760713	-2.50488300
18.58709981	-0.10432180	-2.52502800
18.63719981	-0.10728240	-2.53922000
18.68729981	-0.10593940	-2.54807100
18.73739981	-0.10007940	-2.54944400
18.78749981	-0.08967159	-2.54257700
18.83759981	-0.07535709	-2.52640100
18.88769981	-0.05777683	-2.50183100
18.93779981	-0.03778537	-2.46673200
18.98789981	-0.01638994	-2.42201800
19.03799981	0.00549384	-2.36799500
19.08809981	0.02685875	-2.30619000
19.13819981	0.04666707	-2.23950100
19.18829981	0.06400317	-2.17159100
19.23839981	0.07789037	-2.10688600
19.28849981	0.08753510	-2.04904800
19.33859981	0.09214382	-2.00250300
19.38869981	0.09101453	-1.97152400
19.43879981	0.08344524	-1.95977300
19.48889980	0.06900866	-1.96603000
19.53899980	0.04743011	-1.98785200
19.58909980	0.01925894	-2.02096800
19.63919980	-0.01397876	-2.06324000
19.68929980	-0.05032963	-2.11222700
19.73939980	-0.08735197	-2.16502900
19.78949980	-0.12281770	-2.22042500
19.83959980	-0.15398000	-2.27597400
19.88969980	-0.17870220	-2.32724900
19.93979980	-0.19509220	-2.37379400
19.98989980	-0.20165430	-2.41347200
20.03999980	-0.19783910	-2.44353600
20.09009980	-0.18358560	-2.46169600
20.14019980	-0.15977900	-2.46535800
20.19029980	-0.12776220	-2.45055600
20.24039980	-0.08939689	-2.41316700
20.29049980	-0.04669759	-2.34922500
20.34059980	-0.00161763	-2.25460900
20.39069980	0.04416433	-2.12748700
20.44079980	0.08936638	-1.96694500
20.49089979	0.13298130	-1.77679800
20.54099979	0.17433770	-1.56177500
20.59109979	0.21248930	-1.32905000
20.64119979	0.24630690	-1.08320100
20.69129979	0.27453910	-0.83002690
20.74139979	0.29620920	-0.57532660
20.79149979	0.31058480	-0.32184710
20.84159979	0.31705530	-0.07431938
20.89169979	0.31540720	0.16389940
20.94179979	0.30560980	0.39082530
20.99189979	0.28827370	0.60615310
21.04199979	0.26434500	0.80988280
21.09209979	0.23528870	1.00216700
21.14219979	0.20308880	1.18453200
21.19229979	0.16988160	1.35590900
21.24239979	0.13795630	1.51675600
21.29249979	0.10938840	1.66646300
21.34259979	0.08585642	1.80380900
21.39269979	0.06864241	1.92894600
21.44279979	0.05823465	2.04233300
21.49289978	0.05451105	2.14320600
21.54299978	0.05686119	2.23126000
21.59309978	0.06418630	2.30802100
21.64319978	0.07499084	2.37318400
21.69329978	0.08759614	2.42720700
21.74339978	0.10014040	2.47283600
21.79349978	0.11085340	2.50854600
21.84359978	0.11836160	2.53769400
21.89369978	0.12153580	2.55814300
21.94379978	0.11970460	2.57096200
21.99389978	0.11256260	2.57615100
22.04399978	0.10032350	2.57096200
22.09409978	0.08356733	2.55448100
22.14419978	0.06290440	2.52685900
22.19429978	0.03949457	2.48611300
22.24439978	0.01434501	2.43254800
22.29449978	-0.01132340	2.36646900
22.34459978	-0.03656452	2.28940300
22.39469978	-0.06034062	2.20379100
22.44479978	-0.08170553	2.11268500
22.49489977	-0.09962153	2.02157900
22.54499977	-0.11311200	1.93428800
22.59509977	-0.12150530	1.85478000
22.64519977	-0.12400810	1.78931100
22.69529977	-0.12007080	1.74276600
22.74539977	-0.10923570	1.71850200
22.79549977	-0.09113661	1.71926500
22.84559977	-0.06546819	1.74124000
22.89569977	-0.03256623	1.77954500
22.94579977	0.00631791	1.82959900
22.99589977	0.04886461	1.88774300
23.04599977	0.09238799	1.95244800
23.09609977	0.13395800	2.02157900
23.14619977	0.17079720	2.09070900
23.19629977	0.20025030	2.15892400
23.24639977	0.22024170	2.22301900
23.29649977	0.22921500	2.28101000
23.34659977	0.22643760	2.33030200
23.39669977	0.21206200	2.36875800
23.44679977	0.18703450	2.39302300
23.49689976	0.15288120	2.39882200
23.54699976	0.11164690	2.38249300
23.59709976	0.06571236	2.34006800
23.64719976	0.01727506	2.26605400
23.69729976	-0.03168111	2.15770400
23.74739976	-0.07947747	2.01272700
23.79749976	-0.12495420	1.83173600
23.84759976	-0.16765350	1.62068100
23.89769976	-0.20711760	1.38795600
23.94779976	-0.24249180	1.14027600
23.99789976	-0.27258570	0.88389690
24.04799976	-0.29645340	0.62293980
24.09809976	-0.31327070	0.36289830
24.14819976	-0.32227440	0.10911370
24.19829976	-0.32315960	-0.13612500
24.24839976	-0.31583450	-0.37022340
24.29849976	-0.30060430	-0.59165550
24.34859976	-0.27829330	-0.80118420
24.39869976	-0.25030520	-0.99865700
24.44879976	-0.21834940	-1.18544700
24.49889975	-0.18465390	-1.36079200
24.54899975	-0.15144670	-1.52438700
24.59909975	-0.12089490	-1.67607700
24.64919975	-0.09486021	-1.81464400
24.69929975	-0.07459407	-1.94008700
24.74939975	-0.06082896	-2.05194700
24.79949975	-0.05368697	-2.14976800
24.84959975	-0.05274081	-2.23507500
24.89969975	-0.05707484	-2.30786800
24.94979975	-0.06534611	-2.36830000
24.99989975	-0.07602857	-2.41820300
25.04999975	-0.08735197	-2.45788000
25.10009975	-0.09760713	-2.48962300
25.15019975	-0.10548160	-2.51480300
25.20029975	-0.10969360	-2.53296300
25.25039975	-0.10957150	-2.54501900
25.30049975	-0.10481020	-2.54975000
25.35059975	-0.09553168	-2.54654500
25.40069975	-0.08191918	-2.53403100
25.45079975	-0.06476621	-2.51144600
25.50089974	-0.04474423	-2.47894000
25.55099974	-0.02292150	-2.43560000
25.60109974	-0.00030521	-2.38203500
25.65119974	0.02209742	-2.32038200
25.70129974	0.04334025	-2.25140400
25.75139974	0.06238554	-2.17952600
25.80149974	0.07831766	-2.10841200
25.85159974	0.09019046	-2.04263800
25.90169974	0.09717983	-1.98632600
25.95179974	0.09861434	-1.94436000
26.00189974	0.09379196	-1.92101100
26.05199974	0.08210231	-1.91780600
26.10209974	0.06320962	-1.93245600
26.15219974	0.03714443	-1.96068900
26.20229974	0.00494445	-1.99990800
26.25239974	-0.03149799	-2.04706400
26.30249974	-0.06998535	-2.10062900
26.35259974	-0.10795380	-2.15678800
26.40269974	-0.14283970	-2.21462600
26.45279974	-0.17214020	-2.27109000
26.50289973	-0.19371870	-2.32343400
26.55299973	-0.20586620	-2.36936900
26.60309973	-0.20739230	-2.40752000
26.65319973	-0.19814430	-2.43407400
26.70329973	-0.17845810	-2.44796100
26.75339973	-0.14958490	-2.44490900
26.80349973	-0.11329510	-2.42217100
26.85359973	-0.07148089	-2.37394700
26.90369973	-0.02618728	-2.29718600
26.95379973	0.02051032	-2.18776700
27.00389973	0.06711635	-2.04355400
27.05399973	0.11250150	-1.86485200
27.10409973	0.15590280	-1.65730700
27.15419973	0.19661820	-1.42809200
27.20429973	0.23361010	-1.18300600
27.25439973	0.26559640	-0.92708460
27.30449973	0.29150900	-0.66612740
27.35459973	0.31058480	-0.40593330
27.40469973	0.32196920	-0.14970700
27.45479973	0.32520450	0.09782077
27.50489972	0.32001590	0.33497130
27.55499972	0.30664750	0.55945550
27.60509972	0.28574040	0.77188380
27.65519972	0.25860700	0.97134050
27.70529972	0.22683430	1.15950400
27.75539972	0.19265050	1.33591700
27.80549972	0.15834450	1.50103800
27.85559972	0.12605300	1.65410200
27.90569972	0.09779026	1.79495800
27.95579972	0.07523501	1.92238400
28.00589972	0.05918081	2.03638100
28.05599972	0.05008546	2.13740700
28.10609972	0.04758271	2.22561300
28.15619972	0.05094006	2.30176400
28.20629972	0.05890612	2.36585900
28.25639972	0.07001587	2.41881300
28.30649972	0.08249909	2.46261100
28.35659972	0.09443291	2.49801600
28.40669972	0.10435230	2.52640100
28.45679972	0.11088390	2.54929200
28.50689971	0.11317300	2.56501000
28.55699971	0.11073130	2.57355600
28.60709971	0.10337570	2.57370900
28.65719971	0.09138078	2.56592600
28.70729971	0.07520449	2.54822400
28.75739971	0.05564034	2.51983900
28.80749971	0.03375656	2.48031400
28.85759971	0.01046881	2.42934300
28.90769971	-0.01303260	2.36753700
28.95779971	-0.03598462	2.29764400
29.00789971	-0.05719692	2.22164600
29.05799971	-0.07578440	2.14320600
29.10809971	-0.09077036	2.06583500
29.15819971	-0.10136120	1.99578800
29.20829971	-0.10661090	1.93703400
29.25839971	-0.10606150	1.89399900
29.30849971	-0.09901111	1.87049800
29.35859971	-0.08497131	1.86881900
29.40869971	-0.06357588	1.88636900
29.45879971	-0.03491637	1.91780600
29.50889970	-0.00030521	1.96114600
29.55899970	0.03836528	2.01288000
29.60909970	0.07856183	2.07102300
29.65919970	0.11769010	2.13221800
29.70929970	0.15315590	2.19341300
29.75939970	0.18230370	2.25323500
29.80949970	0.20296670	2.30970000
29.85959970	0.21364910	2.35944900
29.90969970	0.21328290	2.40080600
29.95979970	0.20192890	2.42980100
30.00989970	0.18007570	2.44628200
30.05999970	0.14912710	2.44551900
30.11009970	0.11088390	2.42384900
30.16019970	0.06745208	2.37577800
30.21029970	0.02096814	2.29825400
30.26039970	-0.02661458	2.18776700
30.31049970	-0.07364790	2.04141700
30.36059970	-0.11906360	1.86057900
30.41069970	-0.16228180	1.65013400
30.46079969	-0.20260040	1.41817200
30.51089969	-0.23901230	1.16988200
30.56099969	-0.27041880	0.91136610
30.61109969	-0.29569040	0.64811990
30.66119969	-0.31391160	0.38563670
30.71129969	-0.32453300	0.12879990
30.76139969	-0.32697470	-0.11949090
30.81149969	-0.32096200	-0.35755710
30.86159969	-0.30692220	-0.58280430
30.91169969	-0.28540470	-0.79553780
30.96179969	-0.25787450	-0.99484190
31.01189969	-0.22591870	-1.18254800
31.06199969	-0.19176540	-1.35911400
31.11209969	-0.15755100	-1.52331800
31.16219969	-0.12556460	-1.67562000
31.21229969	-0.09775974	-1.81494900
31.26239969	-0.07557075	-1.94008700
31.31249969	-0.05985228	-2.05148900
31.36259969	-0.05090953	-2.14946300
31.41269969	-0.04837627	-2.23415900
31.46279968	-0.05142840	-2.30695300
31.51289968	-0.05890612	-2.36692700
31.56299968	-0.06925283	-2.41606600
31.61309968	-0.08072884	-2.45620200
31.66319968	-0.09171651	-2.48809700
31.71329968	-0.10056770	-2.51297100
31.76339968	-0.10618360	-2.53189500
31.81349968	-0.10774020	-2.54440900
31.86359968	-0.10484070	-2.55066500
31.91369968	-0.09742400	-2.54883400
31.96379968	-0.08567330	-2.53952500
32.01389968	-0.07013796	-2.52106000
32.06399968	-0.05151996	-2.49252200
32.11409968	-0.03079600	-2.45452300
32.16419968	-0.00900379	-2.40630000
32.21429968	0.01291051	-2.34922500
32.26439968	0.03400073	-2.28589300
32.31449968	0.05316811	-2.21828800
32.36459968	0.06961909	-2.15022600
32.41469968	0.08237700	-2.08643600
32.46479967	0.09049566	-2.03043000
32.51489967	0.09333415	-1.98815800
32.56499967	0.09019046	-1.96252000
32.61509967	0.08048467	-1.95580500
32.66519967	0.06369796	-1.96725100
32.71529967	0.03983030	-1.99304100
32.76539967	0.00970577	-2.02905600
32.81549967	-0.02490538	-2.07392300
32.86559967	-0.06192772	-2.12428300
32.91569967	-0.09891954	-2.17861100
32.96579967	-0.13343910	-2.23385400
33.01589967	-0.16301430	-2.28787700
33.06599967	-0.18550850	-2.33900000
33.11609967	-0.19905990	-2.38310300
33.16619967	-0.20250890	-2.41972900
33.21629967	-0.19539740	-2.44658800
33.26639967	-0.17806130	-2.46047500
33.31649967	-0.15141620	-2.45971200
33.36659967	-0.11714080	-2.43834700
33.41669967	-0.07703577	-2.39393900
33.46679966	-0.03320718	-2.32206100
33.51689966	0.01245269	-2.21844100
33.56699966	0.05835673	-2.08109500
33.61709966	0.10331460	-1.91002300
33.66719966	0.14644120	-1.70995600
33.71729966	0.18706510	-1.48776100
33.76739966	0.22414850	-1.24939000
33.81749966	0.25647050	-0.99972530
33.86759966	0.28296300	-0.74471980
33.91769966	0.30255770	-0.48879870
33.96779966	0.31467460	-0.23592970
34.01789966	0.31882550	0.00900379
34.06799966	0.31473570	0.24508610
34.11809966	0.30264930	0.46911240
34.16819966	0.28314610	0.68184590
34.21829966	0.25741670	0.88267610
34.26839966	0.22707850	1.07251900
34.31849966	0.19417650	1.25183100
34.36859966	0.16093880	1.41985100
34.41869966	0.12950190	1.57703600
34.46879965	0.10197170	1.72323300
34.51889965	0.07993530	1.85706900
34.56899965	0.06443048	1.97869600
34.61909965	0.05570138	2.08674100
34.66919965	0.05362593	2.18196800
34.71929965	0.05728849	2.26544400
34.76939965	0.06559028	2.33701600
34.81949965	0.07694420	2.39729600
34.86959965	0.08958003	2.44765600
34.91969965	0.10169700	2.48870700
34.96979965	0.11158590	2.52151800
35.01989965	0.11796480	2.54715500
35.06999965	0.11985720	2.56546800
35.12009965	0.11662190	2.57508200
35.17019965	0.10819800	2.57554000
35.22029965	0.09486021	2.56729900
35.27039965	0.07721890	2.54776600
35.32049965	0.05609816	2.51739700
35.37059965	0.03247467	2.47390400
35.42069965	0.00747772	2.41850800
35.47079964	-0.01773288	2.35090400
35.52089964	-0.04227201	2.27261600
35.57099964	-0.06507142	2.18700400
35.62109964	-0.08515444	2.09818700
35.67119964	-0.10154440	2.01043800
35.72129964	-0.11332560	1.92757300
35.77139964	-0.11979610	1.85539000
35.82149964	-0.12022340	1.79770500
35.87159964	-0.11411920	1.76062100
35.92169964	-0.10096450	1.74642900
35.97179964	-0.08045416	1.75634800
36.02189964	-0.05240508	1.78503800
36.07199964	-0.01754975	1.82746300
36.12209964	0.02243316	1.88057000
36.17219964	0.06510194	1.94176500
36.22229964	0.10761810	2.00708100
36.27239964	0.14717370	2.07499100
36.32249964	0.18096080	2.14213800
36.37259964	0.20665970	2.20699500
36.42269964	0.22228670	2.26712300
36.47279963	0.22665120	2.31931400
36.52289963	0.21929560	2.36311200
36.57299963	0.20070810	2.39348100
36.62309963	0.17207910	2.40843600
36.67319963	0.13517880	2.40370500
36.72329963	0.09208277	2.37532000
36.77339963	0.04514101	2.31839800
36.82349963	-0.00350995	2.22912300
36.87359963	-0.05203882	2.10398600
36.92369963	-0.09895007	1.94268100
36.97379963	-0.14338910	1.74688700
37.02389963	-0.18498960	1.52453900
37.07399963	-0.22308020	1.28311600
37.12409963	-0.25665360	1.02978900
37.17419963	-0.28455010	0.76928940
37.22429963	-0.30585400	0.50711140
37.27439963	-0.31980220	0.24737520
37.32449963	-0.32578440	-0.00488341
37.37459963	-0.32346480	-0.24661210
37.42469963	-0.31290440	-0.47659020
37.47479962	-0.29468320	-0.69390180
37.52489962	-0.26965570	-0.90022580
37.57499962	-0.23962280	-1.09342600
37.62509962	-0.20632400	-1.27472200
37.67519962	-0.17220120	-1.44487800
37.72529962	-0.13929920	-1.60313100
37.77539962	-0.10981560	-1.74932800
37.82549962	-0.08536808	-1.88133300
37.87559962	-0.06708582	-1.99929800
37.92569962	-0.05545721	-2.10413900
37.97579962	-0.05039067	-2.19509200
38.02589962	-0.05133683	-2.27307400
38.07599962	-0.05710536	-2.33900000
38.12609962	-0.06638384	-2.39363300
38.17619962	-0.07749359	-2.43849900
38.22629962	-0.08872543	-2.47421000
38.27639962	-0.09840068	-2.50183100
38.32649962	-0.10523750	-2.52304400
38.37659962	-0.10825910	-2.53861000
38.42669962	-0.10694660	-2.54807100
38.47679961	-0.10099500	-2.54990200
38.52689961	-0.09064827	-2.54273000
38.57699961	-0.07624222	-2.52731700
38.62709961	-0.05853986	-2.50289900
38.67719961	-0.03830424	-2.46780000
38.72729961	-0.01663411	-2.42278100
38.77739961	0.00552436	-2.36814800
38.82749961	0.02719448	-2.30588400
38.87759961	0.04736906	-2.23843200
38.92769961	0.06501038	-2.16945400
38.97779961	0.07932487	-2.10322300
39.02789961	0.08933586	-2.04401200
39.07799961	0.09428030	-1.99502500
39.12809961	0.09351727	-1.96190900
39.17819961	0.08631425	-1.94756400
39.22829961	0.07218288	-1.95260000
39.27839961	0.05078745	-1.97289700
39.32849961	0.02273837	-2.00555500
39.37859961	-0.01062141	-2.04721600
39.42869961	-0.04730802	-2.09605100
39.47879960	-0.08494079	-2.14992100
39.52889960	-0.12107800	-2.20592700
39.57899960	-0.15318640	-2.26147600
39.62909960	-0.17888540	-2.31427800
39.67919960	-0.19622150	-2.36189100
39.72929960	-0.20379070	-2.40263700
39.77939960	-0.20086070	-2.43361600
39.82949960	-0.18743130	-2.45345500
39.87959960	-0.16417410	-2.45940700
39.92969960	-0.13249300	-2.44674000
39.97979960	-0.09431083	-2.41225100
40.02989960	-0.05155048	-2.35105600
40.07999960	-0.00610426	-2.26056000
40.13009960	0.04007447	-2.13664400
40.18019960	0.08570382	-1.97823800
40.23029960	0.12977660	-1.78885400
40.28039960	0.17174340	-1.57383100
40.33049960	0.21050540	-1.34049600
40.38059960	0.24511660	-1.09357800
40.43069960	0.27426440	-0.83842020
40.48079959	0.29688070	-0.58021000
40.53089959	0.31226350	-0.32428880
40.58099959	0.31977170	-0.07462458
40.63109959	0.31900860	0.16573070
40.68119959	0.31006590	0.39509830
40.73129959	0.29337080	0.61332560
40.78139959	0.26989990	0.81888660
40.83149959	0.24102670	1.01284900
40.88159959	0.20867410	1.19597700
40.93169959	0.17497860	1.36842300
40.98179959	0.14222930	1.52972800
41.03189959	0.11265410	1.67928200
41.08199959	0.08784031	1.81739100
41.13209959	0.06922232	1.94237600
41.18219959	0.05744109	2.05393100
41.23229959	0.05237456	2.15358300
41.28239959	0.05356489	2.24011100
41.33249959	0.05994384	2.31519300
41.38259959	0.07007691	2.37852500
41.43269959	0.08222439	2.43117500
41.48279958	0.09473813	2.47421000
41.53289958	0.10581740	2.50930900
41.58299958	0.11399710	2.53662600
41.63309958	0.11802590	2.55722700
41.68319958	0.11726280	2.56974100
41.73329958	0.11140280	2.57477700
41.78339958	0.10047610	2.57080900
41.83349958	0.08506288	2.55661700
41.88359958	0.06574289	2.53143700
41.93369958	0.04352338	2.49450600
41.98379958	0.01950311	2.44521400
42.03389958	-0.00528019	2.38401900
42.08399958	-0.02984983	2.31168300
42.13409958	-0.05310707	2.23187000
42.18419958	-0.07407521	2.14732600
42.23429958	-0.09177756	2.06171400
42.28439958	-0.10529850	1.97961200
42.33449958	-0.11387500	1.90590300
42.38459958	-0.11671350	1.84547100
42.43469958	-0.11320350	1.80335100
42.48479957	-0.10291780	1.78320700
42.53489957	-0.08539861	1.78610700
42.58499957	-0.06043218	1.80976100
42.63509957	-0.02823221	1.84714900
42.68519957	0.00961421	1.89659400
42.73529957	0.05094006	1.95321100
42.78539957	0.09308998	2.01516900
42.83549957	0.13325600	2.08094200
42.88559957	0.16869120	2.14702100
42.93569957	0.19683190	2.21065800
42.98579957	0.21551090	2.27002200
43.03589957	0.22344650	2.32328200
43.08599957	0.21993650	2.36784300
43.13609957	0.20498110	2.39989000
43.18619957	0.17964840	2.41805000
43.23629957	0.14543400	2.41713500
43.28639957	0.10435230	2.39409100
43.33649957	0.05872299	2.34342600
43.38659957	0.01068246	2.26147600
43.43669957	-0.03784642	2.14534200
43.48679956	-0.08527652	1.99334600
43.53689956	-0.13053960	1.80640300
43.58699956	-0.17317790	1.58909200
43.63709956	-0.21267240	1.35239900
43.68719956	-0.24789400	1.10059800
43.73729956	-0.27780490	0.84025150
43.78739956	-0.30139790	0.57670000
43.83749956	-0.31781830	0.31528510
43.88759956	-0.32648640	0.05951654
43.93769956	-0.32682210	-0.18556950
43.98779956	-0.31873400	-0.41905750
44.03789956	-0.30267980	-0.64094730
44.08799956	-0.27951410	-0.85032350
44.13809956	-0.25057990	-1.04733800
44.18819956	-0.21780000	-1.23321300
44.23829956	-0.18331100	-1.40657400
44.28839956	-0.14940180	-1.56757400
44.33849956	-0.11827010	-1.71545000
44.38859956	-0.09171651	-1.85035400
44.43869956	-0.07102308	-1.97167600
44.48879955	-0.05695275	-2.07941700
44.53889955	-0.04953608	-2.17388000
44.58899955	-0.04843731	-2.25399800
44.63909955	-0.05267977	-2.32282400
44.68919955	-0.06098156	-2.37959300
44.73929955	-0.07175559	-2.42552800
44.78939955	-0.08323160	-2.46245900
44.83949955	-0.09379196	-2.49237000
44.88959955	-0.10191060	-2.51602400
44.93969955	-0.10658040	-2.53372600
44.98979955	-0.10706870	-2.54562900
45.03989955	-0.10310100	-2.54944400
45.08999955	-0.09458552	-2.54669800
45.14009955	-0.08191918	-2.53433600
45.19019955	-0.06565133	-2.51327700
45.24029955	-0.04651447	-2.48245000
45.29039955	-0.02551581	-2.44185700
45.34049955	-0.00369308	-2.39180200
45.39059955	0.01800757	-2.33304800
45.44069954	0.03867049	-2.26834300
45.49079954	0.05719692	-2.20104400
45.54089954	0.07273227	-2.13404900
45.59099954	0.08436088	-2.07300700
45.64109954	0.09122817	-2.02051000
45.69119954	0.09263216	-1.98220600
45.74129954	0.08793187	-1.96190900
45.79139954	0.07651691	-1.96068900
45.84149954	0.05795996	-1.97594900
45.89159954	0.03244415	-2.00326600
45.94169954	0.00115981	-2.04096000
45.99179954	-0.03412282	-2.08704700
46.04189954	-0.07123672	-2.13969600
46.09199954	-0.10774020	-2.19448200
46.14209954	-0.14113050	-2.25064100
46.19219954	-0.16896590	-2.30405300
46.24229954	-0.18929310	-2.35288700
46.29239954	-0.20025030	-2.39531200
46.34249954	-0.20101330	-2.42949600
46.39259954	-0.19124650	-2.45345500
46.44269953	-0.17146870	-2.46368000
46.49279953	-0.14287020	-2.45727000
46.54289953	-0.10703820	-2.43041100
46.59299953	-0.06598706	-2.37898300
46.64309953	-0.02163960	-2.29886500
46.69319953	0.02408131	-2.18685200
46.74329953	0.06974117	-2.04126500
46.79339953	0.11414970	-1.86271500
46.84349953	0.15660480	-1.65715400
46.89359953	0.19631300	-1.43160200
46.94369953	0.23220610	-1.19124700
46.99379953	0.26303260	-0.94066660
47.04389953	0.28772430	-0.68459280
47.09399953	0.30542670	-0.42897690
47.14409953	0.31543770	-0.17778660
47.19419953	0.31739100	0.06485777
47.24429953	0.31122570	0.29681970
47.29439953	0.29706390	0.51733610
47.34449953	0.27588210	0.72533880
47.39459953	0.24884020	0.92326950
47.44469952	0.21780000	1.10960200
47.49479952	0.18480650	1.28586300
47.54489952	0.15196560	1.45128800
47.59499952	0.12165790	1.60648900
47.64509952	0.09568429	1.75024400
47.69519952	0.07547918	1.88118100
47.74529952	0.06198877	1.99990800
47.79539952	0.05530460	2.10551200
47.84549952	0.05506043	2.19875500
47.89559952	0.06034062	2.27994100
47.94569952	0.06968014	2.34983500
47.99579952	0.08158344	2.40843600
48.04589952	0.09428030	2.45666000
48.09599952	0.10590890	2.49572700
48.14609952	0.11500430	2.52762200
48.19619952	0.12019290	2.55173300
48.24629952	0.12052860	2.56775700
48.29639952	0.11576730	2.57630300
48.34649952	0.10578680	2.57584500
48.39659952	0.09104505	2.56440000
48.44669951	0.07209132	2.54227200
48.49679951	0.04990233	2.50747800
48.54689951	0.02557685	2.45986400
48.59699951	0.00015261	2.39943200
48.64709951	-0.02524112	2.32694400
48.69719951	-0.04956660	2.24575800
48.74729951	-0.07196923	2.15770400
48.79739951	-0.09138078	2.06751300
48.84749951	-0.10679400	1.97884900
48.89759951	-0.11744600	1.89735700
48.94769951	-0.12251250	1.82685300
48.99779951	-0.12132220	1.77313500
49.04789951	-0.11338660	1.74017200
49.09799951	-0.09837016	1.73193100
49.14809951	-0.07590649	1.74597100
49.19819951	-0.04593456	1.77801800
49.24829951	-0.00933952	1.82410600
49.29839951	0.03180320	1.87889100
49.34849951	0.07505189	1.94130800
49.39859951	0.11747650	2.00860700
49.44869950	0.15633010	2.07743300
49.49879950	0.18877430	2.14534200
49.54889950	0.21251980	2.21065800
49.59899950	0.22585760	2.27063200
49.64909950	0.22762790	2.32328200
49.69919950	0.21767790	2.36524800
49.74929950	0.19661820	2.39393900
49.79939950	0.16585280	2.40614700
49.84949950	0.12715180	2.39805900
49.89959950	0.08292638	2.36448500
49.94969950	0.03528263	2.30145900
49.99979950	-0.01364302	2.20531700
50.04989950	-0.06201929	2.07331200
50.09999950	-0.10847270	1.90437700
50.15009950	-0.15233180	1.70308900
50.20019950	-0.19316930	1.47738400
50.25029950	-0.23031370	1.23382400
