# t ; I ; U_H
# 1*s ; -1*A; 1*V

#﻿MIN=0	-1	-0,3
#MAX=20	1	0,3
#SCALE=20	0,5	0,1
#DEC=2	3	4
#DEF="Zeit" t / s	"Stromstärke" I_A1 / A	"Spannung" U_B1 / V
0	-0,0025	0
0,01	-0,002	-0,0003
0,02	-0,0025	-0,0003
0,03	-0,002	-0,0003
0,04	-0,002	-0,0003
0,05	-0,0025	-0,00015
0,06	-0,002	0
0,07	-0,002	-0,00015
0,08	-0,0025	-0,0003
0,09	-0,0025	-0,0003
0,1	-0,0025	-0,00015
0,11	-0,0025	-0,00015
0,12	-0,0025	-0,0003
0,13	-0,002	-0,0003
0,14	-0,0015	0,00015
0,15	-0,0025	-0,0003
0,16	-0,002	-0,0003
0,17	-0,002	-0,00015
0,18	-0,0025	-0,00015
0,19	-0,002	-0,00015
0,2	-0,002	-0,00015
0,21	-0,002	-0,0003
0,22	-0,002	-0,0003
0,23	-0,002	-0,00015
0,24	-0,002	-0,00015
0,25	-0,0025	0
0,26	-0,002	0
0,27	-0,002	-0,0003
0,28	-0,002	-0,00015
0,29	-0,002	-0,0003
0,3	-0,0025	-0,00015
0,31	-0,002	-0,00015
0,32	-0,002	-0,0003
0,33	-0,0025	-0,00045
0,34	-0,002	-0,0003
0,35	-0,002	-0,0003
0,36	-0,0025	0
0,37	-0,002	0
0,38	-0,0025	0,00015
0,39	-0,0025	-0,0003
0,4	-0,002	0
0,41	-0,002	-0,0003
0,42	-0,002	-0,00015
0,43	-0,0025	-0,00015
0,44	-0,002	-0,00015
0,45	-0,002	-0,00015
0,46	-0,0025	-0,00045
0,47	-0,002	-0,00015
0,48	-0,002	-0,0003
0,49	-0,002	-0,0003
0,5	-0,002	0
0,51	-0,0025	-0,0003
0,52	-0,002	-0,00015
0,53	-0,002	-0,0003
0,54	-0,0025	0
0,55	-0,002	-0,00015
0,56	-0,002	-0,00015
0,57	-0,002	-0,0003
0,58	-0,002	-0,00015
0,59	-0,002	-0,00015
0,6	-0,0025	-0,00015
0,61	-0,002	0
0,62	-0,002	0
0,63	-0,002	-0,00045
0,64	-0,0025	-0,0003
0,65	-0,0025	-0,00015
0,66	-0,002	-0,00015
0,67	-0,002	-0,00015
0,68	-0,002	-0,0003
0,69	-0,002	-0,00045
0,7	-0,002	-0,0003
0,71	-0,002	-0,00015
0,72	-0,0025	0,00015
0,73	-0,002	-0,00015
0,74	-0,0025	-0,00015
0,75	-0,0025	-0,0003
0,76	-0,002	0
0,77	-0,002	-0,00015
0,78	-0,002	0
0,79	-0,002	-0,00015
0,8	-0,002	-0,00015
0,81	-0,002	-0,00015
0,82	-0,002	-0,0003
0,83	-0,002	-0,0003
0,84	-0,002	0
0,85	-0,0025	-0,0003
0,86	-0,0025	0,00015
0,87	-0,0015	-0,00015
0,88	-0,0025	-0,00015
0,89	-0,002	-0,0003
0,9	-0,002	-0,0003
0,91	-0,002	0
0,92	-0,002	0,00015
0,93	-0,0025	-0,0003
0,94	-0,0025	-0,00015
0,95	-0,002	-0,0003
0,96	-0,0025	-0,00015
0,97	-0,002	-0,00015
0,98	-0,002	-0,00015
0,99	-0,002	-0,00045
1	-0,002	-0,00015
1,01	-0,002	-0,0003
1,02	-0,002	-0,0003
1,03	-0,002	0
1,04	-0,002	-0,00015
1,05	-0,002	-0,00015
1,06	-0,0025	-0,0003
1,07	-0,0025	-0,0003
1,08	-0,002	-0,0003
1,09	-0,002	-0,00015
1,1	-0,002	-0,0003
1,11	-0,0025	-0,00015
1,12	-0,0025	-0,00045
1,13	-0,002	-0,0003
1,14	-0,0025	-0,00015
1,15	-0,002	-0,0003
1,16	-0,002	0
1,17	-0,002	-0,0003
1,18	-0,0025	-0,00015
1,19	-0,002	0
1,2	-0,0025	0,00015
1,21	-0,002	-0,0003
1,22	-0,0025	-0,00015
1,23	-0,002	-0,00015
1,24	-0,002	-0,00015
1,25	-0,002	0
1,26	-0,002	-0,00015
1,27	-0,0025	-0,0003
1,28	-0,002	-0,00015
1,29	-0,002	-0,0003
1,3	-0,0025	-0,00015
1,31	-0,002	-0,0003
1,32	-0,0025	-0,00015
1,33	-0,002	-0,0003
1,34	-0,002	-0,00015
1,35	-0,0025	0,00015
1,36	-0,002	-0,0003
1,37	-0,002	-0,00015
1,38	-0,002	-0,00015
1,39	-0,0025	0
1,4	-0,002	-0,00015
1,41	-0,0025	-0,0003
1,42	-0,002	-0,00015
1,43	-0,0025	-0,00015
1,44	-0,002	0,00015
1,45	-0,002	0,00015
1,46	-0,002	-0,0003
1,47	-0,002	-0,00015
1,48	-0,0025	-0,0003
1,49	-0,002	-0,0003
1,5	-0,002	0
1,51	-0,0015	0
1,52	-0,002	-0,00015
1,53	-0,0025	-0,0003
1,54	-0,002	-0,00015
1,55	-0,002	0
1,56	-0,002	0,00015
1,57	-0,002	-0,00015
1,58	-0,002	-0,0003
1,59	-0,002	-0,0003
1,6	-0,002	0
1,61	-0,0025	-0,00015
1,62	-0,002	-0,00015
1,63	-0,0025	-0,00045
1,64	-0,0025	-0,0003
1,65	-0,0025	-0,00015
1,66	-0,0025	0
1,67	-0,0025	0
1,68	-0,0025	-0,00015
1,69	-0,0025	-0,00045
1,7	-0,0025	-0,00015
1,71	-0,002	-0,00015
1,72	-0,0025	0
1,73	-0,002	-0,00015
1,74	-0,0025	0
1,75	-0,0025	-0,0003
1,76	-0,002	-0,0003
1,77	-0,0025	-0,0003
1,78	-0,002	-0,00015
1,79	-0,0025	-0,0003
1,8	-0,002	-0,00015
1,81	-0,0025	-0,0003
1,82	-0,0025	-0,00015
1,83	-0,002	-0,0003
1,84	-0,002	0,00015
1,85	-0,002	-0,00015
1,86	-0,002	-0,00015
1,87	-0,0025	0,00015
1,88	-0,002	-0,00015
1,89	-0,002	0,00015
1,9	-0,002	-0,00015
1,91	-0,002	-0,00015
1,92	-0,002	-0,0003
1,93	-0,0025	-0,00015
1,94	-0,002	0
1,95	-0,0025	-0,0003
1,96	-0,002	-0,0003
1,97	-0,0025	-0,0003
1,98	-0,002	-0,0003
1,99	-0,002	-0,00015
2	-0,002	0
2,01	-0,002	-0,00015
2,02	-0,0025	-0,00045
2,03	-0,002	-0,00015
2,04	-0,0025	-0,0003
2,05	-0,0025	0
2,06	-0,0025	-0,00015
2,07	-0,003	-0,00015
2,08	-0,0025	-0,00015
2,09	-0,0025	-0,00045
2,1	-0,0025	0,00015
2,11	-0,003	-0,00015
2,12	-0,0025	0,00015
2,13	-0,003	0
2,14	-0,0025	-0,00015
2,15	-0,0025	-0,00015
2,16	-0,0025	0
2,17	-0,0025	0
2,18	-0,0025	-0,00015
2,19	-0,003	-0,0003
2,2	-0,0025	0
2,21	-0,0025	-0,0003
2,22	-0,0025	0
2,23	-0,0025	-0,00015
2,24	-0,0025	0
2,25	-0,0025	0
2,26	-0,0025	-0,00015
2,27	-0,003	0
2,28	-0,0025	0,00015
2,29	-0,003	0,0003
2,3	-0,0025	0,00015
2,31	-0,0025	0,00015
2,32	-0,003	0,00015
2,33	-0,003	-0,00015
2,34	-0,003	0,00045
2,35	-0,0035	0,00015
2,36	-0,0035	0,00045
2,37	-0,0035	0,0003
2,38	-0,0045	0,00045
2,39	-0,0035	0,0003
2,4	-0,004	0,00045
2,41	-0,0035	0,0003
2,42	-0,004	0,0003
2,43	-0,004	0,00015
2,44	-0,0035	0,00045
2,45	-0,0035	0,00045
2,46	-0,004	0,00045
2,47	-0,004	0,0003
2,48	-0,0035	0,00015
2,49	-0,0035	0,0003
2,5	-0,0035	0,0003
2,51	-0,0035	0,0003
2,52	-0,0035	0,00015
2,53	-0,004	0,00015
2,54	-0,0035	0,00015
2,55	-0,0035	0,00045
2,56	-0,0035	0,0003
2,57	-0,0035	0,00045
2,58	-0,0035	0,0003
2,59	-0,0035	0,00045
2,6	-0,0035	0,00045
2,61	-0,0035	0,00045
2,62	-0,0035	0,00045
2,63	-0,0035	0,00045
2,64	-0,0035	0,00045
2,65	-0,0035	0,00015
2,66	-0,0035	0,0003
2,67	-0,0035	0,0003
2,68	-0,0035	0,0003
2,69	-0,0035	0,00015
2,7	-0,0035	0,00015
2,71	-0,0035	0,00045
2,72	-0,004	0,00015
2,73	-0,004	0,0003
2,74	-0,004	0,00015
2,75	-0,0035	0,00015
2,76	-0,004	0,00015
2,77	-0,004	0,00045
2,78	-0,004	0,0003
2,79	-0,004	0,0003
2,8	-0,0045	0,0006
2,81	-0,004	0,0006
2,82	-0,004	0,0003
2,83	-0,0045	0,0003
2,84	-0,004	0,00045
2,85	-0,0045	0,00045
2,86	-0,004	0,00015
2,87	-0,0045	0,0003
2,88	-0,004	0,00045
2,89	-0,004	0,0003
2,9	-0,004	0,0006
2,91	-0,0045	0,0003
2,92	-0,0045	0,00045
2,93	-0,004	0,00045
2,94	-0,0045	0,00045
2,95	-0,0045	0,0003
2,96	-0,0045	0,0006
2,97	-0,0045	0,0003
2,98	-0,0045	0,0006
2,99	-0,004	0,00045
3	-0,0045	0,0006
3,01	-0,0045	0,0003
3,02	-0,0045	0,00075
3,03	-0,0045	0,00045
3,04	-0,0045	0,00045
3,05	-0,005	0,0006
3,06	-0,0045	0,00045
3,07	-0,005	0,0006
3,08	-0,005	0,00045
3,09	-0,005	0,00045
3,1	-0,0045	0,00045
3,11	-0,005	0,00045
3,12	-0,005	0,0009
3,13	-0,005	0,0006
3,14	-0,005	0,00075
3,15	-0,0045	0,0006
3,16	-0,0055	0,00075
3,17	-0,005	0,0006
3,18	-0,005	0,00075
3,19	-0,0055	0,00075
3,2	-0,0055	0,00075
3,21	-0,0055	0,00075
3,22	-0,0055	0,00105
3,23	-0,0055	0,0009
3,24	-0,006	0,0009
3,25	-0,0055	0,00075
3,26	-0,0055	0,00075
3,27	-0,0055	0,0009
3,28	-0,006	0,0009
3,29	-0,0055	0,00105
3,3	-0,006	0,00105
3,31	-0,0055	0,00105
3,32	-0,006	0,0009
3,33	-0,0055	0,00105
3,34	-0,006	0,0009
3,35	-0,006	0,00105
3,36	-0,006	0,0009
3,37	-0,006	0,0009
3,38	-0,006	0,00105
3,39	-0,006	0,00105
3,4	-0,0065	0,00105
3,41	-0,006	0,0006
3,42	-0,006	0,0009
3,43	-0,006	0,00105
3,44	-0,006	0,0012
3,45	-0,0065	0,00105
3,46	-0,0065	0,0012
3,47	-0,0065	0,0012
3,48	-0,0065	0,0009
3,49	-0,007	0,00135
3,5	-0,0065	0,00135
3,51	-0,007	0,00135
3,52	-0,007	0,00105
3,53	-0,0065	0,0012
3,54	-0,007	0,00135
3,55	-0,007	0,0012
3,56	-0,007	0,00135
3,57	-0,007	0,00135
3,58	-0,0065	0,0012
3,59	-0,007	0,0012
3,6	-0,007	0,00105
3,61	-0,0075	0,0012
3,62	-0,007	0,00135
3,63	-0,007	0,0012
3,64	-0,007	0,00135
3,65	-0,007	0,00135
3,66	-0,0075	0,0015
3,67	-0,0075	0,0012
3,68	-0,007	0,0015
3,69	-0,007	0,00135
3,7	-0,007	0,00135
3,71	-0,0075	0,00135
3,72	-0,007	0,00105
3,73	-0,0075	0,0015
3,74	-0,007	0,0012
3,75	-0,0075	0,0015
3,76	-0,0075	0,0012
3,77	-0,0075	0,00135
3,78	-0,008	0,0015
3,79	-0,0075	0,0015
3,8	-0,0075	0,00135
3,81	-0,0075	0,0015
3,82	-0,0075	0,00165
3,83	-0,0075	0,0018
3,84	-0,0075	0,0015
3,85	-0,0075	0,0015
3,86	-0,0075	0,00165
3,87	-0,0075	0,0015
3,88	-0,008	0,0015
3,89	-0,008	0,00165
3,9	-0,008	0,00165
3,91	-0,0085	0,0015
3,92	-0,008	0,00165
3,93	-0,0085	0,00135
3,94	-0,0085	0,00165
3,95	-0,0085	0,0015
3,96	-0,008	0,00135
3,97	-0,0085	0,0015
3,98	-0,008	0,00165
3,99	-0,0085	0,00135
4	-0,0085	0,00165
4,01	-0,0085	0,0015
4,02	-0,0085	0,0015
4,03	-0,0085	0,00165
4,04	-0,0085	0,00165
4,05	-0,0085	0,00165
4,06	-0,0085	0,00165
4,07	-0,009	0,0015
4,08	-0,009	0,0018
4,09	-0,0085	0,0018
4,1	-0,0085	0,0018
4,11	-0,0085	0,0018
4,12	-0,0085	0,00195
4,13	-0,0085	0,0015
4,14	-0,0085	0,00165
4,15	-0,0085	0,00165
4,16	-0,0085	0,0018
4,17	-0,0085	0,0018
4,18	-0,0085	0,00195
4,19	-0,009	0,0018
4,2	-0,009	0,00195
4,21	-0,009	0,0018
4,22	-0,009	0,00195
4,23	-0,009	0,0018
4,24	-0,009	0,0018
4,25	-0,009	0,0015
4,26	-0,0095	0,0018
4,27	-0,009	0,0018
4,28	-0,009	0,0021
4,29	-0,0095	0,0015
4,3	-0,0095	0,0018
4,31	-0,009	0,0018
4,32	-0,0095	0,00195
4,33	-0,009	0,00195
4,34	-0,009	0,0021
4,35	-0,009	0,00195
4,36	-0,009	0,00195
4,37	-0,0095	0,0018
4,38	-0,009	0,0021
4,39	-0,009	0,00165
4,4	-0,009	0,0021
4,41	-0,0095	0,0018
4,42	-0,0095	0,0018
4,43	-0,009	0,00195
4,44	-0,0095	0,0021
4,45	-0,009	0,00165
4,46	-0,0095	0,0021
4,47	-0,009	0,0018
4,48	-0,0095	0,00195
4,49	-0,009	0,0018
4,5	-0,0095	0,00195
4,51	-0,0095	0,00195
4,52	-0,0095	0,00195
4,53	-0,0095	0,0021
4,54	-0,01	0,0021
4,55	-0,0095	0,0021
4,56	-0,0095	0,0021
4,57	-0,0095	0,00195
4,58	-0,009	0,0021
4,59	-0,0095	0,00195
4,6	-0,0095	0,0021
4,61	-0,0095	0,00195
4,62	-0,0095	0,00195
4,63	-0,0095	0,0021
4,64	-0,0095	0,0021
4,65	-0,0095	0,00195
4,66	-0,01	0,00195
4,67	-0,0095	0,0018
4,68	-0,01	0,00195
4,69	-0,0095	0,00195
4,7	-0,0095	0,00195
4,71	-0,0095	0,00225
4,72	-0,01	0,0021
4,73	-0,0095	0,00225
4,74	-0,01	0,0021
4,75	-0,0095	0,0021
4,76	-0,0095	0,0021
4,77	-0,0095	0,00195
4,78	-0,0095	0,0021
4,79	-0,01	0,00195
4,8	-0,01	0,0021
4,81	-0,0095	0,0021
4,82	-0,0095	0,00195
4,83	-0,0095	0,00195
4,84	-0,0095	0,00225
4,85	-0,0095	0,0021
4,86	-0,01	0,00225
4,87	-0,0095	0,0021
4,88	-0,01	0,00225
4,89	-0,0095	0,0021
4,9	-0,0105	0,0021
4,91	-0,01	0,00225
4,92	-0,0105	0,00225
4,93	-0,01	0,0021
4,94	-0,01	0,0021
4,95	-0,0105	0,0021
4,96	-0,01	0,0021
4,97	-0,01	0,0021
4,98	-0,01	0,0024
4,99	-0,01	0,0021
5	-0,01	0,0027
5,01	-0,01	0,00225
5,02	-0,01	0,0021
5,03	-0,01	0,0021
5,04	-0,01	0,0024
5,05	-0,01	0,00195
5,06	-0,01	0,0024
5,07	-0,01	0,00225
5,08	-0,01	0,00255
5,09	-0,01	0,0021
5,1	-0,01	0,0021
5,11	-0,0105	0,00225
5,12	-0,01	0,00225
5,13	-0,0105	0,0027
5,14	-0,0105	0,00225
5,15	-0,0105	0,00225
5,16	-0,0105	0,00255
5,17	-0,0105	0,0021
5,18	-0,0105	0,00255
5,19	-0,0105	0,0024
5,2	-0,01	0,0024
5,21	-0,011	0,00225
5,22	-0,0105	0,00255
5,23	-0,0105	0,00225
5,24	-0,011	0,0024
5,25	-0,0105	0,0024
5,26	-0,0105	0,0024
5,27	-0,0105	0,0024
5,28	-0,0105	0,0024
5,29	-0,011	0,0024
5,3	-0,011	0,0024
5,31	-0,011	0,00225
5,32	-0,0105	0,00255
5,33	-0,0105	0,0021
5,34	-0,011	0,0027
5,35	-0,0105	0,0024
5,36	-0,011	0,0024
5,37	-0,011	0,0021
5,38	-0,011	0,0027
5,39	-0,0115	0,0024
5,4	-0,0115	0,00255
5,41	-0,0115	0,00255
5,42	-0,011	0,0027
5,43	-0,0115	0,00285
5,44	-0,011	0,00255
5,45	-0,0115	0,00255
5,46	-0,011	0,00285
5,47	-0,011	0,00255
5,48	-0,011	0,0027
5,49	-0,0115	0,00255
5,5	-0,011	0,0027
5,51	-0,011	0,0027
5,52	-0,0115	0,0027
5,53	-0,0115	0,00255
5,54	-0,0115	0,0027
5,55	-0,0115	0,00255
5,56	-0,0115	0,0027
5,57	-0,0115	0,00255
5,58	-0,0115	0,0024
5,59	-0,0115	0,0024
5,6	-0,0115	0,0024
5,61	-0,0115	0,0024
5,62	-0,0115	0,0027
5,63	-0,012	0,0027
5,64	-0,012	0,00285
5,65	-0,0115	0,00255
5,66	-0,012	0,003
5,67	-0,0115	0,00255
5,68	-0,0115	0,00285
5,69	-0,0115	0,0027
5,7	-0,012	0,003
5,71	-0,0115	0,0027
5,72	-0,0115	0,0027
5,73	-0,012	0,0027
5,74	-0,012	0,00285
5,75	-0,0115	0,00285
5,76	-0,012	0,0027
5,77	-0,0115	0,00285
5,78	-0,0115	0,0027
5,79	-0,0115	0,0027
5,8	-0,012	0,0027
5,81	-0,0115	0,0027
5,82	-0,0115	0,0027
5,83	-0,0115	0,0027
5,84	-0,0115	0,00285
5,85	-0,0115	0,00285
5,86	-0,012	0,003
5,87	-0,0115	0,00285
5,88	-0,0115	0,00285
5,89	-0,0115	0,0027
5,9	-0,012	0,00285
5,91	-0,0115	0,0027
5,92	-0,0115	0,00285
5,93	-0,012	0,0027
5,94	-0,0115	0,0027
5,95	-0,0115	0,0027
5,96	-0,0115	0,0027
5,97	-0,012	0,0027
5,98	-0,012	0,0027
5,99	-0,012	0,00285
6	-0,012	0,0027
6,01	-0,0115	0,0027
6,02	-0,012	0,0027
6,03	-0,012	0,00285
6,04	-0,012	0,0027
6,05	-0,012	0,003
6,06	-0,012	0,00285
6,07	-0,0115	0,0027
6,08	-0,0125	0,003
6,09	-0,012	0,00285
6,1	-0,0125	0,00285
6,11	-0,012	0,0027
6,12	-0,0125	0,0027
6,13	-0,0125	0,0027
6,14	-0,0125	0,00255
6,15	-0,012	0,0027
6,16	-0,012	0,0027
6,17	-0,0125	0,00285
6,18	-0,012	0,003
6,19	-0,012	0,00285
6,2	-0,012	0,00315
6,21	-0,0125	0,0027
6,22	-0,012	0,003
6,23	-0,012	0,003
6,24	-0,012	0,00285
6,25	-0,0125	0,00285
6,26	-0,012	0,0027
6,27	-0,0125	0,00285
6,28	-0,012	0,00285
6,29	-0,0125	0,0027
6,3	-0,0125	0,003
6,31	-0,012	0,003
6,32	-0,0125	0,00315
6,33	-0,0125	0,003
6,34	-0,012	0,00315
6,35	-0,0125	0,003
6,36	-0,013	0,003
6,37	-0,0125	0,00285
6,38	-0,0125	0,003
6,39	-0,013	0,003
6,4	-0,0125	0,00285
6,41	-0,0125	0,003
6,42	-0,0125	0,0027
6,43	-0,013	0,00315
6,44	-0,013	0,00315
6,45	-0,013	0,003
6,46	-0,013	0,00315
6,47	-0,0125	0,003
6,48	-0,013	0,00315
6,49	-0,013	0,00315
6,5	-0,0135	0,00315
6,51	-0,013	0,003
6,52	-0,013	0,003
6,53	-0,013	0,003
6,54	-0,013	0,003
6,55	-0,013	0,00315
6,56	-0,013	0,00315
6,57	-0,013	0,0033
6,58	-0,013	0,00315
6,59	-0,013	0,003
6,6	-0,013	0,00315
6,61	-0,013	0,00315
6,62	-0,013	0,00315
6,63	-0,0135	0,003
6,64	-0,013	0,00315
6,65	-0,0135	0,00315
6,66	-0,0135	0,0033
6,67	-0,013	0,00315
6,68	-0,013	0,00315
6,69	-0,013	0,00315
6,7	-0,0135	0,0033
6,71	-0,013	0,00315
6,72	-0,0135	0,0033
6,73	-0,0135	0,00315
6,74	-0,0135	0,00315
6,75	-0,0135	0,00315
6,76	-0,0135	0,0033
6,77	-0,013	0,003
6,78	-0,0135	0,00315
6,79	-0,0135	0,00315
6,8	-0,0135	0,0033
6,81	-0,0135	0,00315
6,82	-0,014	0,0033
6,83	-0,0135	0,00345
6,84	-0,0135	0,00345
6,85	-0,0135	0,00345
6,86	-0,0135	0,0033
6,87	-0,014	0,0033
6,88	-0,0135	0,0033
6,89	-0,014	0,0033
6,9	-0,014	0,0033
6,91	-0,014	0,00315
6,92	-0,014	0,00345
6,93	-0,014	0,0033
6,94	-0,014	0,0033
6,95	-0,0145	0,0036
6,96	-0,0145	0,00345
6,97	-0,0145	0,0036
6,98	-0,014	0,0036
6,99	-0,0145	0,00375
7	-0,0145	0,00345
7,01	-0,0145	0,0039
7,02	-0,0145	0,0036
7,03	-0,0145	0,00345
7,04	-0,014	0,00345
7,05	-0,0145	0,00345
7,06	-0,014	0,00375
7,07	-0,0145	0,0036
7,08	-0,0145	0,0036
7,09	-0,0145	0,0036
7,1	-0,0145	0,0036
7,11	-0,0145	0,0036
7,12	-0,015	0,0036
7,13	-0,0145	0,00345
7,14	-0,015	0,0036
7,15	-0,0145	0,0036
7,16	-0,0145	0,0036
7,17	-0,0145	0,0033
7,18	-0,0145	0,0036
7,19	-0,015	0,0036
7,2	-0,0145	0,0036
7,21	-0,015	0,00345
7,22	-0,015	0,00375
7,23	-0,0145	0,00345
7,24	-0,015	0,0036
7,25	-0,015	0,0036
7,26	-0,015	0,0036
7,27	-0,015	0,00345
7,28	-0,015	0,0036
7,29	-0,015	0,00375
7,3	-0,015	0,00375
7,31	-0,0155	0,0039
7,32	-0,015	0,00375
7,33	-0,0155	0,00375
7,34	-0,015	0,0036
7,35	-0,0155	0,0039
7,36	-0,015	0,00375
7,37	-0,015	0,00375
7,38	-0,015	0,00375
7,39	-0,015	0,00375
7,4	-0,015	0,00375
7,41	-0,0155	0,00375
7,42	-0,015	0,00375
7,43	-0,015	0,00375
7,44	-0,0155	0,0039
7,45	-0,0155	0,00375
7,46	-0,0155	0,00375
7,47	-0,0155	0,0039
7,48	-0,0155	0,00375
7,49	-0,0155	0,0039
7,5	-0,0155	0,00375
7,51	-0,015	0,0039
7,52	-0,0155	0,0036
7,53	-0,0155	0,00375
7,54	-0,0155	0,0039
7,55	-0,015	0,0039
7,56	-0,0155	0,0039
7,57	-0,015	0,00375
7,58	-0,0155	0,0039
7,59	-0,015	0,00375
7,6	-0,015	0,00375
7,61	-0,015	0,0039
7,62	-0,0155	0,0036
7,63	-0,015	0,0036
7,64	-0,015	0,00375
7,65	-0,015	0,00375
7,66	-0,0155	0,00405
7,67	-0,015	0,00375
7,68	-0,0155	0,00405
7,69	-0,0155	0,00375
7,7	-0,0155	0,0039
7,71	-0,0155	0,00375
7,72	-0,016	0,00375
7,73	-0,0155	0,0039
7,74	-0,016	0,0039
7,75	-0,0155	0,00375
7,76	-0,0155	0,00405
7,77	-0,015	0,0039
7,78	-0,0155	0,00375
7,79	-0,0155	0,00375
7,8	-0,0155	0,0039
7,81	-0,0155	0,0036
7,82	-0,0155	0,00375
7,83	-0,0155	0,0036
7,84	-0,0155	0,0039
7,85	-0,0155	0,00375
7,86	-0,0155	0,0039
7,87	-0,0155	0,0039
7,88	-0,0155	0,0039
7,89	-0,0155	0,00375
7,9	-0,0155	0,00405
7,91	-0,016	0,00405
7,92	-0,0155	0,00405
7,93	-0,0155	0,0039
7,94	-0,0155	0,00405
7,95	-0,016	0,0039
7,96	-0,0155	0,00405
7,97	-0,0155	0,0039
7,98	-0,016	0,00405
7,99	-0,016	0,00375
8	-0,016	0,0039
8,01	-0,016	0,0039
8,02	-0,0155	0,0039
8,03	-0,0165	0,0042
8,04	-0,016	0,0039
8,05	-0,016	0,00405
8,06	-0,016	0,0039
8,07	-0,0165	0,0042
8,08	-0,016	0,00405
8,09	-0,0165	0,0039
8,1	-0,016	0,00405
8,11	-0,0165	0,00405
8,12	-0,0165	0,0039
8,13	-0,0165	0,0042
8,14	-0,0165	0,00405
8,15	-0,0165	0,0042
8,16	-0,0165	0,00405
8,17	-0,0165	0,0042
8,18	-0,0165	0,0042
8,19	-0,0165	0,00435
8,2	-0,0165	0,0045
8,21	-0,0165	0,00435
8,22	-0,0165	0,00435
8,23	-0,0165	0,00405
8,24	-0,0165	0,00435
8,25	-0,017	0,0042
8,26	-0,017	0,0045
8,27	-0,017	0,00405
8,28	-0,017	0,0042
8,29	-0,017	0,0042
8,3	-0,017	0,0045
8,31	-0,0175	0,0042
8,32	-0,017	0,00435
8,33	-0,017	0,0042
8,34	-0,017	0,00435
8,35	-0,017	0,00435
8,36	-0,017	0,00435
8,37	-0,017	0,00435
8,38	-0,017	0,0045
8,39	-0,017	0,00435
8,4	-0,017	0,00435
8,41	-0,017	0,0045
8,42	-0,017	0,0042
8,43	-0,017	0,00435
8,44	-0,017	0,0042
8,45	-0,017	0,00435
8,46	-0,0175	0,0045
8,47	-0,017	0,0045
8,48	-0,0175	0,0042
8,49	-0,0175	0,00465
8,5	-0,0175	0,00435
8,51	-0,0175	0,0045
8,52	-0,0175	0,0045
8,53	-0,0175	0,00435
8,54	-0,018	0,0045
8,55	-0,0175	0,0045
8,56	-0,018	0,0045
8,57	-0,0175	0,00435
8,58	-0,018	0,00465
8,59	-0,0175	0,0045
8,6	-0,0175	0,00495
8,61	-0,0175	0,0045
8,62	-0,018	0,0045
8,63	-0,018	0,00435
8,64	-0,018	0,00465
8,65	-0,018	0,00435
8,66	-0,018	0,00435
8,67	-0,018	0,0045
8,68	-0,018	0,00465
8,69	-0,0185	0,0048
8,7	-0,018	0,0048
8,71	-0,019	0,0048
8,72	-0,0185	0,00495
8,73	-0,0185	0,00495
8,74	-0,019	0,00495
8,75	-0,0185	0,00465
8,76	-0,0185	0,00495
8,77	-0,018	0,0048
8,78	-0,0185	0,0048
8,79	-0,018	0,00495
8,8	-0,0185	0,0048
8,81	-0,0185	0,0048
8,82	-0,0185	0,0048
8,83	-0,0185	0,0048
8,84	-0,0185	0,0048
8,85	-0,0185	0,0048
8,86	-0,0185	0,0048
8,87	-0,019	0,00465
8,88	-0,0185	0,0048
8,89	-0,019	0,00465
8,9	-0,0185	0,0048
8,91	-0,0185	0,00495
8,92	-0,0185	0,00465
8,93	-0,0185	0,0048
8,94	-0,018	0,00465
8,95	-0,0185	0,00495
8,96	-0,0185	0,00465
8,97	-0,019	0,0048
8,98	-0,0185	0,0048
8,99	-0,019	0,00495
9	-0,0185	0,00465
9,01	-0,0185	0,00465
9,02	-0,019	0,00495
9,03	-0,018	0,0048
9,04	-0,0185	0,0048
9,05	-0,018	0,00435
9,06	-0,018	0,0048
9,07	-0,018	0,0048
9,08	-0,0185	0,00495
9,09	-0,018	0,00465
9,1	-0,0185	0,00495
9,11	-0,0185	0,0048
9,12	-0,0185	0,0048
9,13	-0,0185	0,0048
9,14	-0,0185	0,00495
9,15	-0,0185	0,00465
9,16	-0,0185	0,0045
9,17	-0,019	0,0048
9,18	-0,0185	0,0048
9,19	-0,0185	0,0048
9,2	-0,018	0,0048
9,21	-0,0185	0,0048
9,22	-0,018	0,0048
9,23	-0,0185	0,0048
9,24	-0,0185	0,00495
9,25	-0,0185	0,00465
9,26	-0,0185	0,0051
9,27	-0,0185	0,00465
9,28	-0,0185	0,0048
9,29	-0,0185	0,00495
9,3	-0,019	0,00495
9,31	-0,0185	0,00495
9,32	-0,0185	0,0048
9,33	-0,0185	0,00495
9,34	-0,0185	0,0048
9,35	-0,0185	0,0048
9,36	-0,0185	0,0048
9,37	-0,0185	0,00495
9,38	-0,0185	0,00465
9,39	-0,019	0,00495
9,4	-0,0185	0,0048
9,41	-0,019	0,0048
9,42	-0,0185	0,00465
9,43	-0,0185	0,0048
9,44	-0,0185	0,0048
9,45	-0,0185	0,00465
9,46	-0,0185	0,0048
9,47	-0,0185	0,00465
9,48	-0,0185	0,0048
9,49	-0,0185	0,00465
9,5	-0,0185	0,00465
9,51	-0,0185	0,0051
9,52	-0,0185	0,0048
9,53	-0,0185	0,0048
9,54	-0,0185	0,0045
9,55	-0,0185	0,0048
9,56	-0,0185	0,00465
9,57	-0,0185	0,0048
9,58	-0,0185	0,00465
9,59	-0,0185	0,00465
9,6	-0,0185	0,00465
9,61	-0,0185	0,0048
9,62	-0,0185	0,00495
9,63	-0,0185	0,0048
9,64	-0,0185	0,00495
9,65	-0,019	0,00495
9,66	-0,019	0,0048
9,67	-0,019	0,0051
9,68	-0,019	0,0048
9,69	-0,019	0,0048
9,7	-0,019	0,00495
9,71	-0,019	0,00495
9,72	-0,0185	0,0048
9,73	-0,019	0,00495
9,74	-0,0185	0,0051
9,75	-0,0195	0,0048
9,76	-0,019	0,0051
9,77	-0,019	0,0051
9,78	-0,019	0,0051
9,79	-0,019	0,00525
9,8	-0,019	0,00525
9,81	-0,019	0,00495
9,82	-0,0195	0,0051
9,83	-0,019	0,00495
9,84	-0,019	0,0051
9,85	-0,019	0,0051
9,86	-0,0195	0,0051
9,87	-0,019	0,00495
9,88	-0,0195	0,0048
9,89	-0,0195	0,0051
9,9	-0,0195	0,0051
9,91	-0,0195	0,0051
9,92	-0,0195	0,0051
9,93	-0,0195	0,0048
9,94	-0,0195	0,00495
9,95	-0,0195	0,0051
9,96	-0,0195	0,0051
9,97	-0,019	0,0048
9,98	-0,0195	0,00495
9,99	-0,019	0,00495
10	-0,0195	0,00495
10,01	-0,019	0,0051
10,02	-0,0195	0,0051
10,03	-0,019	0,00525
10,04	-0,0195	0,0051
10,05	-0,0195	0,00525
10,06	-0,0195	0,0051
10,07	-0,0195	0,00525
10,08	-0,0195	0,0054
10,09	-0,019	0,0051
10,1	-0,0195	0,00495
10,11	-0,0195	0,00495
10,12	-0,0195	0,00495
10,13	-0,0195	0,0051
10,14	-0,0195	0,00495
10,15	-0,0195	0,00495
10,16	-0,0195	0,0051
10,17	-0,0195	0,0048
10,18	-0,02	0,0051
10,19	-0,0195	0,0051
10,2	-0,02	0,00525
10,21	-0,0195	0,00525
10,22	-0,02	0,0051
10,23	-0,02	0,00525
10,24	-0,0205	0,0051
10,25	-0,02	0,00525
10,26	-0,02	0,00525
10,27	-0,02	0,0054
10,28	-0,02	0,00525
10,29	-0,0195	0,0051
10,3	-0,02	0,00525
10,31	-0,02	0,0054
10,32	-0,0205	0,00525
10,33	-0,02	0,00525
10,34	-0,02	0,0051
10,35	-0,02	0,00525
10,36	-0,02	0,0051
10,37	-0,02	0,0051
10,38	-0,02	0,0051
10,39	-0,02	0,0051
10,4	-0,02	0,00495
10,41	-0,0205	0,00495
10,42	-0,0205	0,0051
10,43	-0,0205	0,00525
10,44	-0,0205	0,00525
10,45	-0,02	0,00525
10,46	-0,0205	0,0054
10,47	-0,0195	0,00495
10,48	-0,02	0,00525
10,49	-0,02	0,0054
10,5	-0,02	0,0054
10,51	-0,02	0,00525
10,52	-0,0205	0,00525
10,53	-0,0205	0,0054
10,54	-0,0205	0,00525
10,55	-0,0205	0,00525
10,56	-0,0205	0,00525
10,57	-0,0205	0,0054
10,58	-0,02	0,00525
10,59	-0,0205	0,0054
10,6	-0,0205	0,0051
10,61	-0,021	0,00525
10,62	-0,02	0,0054
10,63	-0,0205	0,00555
10,64	-0,0205	0,00555
10,65	-0,0205	0,0054
10,66	-0,0205	0,00555
10,67	-0,02	0,00525
10,68	-0,0205	0,00555
10,69	-0,0205	0,00525
10,7	-0,02	0,00555
10,71	-0,0205	0,0054
10,72	-0,021	0,00555
10,73	-0,0205	0,0054
10,74	-0,0205	0,00525
10,75	-0,0205	0,0054
10,76	-0,0205	0,0054
10,77	-0,021	0,0057
10,78	-0,0205	0,00555
10,79	-0,021	0,0057
10,8	-0,0205	0,0054
10,81	-0,021	0,00555
10,82	-0,0205	0,0054
10,83	-0,021	0,00555
10,84	-0,0205	0,0054
10,85	-0,0215	0,00555
10,86	-0,021	0,0057
10,87	-0,021	0,0057
10,88	-0,021	0,0054
10,89	-0,021	0,0054
10,9	-0,021	0,0054
10,91	-0,021	0,00555
10,92	-0,021	0,0057
10,93	-0,0215	0,00555
10,94	-0,0215	0,0057
10,95	-0,021	0,00585
10,96	-0,0215	0,00585
10,97	-0,021	0,00555
10,98	-0,021	0,00555
10,99	-0,0215	0,0054
11	-0,0215	0,00555
11,01	-0,0215	0,00555
11,02	-0,0215	0,0054
11,03	-0,0215	0,00555
11,04	-0,0215	0,00555
11,05	-0,0215	0,0054
11,06	-0,021	0,00555
11,07	-0,0215	0,00555
11,08	-0,0215	0,00555
11,09	-0,0215	0,0057
11,1	-0,0215	0,0057
11,11	-0,022	0,0057
11,12	-0,0215	0,00585
11,13	-0,0215	0,006
11,14	-0,0215	0,00555
11,15	-0,0215	0,0057
11,16	-0,0215	0,00585
11,17	-0,0225	0,00585
11,18	-0,0215	0,00585
11,19	-0,022	0,00555
11,2	-0,022	0,0057
11,21	-0,0215	0,0057
11,22	-0,022	0,0057
11,23	-0,022	0,00585
11,24	-0,022	0,0057
11,25	-0,022	0,0057
11,26	-0,0225	0,0057
11,27	-0,022	0,0057
11,28	-0,0225	0,006
11,29	-0,022	0,00585
11,3	-0,0225	0,006
11,31	-0,022	0,00585
11,32	-0,0225	0,006
11,33	-0,0225	0,0057
11,34	-0,022	0,006
11,35	-0,0225	0,006
11,36	-0,023	0,00585
11,37	-0,0225	0,006
11,38	-0,0225	0,00585
11,39	-0,0225	0,00585
11,4	-0,0225	0,006
11,41	-0,023	0,006
11,42	-0,0225	0,006
11,43	-0,023	0,006
11,44	-0,023	0,006
11,45	-0,023	0,00585
11,46	-0,023	0,00585
11,47	-0,0225	0,006
11,48	-0,0225	0,00585
11,49	-0,0225	0,006
11,5	-0,0225	0,0057
11,51	-0,0225	0,006
11,52	-0,0225	0,00615
11,53	-0,0225	0,006
11,54	-0,023	0,006
11,55	-0,0225	0,00585
11,56	-0,023	0,00585
11,57	-0,0225	0,00585
11,58	-0,023	0,006
11,59	-0,023	0,0063
11,6	-0,023	0,006
11,61	-0,023	0,00615
11,62	-0,023	0,0063
11,63	-0,023	0,0063
11,64	-0,023	0,00615
11,65	-0,0225	0,0063
11,66	-0,023	0,0063
11,67	-0,023	0,0057
11,68	-0,0235	0,0063
11,69	-0,023	0,0063
11,7	-0,023	0,0063
11,71	-0,023	0,0063
11,72	-0,023	0,006
11,73	-0,0235	0,00615
11,74	-0,024	0,006
11,75	-0,0235	0,00615
11,76	-0,024	0,0063
11,77	-0,0235	0,0063
11,78	-0,024	0,006
11,79	-0,0235	0,00615
11,8	-0,024	0,0063
11,81	-0,0235	0,00645
11,82	-0,0235	0,00615
11,83	-0,0235	0,00615
11,84	-0,024	0,0063
11,85	-0,024	0,0063
11,86	-0,0235	0,00615
11,87	-0,0235	0,0063
11,88	-0,0235	0,00615
11,89	-0,024	0,00645
11,9	-0,0235	0,0063
11,91	-0,0235	0,0063
11,92	-0,0235	0,0063
11,93	-0,024	0,0063
11,94	-0,024	0,0063
11,95	-0,024	0,0063
11,96	-0,0235	0,0063
11,97	-0,024	0,0066
11,98	-0,024	0,00645
11,99	-0,0235	0,00645
12	-0,0235	0,00645
12,01	-0,0245	0,00645
12,02	-0,0235	0,0063
12,03	-0,024	0,00645
12,04	-0,024	0,00615
12,05	-0,024	0,00645
12,06	-0,024	0,00645
12,07	-0,0245	0,0066
12,08	-0,024	0,0063
12,09	-0,024	0,00645
12,1	-0,024	0,0063
12,11	-0,0245	0,0066
12,12	-0,024	0,00645
12,13	-0,0245	0,00645
12,14	-0,0245	0,00645
12,15	-0,024	0,00675
12,16	-0,0245	0,0066
12,17	-0,024	0,0063
12,18	-0,0245	0,0066
12,19	-0,0245	0,00645
12,2	-0,0245	0,0066
12,21	-0,0245	0,0066
12,22	-0,025	0,0066
12,23	-0,0245	0,0066
12,24	-0,0245	0,00675
12,25	-0,0245	0,0063
12,26	-0,025	0,00645
12,27	-0,0245	0,00675
12,28	-0,0245	0,0066
12,29	-0,0245	0,00645
12,3	-0,0245	0,0066
12,31	-0,025	0,00675
12,32	-0,025	0,00675
12,33	-0,0245	0,00645
12,34	-0,025	0,00675
12,35	-0,025	0,00645
12,36	-0,025	0,0066
12,37	-0,025	0,0066
12,38	-0,025	0,0066
12,39	-0,0245	0,0066
12,4	-0,025	0,0066
12,41	-0,0255	0,00675
12,42	-0,025	0,00675
12,43	-0,025	0,00675
12,44	-0,025	0,00675
12,45	-0,025	0,0069
12,46	-0,025	0,0066
12,47	-0,025	0,00675
12,48	-0,025	0,0066
12,49	-0,0255	0,0069
12,5	-0,0255	0,0066
12,51	-0,0255	0,0069
12,52	-0,0255	0,00675
12,53	-0,0255	0,0069
12,54	-0,0255	0,0069
12,55	-0,0255	0,00675
12,56	-0,025	0,0069
12,57	-0,0255	0,0069
12,58	-0,0255	0,0069
12,59	-0,0255	0,00705
12,6	-0,0255	0,0069
12,61	-0,026	0,00705
12,62	-0,0255	0,00705
12,63	-0,025	0,0069
12,64	-0,026	0,00705
12,65	-0,0255	0,0069
12,66	-0,026	0,0069
12,67	-0,0255	0,0069
12,68	-0,0265	0,0069
12,69	-0,026	0,0069
12,7	-0,026	0,0069
12,71	-0,026	0,00705
12,72	-0,026	0,00675
12,73	-0,026	0,00735
12,74	-0,026	0,0069
12,75	-0,0265	0,00735
12,76	-0,0255	0,00705
12,77	-0,026	0,00705
12,78	-0,0265	0,00675
12,79	-0,026	0,0072
12,8	-0,026	0,0069
12,81	-0,0265	0,0069
12,82	-0,026	0,0069
12,83	-0,026	0,00705
12,84	-0,0265	0,0069
12,85	-0,0265	0,0069
12,86	-0,0265	0,00705
12,87	-0,0265	0,0072
12,88	-0,0265	0,00705
12,89	-0,026	0,0072
12,9	-0,0265	0,0072
12,91	-0,026	0,0072
12,92	-0,0265	0,0072
12,93	-0,0265	0,00705
12,94	-0,026	0,0072
12,95	-0,0265	0,00705
12,96	-0,0265	0,00735
12,97	-0,0265	0,0072
12,98	-0,0265	0,0072
12,99	-0,0265	0,00705
13	-0,0265	0,0072
13,01	-0,0265	0,00705
13,02	-0,0265	0,0072
13,03	-0,027	0,00735
13,04	-0,0265	0,0072
13,05	-0,0265	0,00705
13,06	-0,0265	0,0072
13,07	-0,0265	0,0072
13,08	-0,0265	0,0072
13,09	-0,027	0,00705
13,1	-0,027	0,0072
13,11	-0,027	0,0072
13,12	-0,027	0,00735
13,13	-0,027	0,0075
13,14	-0,027	0,00735
13,15	-0,027	0,0072
13,16	-0,027	0,0072
13,17	-0,027	0,00735
13,18	-0,027	0,00735
13,19	-0,0265	0,00735
13,2	-0,0265	0,0072
13,21	-0,027	0,0075
13,22	-0,027	0,0072
13,23	-0,0275	0,00735
13,24	-0,027	0,00735
13,25	-0,027	0,00735
13,26	-0,027	0,00735
13,27	-0,027	0,0072
13,28	-0,0275	0,00735
13,29	-0,0275	0,00735
13,3	-0,0275	0,00735
13,31	-0,0275	0,00735
13,32	-0,027	0,0075
13,33	-0,0275	0,00735
13,34	-0,0275	0,0075
13,35	-0,0275	0,0075
13,36	-0,0275	0,0078
13,37	-0,0275	0,0078
13,38	-0,0275	0,0078
13,39	-0,0275	0,0075
13,4	-0,0275	0,0075
13,41	-0,028	0,0075
13,42	-0,0275	0,0075
13,43	-0,028	0,0075
13,44	-0,028	0,00735
13,45	-0,028	0,00735
13,46	-0,028	0,00735
13,47	-0,0275	0,00735
13,48	-0,028	0,0075
13,49	-0,0275	0,00735
13,5	-0,028	0,00765
13,51	-0,028	0,0075
13,52	-0,0285	0,0078
13,53	-0,028	0,00765
13,54	-0,028	0,0078
13,55	-0,028	0,0075
13,56	-0,028	0,0075
13,57	-0,028	0,0078
13,58	-0,028	0,0075
13,59	-0,0285	0,00765
13,6	-0,0285	0,0075
13,61	-0,029	0,00795
13,62	-0,029	0,00795
13,63	-0,0285	0,0078
13,64	-0,029	0,0078
13,65	-0,0285	0,00795
13,66	-0,0285	0,0078
13,67	-0,0285	0,0078
13,68	-0,0295	0,00795
13,69	-0,0295	0,0081
13,7	-0,0295	0,00795
13,71	-0,0295	0,0078
13,72	-0,0295	0,0081
13,73	-0,0295	0,00795
13,74	-0,0295	0,0081
13,75	-0,03	0,00825
13,76	-0,0295	0,0081
13,77	-0,0295	0,00825
13,78	-0,0295	0,00825
13,79	-0,0295	0,0081
13,8	-0,0295	0,00825
13,81	-0,03	0,00795
13,82	-0,0295	0,0081
13,83	-0,03	0,0081
13,84	-0,0295	0,0081
13,85	-0,03	0,00855
13,86	-0,0295	0,00825
13,87	-0,0295	0,0084
13,88	-0,0295	0,00795
13,89	-0,0295	0,0081
13,9	-0,03	0,0081
13,91	-0,03	0,00825
13,92	-0,03	0,0081
13,93	-0,03	0,0081
13,94	-0,03	0,00825
13,95	-0,03	0,00825
13,96	-0,03	0,00825
13,97	-0,0305	0,00825
13,98	-0,0305	0,0081
13,99	-0,03	0,00825
14	-0,0305	0,0084
14,01	-0,0305	0,00825
14,02	-0,031	0,00825
14,03	-0,0305	0,00855
14,04	-0,0305	0,0084
14,05	-0,0305	0,00825
14,06	-0,0305	0,00825
14,07	-0,0305	0,00855
14,08	-0,0305	0,0084
14,09	-0,0305	0,00855
14,1	-0,0305	0,00855
14,11	-0,0305	0,0084
14,12	-0,031	0,0084
14,13	-0,031	0,0084
14,14	-0,0305	0,0084
14,15	-0,031	0,00855
14,16	-0,0305	0,0084
14,17	-0,031	0,00855
14,18	-0,031	0,00855
14,19	-0,031	0,0084
14,2	-0,0315	0,0087
14,21	-0,031	0,00855
14,22	-0,031	0,0087
14,23	-0,0315	0,00855
14,24	-0,032	0,0087
14,25	-0,0315	0,00855
14,26	-0,0315	0,00885
14,27	-0,0315	0,00885
14,28	-0,0315	0,0087
14,29	-0,0315	0,00885
14,3	-0,032	0,0087
14,31	-0,032	0,0087
14,32	-0,032	0,0087
14,33	-0,032	0,009
14,34	-0,032	0,0087
14,35	-0,032	0,00885
14,36	-0,032	0,0087
14,37	-0,0325	0,00885
14,38	-0,0325	0,00915
14,39	-0,032	0,009
14,4	-0,0325	0,00915
14,41	-0,032	0,009
14,42	-0,032	0,00885
14,43	-0,0325	0,009
14,44	-0,0325	0,009
14,45	-0,0325	0,00885
14,46	-0,0325	0,00885
14,47	-0,0325	0,00885
14,48	-0,0325	0,009
14,49	-0,0325	0,00885
14,5	-0,0325	0,009
14,51	-0,0325	0,00885
14,52	-0,0325	0,009
14,53	-0,0325	0,009
14,54	-0,0325	0,009
14,55	-0,033	0,009
14,56	-0,033	0,0093
14,57	-0,033	0,00915
14,58	-0,033	0,009
14,59	-0,033	0,0093
14,6	-0,033	0,00915
14,61	-0,033	0,00915
14,62	-0,033	0,00915
14,63	-0,033	0,0093
14,64	-0,033	0,009
14,65	-0,033	0,00945
14,66	-0,033	0,009
14,67	-0,033	0,00915
14,68	-0,033	0,00915
14,69	-0,0335	0,00915
14,7	-0,033	0,00915
14,71	-0,033	0,0093
14,72	-0,033	0,0093
14,73	-0,033	0,0093
14,74	-0,033	0,00915
14,75	-0,0335	0,009
14,76	-0,033	0,009
14,77	-0,033	0,009
14,78	-0,033	0,009
14,79	-0,033	0,009
14,8	-0,0335	0,0093
14,81	-0,0325	0,009
14,82	-0,0335	0,00915
14,83	-0,033	0,00915
14,84	-0,0335	0,0093
14,85	-0,033	0,0093
14,86	-0,033	0,0093
14,87	-0,033	0,00885
14,88	-0,033	0,00915
14,89	-0,033	0,00885
14,9	-0,033	0,00915
14,91	-0,0335	0,009
14,92	-0,033	0,009
14,93	-0,033	0,00915
14,94	-0,033	0,009
14,95	-0,033	0,009
14,96	-0,033	0,009
14,97	-0,033	0,00915
14,98	-0,0335	0,0093
14,99	-0,033	0,0093
15	-0,033	0,00915
15,01	-0,033	0,00915
15,02	-0,033	0,0093
15,03	-0,033	0,00915
15,04	-0,033	0,009
15,05	-0,033	0,00915
15,06	-0,0335	0,0093
15,07	-0,033	0,009
15,08	-0,033	0,00915
15,09	-0,0335	0,009
15,1	-0,0335	0,00915
15,11	-0,033	0,009
15,12	-0,033	0,00915
15,13	-0,033	0,00915
15,14	-0,0335	0,009
15,15	-0,033	0,00915
15,16	-0,033	0,0093
15,17	-0,033	0,00915
15,18	-0,0335	0,00945
15,19	-0,033	0,00915
15,2	-0,033	0,00915
15,21	-0,033	0,009
15,22	-0,033	0,00915
15,23	-0,033	0,00915
15,24	-0,0325	0,00915
15,25	-0,033	0,00915
15,26	-0,033	0,0093
15,27	-0,0335	0,00885
15,28	-0,033	0,009
15,29	-0,033	0,0093
15,3	-0,0335	0,0093
15,31	-0,033	0,0093
15,32	-0,0335	0,0093
15,33	-0,033	0,00915
15,34	-0,0335	0,0093
15,35	-0,033	0,009
15,36	-0,033	0,00915
15,37	-0,033	0,00915
15,38	-0,033	0,009
15,39	-0,033	0,009
15,4	-0,033	0,00915
15,41	-0,0335	0,00915
15,42	-0,033	0,00945
15,43	-0,033	0,00915
15,44	-0,033	0,0093
15,45	-0,033	0,0093
15,46	-0,033	0,00885
15,47	-0,033	0,00885
15,48	-0,033	0,00915
15,49	-0,033	0,009
15,5	-0,033	0,00915
15,51	-0,0325	0,009
15,52	-0,0335	0,00915
15,53	-0,0335	0,00915
15,54	-0,033	0,00915
15,55	-0,033	0,0093
15,56	-0,0335	0,0093
15,57	-0,033	0,0093
15,58	-0,0325	0,00915
15,59	-0,033	0,00915
15,6	-0,033	0,00915
15,61	-0,0335	0,00885
15,62	-0,033	0,009
15,63	-0,0325	0,009
15,64	-0,033	0,00915
15,65	-0,033	0,00915
15,66	-0,0335	0,00915
15,67	-0,033	0,00915
15,68	-0,0335	0,0093
15,69	-0,033	0,009
15,7	-0,033	0,0093
15,71	-0,033	0,009
15,72	-0,033	0,00915
15,73	-0,033	0,00885
15,74	-0,033	0,00915
15,75	-0,033	0,00915
15,76	-0,033	0,009
15,77	-0,033	0,00915
15,78	-0,0335	0,00915
15,79	-0,033	0,0093
15,8	-0,033	0,009
15,81	-0,033	0,009
15,82	-0,0335	0,009
15,83	-0,033	0,0093
15,84	-0,033	0,009
15,85	-0,033	0,009
15,86	-0,033	0,00915
15,87	-0,033	0,0093
15,88	-0,033	0,00915
15,89	-0,0335	0,009
15,9	-0,033	0,0093
15,91	-0,033	0,0093
15,92	-0,033	0,00915
15,93	-0,033	0,00915
15,94	-0,033	0,00915
15,95	-0,0335	0,009
15,96	-0,033	0,0093
15,97	-0,033	0,00885
15,98	-0,033	0,00915
15,99	-0,033	0,009
16	-0,033	0,009
16,01	-0,033	0,00915
16,02	-0,0335	0,00915
16,03	-0,033	0,0099
16,04	-0,033	0,0105
16,05	-0,033	0,0099
16,06	-0,033	0,0096
16,07	-0,033	0,0093
16,08	-0,033	0,00945
16,09	-0,033	0,009
16,1	-0,033	0,00915
16,11	-0,033	0,0096
16,12	-0,033	0,01035
16,13	-0,033	0,01035
16,14	-0,033	0,01005
16,15	-0,033	0,0096
16,16	-0,033	0,0096
16,17	-0,0335	0,0093
16,18	-0,033	0,00945
16,19	-0,0335	0,00915
16,2	-0,033	0,00945
16,21	-0,033	0,0096
16,22	-0,033	0,0093
16,23	-0,033	0,0093
16,24	-0,033	0,00915
16,25	-0,033	0,0093
16,26	-0,0335	0,00915
16,27	-0,033	0,0093
16,28	-0,033	0,0093
16,29	-0,033	0,0093
16,3	-0,033	0,00915
16,31	-0,033	0,0093
16,32	-0,033	0,00945
16,33	-0,033	0,00945
16,34	-0,033	0,0093
16,35	-0,033	0,0093
16,36	-0,033	0,0093
16,37	-0,0335	0,0093
16,38	-0,033	0,0093
16,39	-0,033	0,00915
16,4	-0,033	0,00915
16,41	-0,033	0,00915
16,42	-0,0335	0,00945
16,43	-0,0335	0,0093
16,44	-0,033	0,00945
16,45	-0,033	0,00915
16,46	-0,033	0,0093
16,47	-0,033	0,009
16,48	-0,033	0,00915
16,49	-0,033	0,0093
16,5	-0,033	0,00915
16,51	-0,0335	0,00915
16,52	-0,0335	0,0093
16,53	-0,0325	0,00915
16,54	-0,033	0,0093
16,55	-0,033	0,00915
16,56	-0,0335	0,0096
16,57	-0,033	0,0093
16,58	-0,033	0,0093
16,59	-0,033	0,00915
16,6	-0,033	0,00915
16,61	-0,033	0,009
16,62	-0,033	0,00915
16,63	-0,033	0,00915
16,64	-0,033	0,0093
16,65	-0,0335	0,0093
16,66	-0,033	0,00945
16,67	-0,033	0,0093
16,68	-0,0335	0,0093
16,69	-0,033	0,00945
16,7	-0,033	0,0093
16,71	-0,033	0,00915
16,72	-0,033	0,0096
16,73	-0,033	0,00915
16,74	-0,033	0,0093
16,75	-0,033	0,009
16,76	-0,033	0,00915
16,77	-0,0335	0,0093
16,78	-0,033	0,00915
16,79	-0,033	0,00915
16,8	-0,033	0,009
16,81	-0,0335	0,0093
16,82	-0,033	0,0093
16,83	-0,0335	0,0093
16,84	-0,033	0,0093
16,85	-0,033	0,0093
16,86	-0,0325	0,0093
16,87	-0,033	0,0093
16,88	-0,033	0,00915
16,89	-0,033	0,0093
16,9	-0,033	0,00915
16,91	-0,033	0,009
16,92	-0,033	0,00915
16,93	-0,033	0,009
16,94	-0,033	0,009
16,95	-0,033	0,009
16,96	-0,033	0,00915
16,97	-0,033	0,0093
16,98	-0,033	0,0093
16,99	-0,033	0,00915
17	-0,033	0,0093
17,01	-0,033	0,0093
17,02	-0,033	0,00915
17,03	-0,0325	0,0093
17,04	-0,033	0,0093
17,05	-0,033	0,00915
17,06	-0,033	0,00915
17,07	-0,033	0,009
17,08	-0,0335	0,00915
17,09	-0,033	0,00915
17,1	-0,033	0,00915
17,11	-0,033	0,00915
17,12	-0,033	0,00915
17,13	-0,0335	0,0093
17,14	-0,033	0,00915
17,15	-0,033	0,00915
17,16	-0,033	0,0093
17,17	-0,033	0,00915
17,18	-0,033	0,0093
17,19	-0,033	0,00915
17,2	-0,033	0,0093
17,21	-0,033	0,009
17,22	-0,033	0,009
17,23	-0,033	0,009
17,24	-0,0335	0,00885
17,25	-0,033	0,009
17,26	-0,033	0,00885
17,27	-0,033	0,009
17,28	-0,033	0,00915
17,29	-0,033	0,00915
17,3	-0,033	0,009
17,31	-0,033	0,00915
17,32	-0,033	0,0093
17,33	-0,0335	0,0093
17,34	-0,033	0,009
17,35	-0,033	0,00915
17,36	-0,033	0,009
17,37	-0,033	0,00915
17,38	-0,033	0,00915
17,39	-0,033	0,0093
17,4	-0,033	0,009
17,41	-0,033	0,0093
17,42	-0,0335	0,00915
17,43	-0,0335	0,009
17,44	-0,033	0,009
17,45	-0,033	0,00885
17,46	-0,0335	0,0093
17,47	-0,0335	0,009
17,48	-0,033	0,0093
17,49	-0,033	0,0093
17,5	-0,033	0,00915
17,51	-0,0335	0,00945
17,52	-0,033	0,00915
17,53	-0,033	0,0093
17,54	-0,033	0,0093
17,55	-0,033	0,0093
17,56	-0,033	0,009
17,57	-0,033	0,00915
17,58	-0,033	0,00885
17,59	-0,033	0,009
17,6	-0,0335	0,00915
17,61	-0,033	0,009
17,62	-0,0335	0,00915
17,63	-0,033	0,00915
17,64	-0,033	0,00915
17,65	-0,0335	0,0093
17,66	-0,033	0,0093
17,67	-0,033	0,0096
17,68	-0,033	0,0093
17,69	-0,033	0,00885
17,7	-0,033	0,00915
17,71	-0,033	0,00915
17,72	-0,0335	0,00915
17,73	-0,0335	0,009
17,74	-0,033	0,009
17,75	-0,033	0,009
17,76	-0,033	0,009
17,77	-0,033	0,00915
17,78	-0,033	0,009
17,79	-0,033	0,009
17,8	-0,033	0,009
17,81	-0,033	0,009
17,82	-0,033	0,00915
17,83	-0,033	0,00915
17,84	-0,033	0,00915
17,85	-0,0335	0,00915
17,86	-0,033	0,009
17,87	-0,033	0,0093
17,88	-0,033	0,00915
17,89	-0,033	0,00915
17,9	-0,033	0,009
17,91	-0,0335	0,009
17,92	-0,033	0,00915
17,93	-0,033	0,009
17,94	-0,033	0,009
17,95	-0,033	0,00915
17,96	-0,033	0,009
17,97	-0,033	0,0093
17,98	-0,033	0,0093
17,99	-0,033	0,00915
18	-0,033	0,009
18,01	-0,033	0,00915
18,02	-0,033	0,00945
18,03	-0,033	0,00915
18,04	-0,033	0,0093
18,05	-0,0335	0,0093
18,06	-0,033	0,00915
18,07	-0,033	0,0093
18,08	-0,033	0,00915
18,09	-0,0335	0,00945
18,1	-0,033	0,00915
18,11	-0,033	0,0093
18,12	-0,033	0,0093
18,13	-0,0335	0,00945
18,14	-0,0335	0,00915
18,15	-0,0335	0,0093
18,16	-0,033	0,0093
18,17	-0,0335	0,0093
18,18	-0,033	0,0093
18,19	-0,033	0,0093
18,2	-0,033	0,0093
18,21	-0,033	0,0093
18,22	-0,0325	0,0093
18,23	-0,0335	0,0093
18,24	-0,033	0,0093
18,25	-0,033	0,00915
18,26	-0,0335	0,009
18,27	-0,033	0,00915
18,28	-0,033	0,00885
18,29	-0,033	0,00915
18,3	-0,033	0,00915
18,31	-0,033	0,009
18,32	-0,033	0,00915
18,33	-0,033	0,00915
18,34	-0,0335	0,00915
18,35	-0,033	0,0093
18,36	-0,033	0,0093
18,37	-0,033	0,009
18,38	-0,033	0,0093
18,39	-0,033	0,00915
18,4	-0,0325	0,0093
18,41	-0,0335	0,00885
18,42	-0,033	0,00915
18,43	-0,0335	0,009
18,44	-0,033	0,009
18,45	-0,033	0,00885
18,46	-0,033	0,009
18,47	-0,033	0,00915
18,48	-0,0335	0,00915
18,49	-0,033	0,009
18,5	-0,033	0,00915
18,51	-0,033	0,009
18,52	-0,033	0,00915
18,53	-0,0335	0,00915
18,54	-0,0335	0,0093
18,55	-0,0335	0,00915
18,56	-0,033	0,0093
18,57	-0,033	0,00915
18,58	-0,033	0,0093
18,59	-0,033	0,0093
18,6	-0,033	0,00915
18,61	-0,033	0,00915
18,62	-0,0325	0,00915
18,63	-0,033	0,0093
18,64	-0,033	0,009
18,65	-0,0335	0,00915
18,66	-0,033	0,00915
18,67	-0,033	0,00915
18,68	-0,0335	0,00915
18,69	-0,033	0,00915
18,7	-0,033	0,00885
18,71	-0,033	0,009
18,72	-0,0335	0,009
18,73	-0,033	0,00915
18,74	-0,033	0,00915
18,75	-0,0335	0,0093
18,76	-0,0335	0,00915
18,77	-0,033	0,0093
18,78	-0,033	0,00915
18,79	-0,033	0,009
18,8	-0,0325	0,009
18,81	-0,033	0,009
18,82	-0,033	0,0093
18,83	-0,033	0,00915
18,84	-0,033	0,009
18,85	-0,0335	0,009
18,86	-0,033	0,009
18,87	-0,033	0,00885
18,88	-0,033	0,009
18,89	-0,033	0,009
18,9	-0,0335	0,009
18,91	-0,033	0,009
18,92	-0,033	0,009
18,93	-0,0335	0,00915
18,94	-0,033	0,009
18,95	-0,0335	0,009
18,96	-0,033	0,00915
18,97	-0,0335	0,00915
18,98	-0,033	0,00915
18,99	-0,0335	0,00915
19	-0,0335	0,00915
19,01	-0,0335	0,00915
19,02	-0,033	0,00915
19,03	-0,033	0,0093
19,04	-0,033	0,00915
19,05	-0,033	0,00915
19,06	-0,033	0,0093
19,07	-0,033	0,0093
19,08	-0,033	0,00915
19,09	-0,033	0,00915
19,1	-0,033	0,0093
19,11	-0,033	0,00915
19,12	-0,033	0,00915
19,13	-0,033	0,009
19,14	-0,0335	0,00915
19,15	-0,033	0,00915
19,16	-0,033	0,00915
19,17	-0,033	0,00915
19,18	-0,0335	0,00915
19,19	-0,0335	0,00915
19,2	-0,033	0,009
19,21	-0,0335	0,00915
19,22	-0,0335	0,0093
19,23	-0,033	0,00945
19,24	-0,033	0,00915
19,25	-0,033	0,00915
19,26	-0,033	0,0093
19,27	-0,0325	0,009
19,28	-0,0335	0,00945
19,29	-0,033	0,00915
19,3	-0,0335	0,00885
19,31	-0,033	0,00915
19,32	-0,033	0,009
19,33	-0,033	0,009
19,34	-0,0335	0,00885
19,35	-0,033	0,009
19,36	-0,033	0,00915
19,37	-0,033	0,009
19,38	-0,033	0,00915
19,39	-0,0335	0,00915
19,4	-0,0335	0,00915
19,41	-0,033	0,00915
19,42	-0,0335	0,0093
19,43	-0,033	0,00915
19,44	-0,033	0,0093
19,45	-0,033	0,009
19,46	-0,033	0,0093
19,47	-0,033	0,00915
19,48	-0,0335	0,00915
19,49	-0,033	0,009
19,5	-0,0335	0,0093
19,51	-0,0325	0,00915
19,52	-0,033	0,0087
19,53	-0,033	0,00915
19,54	-0,033	0,00915
19,55	-0,033	0,009
19,56	-0,033	0,00915
19,57	-0,033	0,009
19,58	-0,033	0,00915
19,59	-0,0335	0,00885
19,6	-0,033	0,00885
19,61	-0,033	0,009
19,62	-0,033	0,00915
19,63	-0,033	0,00915
19,64	-0,033	0,009
19,65	-0,0325	0,00885
19,66	-0,033	0,00915
19,67	-0,033	0,00915
19,68	-0,0335	0,009
19,69	-0,0335	0,0093
19,7	-0,033	0,00915
19,71	-0,033	0,0093
19,72	-0,033	0,00915
19,73	-0,033	0,00885
19,74	-0,033	0,009
19,75	-0,0325	0,00915
19,76	-0,033	0,009
19,77	-0,033	0,009
19,78	-0,033	0,00915
19,79	-0,0335	0,009
19,8	-0,033	0,00915
19,81	-0,033	0,009
19,82	-0,033	0,009
19,83	-0,033	0,009
19,84	-0,033	0,00915
19,85	-0,033	0,00915
19,86	-0,033	0,00915
19,87	-0,033	0,00915
19,88	-0,033	0,009
19,89	-0,0335	0,009
19,9	-0,033	0,00915
19,91	-0,033	0,00915
19,92	-0,033	0,00915
19,93	-0,0335	0,0093
19,94	-0,033	0,009
19,95	-0,033	0,0093
19,96	-0,033	0,009
19,97	-0,033	0,009
19,98	-0,033	0,00915
19,99	-0,033	0,00885
20	-0,033	0,009
