####### t ; U_H ; U_T
# 1*s ; -1*V; 1*V

#﻿MIN=0	-0,3	-3
#MAX=180	0,3	3
#SCALE=180	0,1	1
#DEC=2	4	3
#DEF="Zeit" t / s	"Spannung" U_B1 / V	"Spannung" U_A1 / V
0	-0,0066	0,402
0,05	-0,0066	0,402
0,1	-0,0069	0,4005
0,15	-0,0069	0,402
0,2	-0,00675	0,402
0,25	-0,00705	0,4005
0,3	-0,00705	0,402
0,35	-0,00705	0,4005
0,4	-0,0066	0,4005
0,45	-0,0069	0,3975
0,5	-0,0069	0,3975
0,55	-0,00705	0,399
0,6	-0,0069	0,3975
0,65	-0,00675	0,399
0,7	-0,0069	0,4005
0,75	-0,00675	0,399
0,8	-0,0069	0,399
0,85	-0,0066	0,4005
0,9	-0,00675	0,399
0,95	-0,0069	0,4035
1	-0,00675	0,4005
1,05	-0,00675	0,402
1,1	-0,0069	0,4005
1,15	-0,00675	0,4005
1,2	-0,00675	0,4005
1,25	-0,0069	0,4005
1,3	-0,0069	0,396
1,35	-0,00675	0,3975
1,4	-0,0066	0,3975
1,45	-0,0069	0,396
1,5	-0,0066	0,399
1,55	-0,0069	0,4005
1,6	-0,00675	0,399
1,65	-0,00675	0,402
1,7	-0,00675	0,402
1,75	-0,00705	0,4005
1,8	-0,0069	0,3975
1,85	-0,00675	0,399
1,9	-0,00675	0,3975
1,95	-0,00675	0,3975
2	-0,0066	0,3975
2,05	-0,0066	0,3975
2,1	-0,0069	0,396
2,15	-0,00675	0,396
2,2	-0,0066	0,396
2,25	-0,0066	0,3975
2,3	-0,0069	0,396
2,35	-0,00675	0,3975
2,4	-0,0066	0,396
2,45	-0,0066	0,396
2,5	-0,00675	0,396
2,55	-0,0066	0,3945
2,6	-0,00675	0,396
2,65	-0,00615	0,396
2,7	-0,0069	0,396
2,75	-0,0063	0,3975
2,8	-0,00675	0,396
2,85	-0,00615	0,3975
2,9	-0,0069	0,396
2,95	-0,00615	0,3945
3	-0,00675	0,396
3,05	-0,0063	0,396
3,1	-0,0069	0,3975
3,15	-0,0069	0,396
3,2	-0,00705	0,4005
3,25	-0,00645	0,4005
3,3	-0,0066	0,396
3,35	-0,0069	0,3975
3,4	-0,0069	0,3975
3,45	-0,0072	0,3975
3,5	-0,00675	0,396
3,55	-0,0069	0,3945
3,6	-0,00675	0,3945
3,65	-0,00675	0,3975
3,7	-0,00675	0,3975
3,75	-0,0072	0,399
3,8	-0,0069	0,3975
3,85	-0,00705	0,399
3,9	-0,0069	0,399
3,95	-0,00675	0,3975
4	-0,00675	0,396
4,05	-0,00675	0,3975
4,1	-0,00675	0,396
4,15	-0,0069	0,396
4,2	-0,0066	0,396
4,25	-0,00675	0,396
4,3	-0,00675	0,3945
4,35	-0,00675	0,393
4,4	-0,0066	0,3945
4,45	-0,0069	0,396
4,5	-0,0066	0,396
4,55	-0,00645	0,399
4,6	-0,0066	0,4005
4,65	-0,0066	0,4005
4,7	-0,00675	0,399
4,75	-0,0066	0,4005
4,8	-0,0066	0,399
4,85	-0,00675	0,4005
4,9	-0,0069	0,399
4,95	-0,00675	0,3975
5	-0,00675	0,396
5,05	-0,0069	0,3945
5,1	-0,00675	0,3945
5,15	-0,0066	0,396
5,2	-0,00675	0,3945
5,25	-0,00645	0,3945
5,3	-0,00705	0,3945
5,35	-0,0066	0,3945
5,4	-0,00705	0,396
5,45	-0,0069	0,396
5,5	-0,0069	0,396
5,55	-0,0066	0,4005
5,6	-0,00675	0,3975
5,65	-0,00675	0,396
5,7	-0,00675	0,396
5,75	-0,0066	0,3945
5,8	-0,0069	0,393
5,85	-0,0069	0,393
5,9	-0,00675	0,3945
5,95	-0,00675	0,396
6	-0,0066	0,3945
6,05	-0,0066	0,3945
6,1	-0,0069	0,3945
6,15	-0,00675	0,393
6,2	-0,0066	0,396
6,25	-0,00675	0,3945
6,3	-0,00675	0,3945
6,35	-0,00675	0,393
6,4	-0,0066	0,393
6,45	-0,0066	0,393
6,5	-0,0069	0,3945
6,55	-0,0069	0,393
6,6	-0,0069	0,393
6,65	-0,0066	0,3945
6,7	-0,00645	0,3945
6,75	-0,00675	0,3945
6,8	-0,0066	0,393
6,85	-0,0066	0,3945
6,9	-0,0066	0,396
6,95	-0,0066	0,399
7	-0,0066	0,396
7,05	-0,00645	0,3975
7,1	-0,00645	0,393
7,15	-0,00675	0,396
7,2	-0,00645	0,396
7,25	-0,0066	0,396
7,3	-0,0066	0,3945
7,35	-0,0066	0,3975
7,4	-0,0066	0,396
7,45	-0,0066	0,396
7,5	-0,0069	0,393
7,55	-0,0069	0,3915
7,6	-0,0069	0,393
7,65	-0,0063	0,393
7,7	-0,0066	0,393
7,75	-0,0066	0,3915
7,8	-0,00675	0,393
7,85	-0,00675	0,393
7,9	-0,00675	0,3915
7,95	-0,00645	0,396
8	-0,0066	0,393
8,05	-0,00675	0,396
8,1	-0,0066	0,3945
8,15	-0,0066	0,3975
8,2	-0,00675	0,393
8,25	-0,0066	0,3915
8,3	-0,00675	0,393
8,35	-0,0066	0,3945
8,4	-0,00675	0,393
8,45	-0,00675	0,3915
8,5	-0,0066	0,393
8,55	-0,00675	0,393
8,6	-0,0066	0,3945
8,65	-0,0066	0,393
8,7	-0,00675	0,393
8,75	-0,0066	0,3915
8,8	-0,00675	0,3915
8,85	-0,00645	0,393
8,9	-0,00645	0,393
8,95	-0,00645	0,393
9	-0,00675	0,393
9,05	-0,00675	0,3915
9,1	-0,0066	0,3915
9,15	-0,00675	0,393
9,2	-0,0066	0,393
9,25	-0,0066	0,3945
9,3	-0,0063	0,399
9,35	-0,0066	0,3975
9,4	-0,00645	0,3975
9,45	-0,00645	0,3945
9,5	-0,00645	0,3945
9,55	-0,00675	0,393
9,6	-0,0063	0,396
9,65	-0,00645	0,3975
9,7	-0,00675	0,399
9,75	-0,0066	0,3975
9,8	-0,0066	0,399
9,85	-0,00645	0,396
9,9	-0,00615	0,396
9,95	-0,00645	0,3945
10	-0,0066	0,3945
10,05	-0,0066	0,3915
10,1	-0,0066	0,393
10,15	-0,0066	0,3915
10,2	-0,0066	0,3915
10,25	-0,0066	0,3915
10,3	-0,00645	0,393
10,35	-0,00675	0,3915
10,4	-0,00675	0,3915
10,45	-0,0066	0,39
10,5	-0,00645	0,39
10,55	-0,00645	0,3915
10,6	-0,0063	0,393
10,65	-0,0066	0,39
10,7	-0,0066	0,393
10,75	-0,00675	0,3915
10,8	-0,00675	0,3945
10,85	-0,0063	0,393
10,9	-0,0066	0,393
10,95	-0,00645	0,3915
11	-0,0066	0,393
11,05	-0,0066	0,393
11,1	-0,0069	0,3945
11,15	-0,00645	0,3915
11,2	-0,00645	0,393
11,25	-0,0066	0,39
11,3	-0,00675	0,3915
11,35	-0,0066	0,39
11,4	-0,0066	0,3915
11,45	-0,0066	0,39
11,5	-0,00675	0,3915
11,55	-0,00645	0,39
11,6	-0,0063	0,3945
11,65	-0,0063	0,3945
11,7	-0,0066	0,3945
11,75	-0,00645	0,393
11,8	-0,0066	0,396
11,85	-0,0063	0,393
11,9	-0,0066	0,396
11,95	-0,0066	0,3945
12	-0,0066	0,3945
12,05	-0,00645	0,393
12,1	-0,00645	0,3945
12,15	-0,0063	0,3945
12,2	-0,0066	0,393
12,25	-0,00645	0,3915
12,3	-0,00645	0,3915
12,35	-0,00645	0,39
12,4	-0,00645	0,3915
12,45	-0,0063	0,3915
12,5	-0,0063	0,3945
12,55	-0,0063	0,3945
12,6	-0,0066	0,396
12,65	-0,00645	0,3945
12,7	-0,0066	0,399
12,75	-0,00645	0,3945
12,8	-0,0066	0,3945
12,85	-0,00645	0,3945
12,9	-0,00615	0,393
12,95	-0,00645	0,39
13	-0,00675	0,3915
13,05	-0,0063	0,3885
13,1	-0,0063	0,3915
13,15	-0,0066	0,393
13,2	-0,00645	0,399
13,25	-0,00645	0,3915
13,3	-0,0066	0,3915
13,35	-0,00645	0,39
13,4	-0,0066	0,3915
13,45	-0,00675	0,39
13,5	-0,0066	0,396
13,55	-0,0066	0,3945
13,6	-0,00645	0,399
13,65	-0,0063	0,396
13,7	-0,0063	0,396
13,75	-0,0066	0,3945
13,8	-0,00675	0,3945
13,85	-0,00675	0,39
13,9	-0,0066	0,39
13,95	-0,0066	0,39
14	-0,00645	0,39
14,05	-0,00645	0,39
14,1	-0,0066	0,399
14,15	-0,00645	0,396
14,2	-0,00645	0,393
14,25	-0,00615	0,39
14,3	-0,00645	0,393
14,35	-0,00645	0,39
14,4	-0,0066	0,393
14,45	-0,0066	0,393
14,5	-0,0066	0,396
14,55	-0,00645	0,3915
14,6	-0,00645	0,3915
14,65	-0,0066	0,3885
14,7	-0,00645	0,3945
14,75	-0,0066	0,3945
14,8	-0,00645	0,3975
14,85	-0,0066	0,3915
14,9	-0,00645	0,393
14,95	-0,0066	0,3915
15	-0,00645	0,393
15,05	-0,00645	0,39
15,1	-0,00645	0,3915
15,15	-0,00645	0,3885
15,2	-0,0066	0,39
15,25	-0,00645	0,387
15,3	-0,00645	0,3915
15,35	-0,0063	0,3885
15,4	-0,0066	0,3915
15,45	-0,0066	0,39
15,5	-0,00675	0,396
15,55	-0,00645	0,3945
15,6	-0,00645	0,396
15,65	-0,0066	0,393
15,7	-0,00645	0,3975
15,75	-0,00675	0,3945
15,8	-0,00645	0,399
15,85	-0,0066	0,393
15,9	-0,0066	0,399
15,95	-0,0066	0,39
16	-0,0066	0,3945
16,05	-0,00645	0,39
16,1	-0,0066	0,396
16,15	-0,00645	0,3945
16,2	-0,00645	0,3945
16,25	-0,0066	0,39
16,3	-0,00645	0,393
16,35	-0,0063	0,39
16,4	-0,00675	0,393
16,45	-0,0066	0,3915
16,5	-0,00675	0,396
16,55	-0,0066	0,393
16,6	-0,0066	0,396
16,65	-0,00645	0,393
16,7	-0,00645	0,393
16,75	-0,00615	0,393
16,8	-0,0063	0,3915
16,85	-0,0063	0,39
16,9	-0,0063	0,393
16,95	-0,00645	0,39
17	-0,00645	0,3915
17,05	-0,00645	0,3885
17,1	-0,0066	0,39
17,15	-0,00645	0,3885
17,2	-0,0063	0,3915
17,25	-0,00645	0,3885
17,3	-0,00645	0,39
17,35	-0,00645	0,387
17,4	-0,0066	0,3885
17,45	-0,0063	0,384
17,5	-0,00675	0,3885
17,55	-0,0063	0,387
17,6	-0,0063	0,3885
17,65	-0,00645	0,387
17,7	-0,00645	0,3885
17,75	-0,0066	0,387
17,8	-0,0063	0,387
17,85	-0,00675	0,3855
17,9	-0,0066	0,387
17,95	-0,0063	0,387
18	-0,0063	0,3885
18,05	-0,00645	0,3885
18,1	-0,0063	0,39
18,15	-0,0066	0,387
18,2	-0,00645	0,39
18,25	-0,0063	0,39
18,3	-0,0063	0,3945
18,35	-0,00645	0,3915
18,4	-0,00645	0,39
18,45	-0,0063	0,387
18,5	-0,00645	0,39
18,55	-0,0066	0,3885
18,6	-0,0063	0,3945
18,65	-0,00615	0,39
18,7	-0,00645	0,3915
18,75	-0,00645	0,3885
18,8	-0,0063	0,393
18,85	-0,0063	0,39
18,9	-0,0063	0,3915
18,95	-0,0063	0,3915
19	-0,00645	0,393
19,05	-0,00645	0,3915
19,1	-0,0066	0,39
19,15	-0,00645	0,387
19,2	-0,00615	0,3885
19,25	-0,0063	0,3855
19,3	-0,00645	0,387
19,35	-0,0066	0,387
19,4	-0,0066	0,387
19,45	-0,00645	0,3855
19,5	-0,0063	0,3855
19,55	-0,0063	0,3855
19,6	-0,00645	0,387
19,65	-0,0063	0,3855
19,7	-0,0063	0,3855
19,75	-0,00645	0,3855
19,8	-0,0063	0,387
19,85	-0,00645	0,387
19,9	-0,0063	0,387
19,95	-0,00645	0,384
20	-0,00645	0,384
20,05	-0,00645	0,3855
20,1	-0,00645	0,384
20,15	-0,00645	0,384
20,2	-0,00615	0,3855
20,25	-0,00615	0,387
20,3	-0,0066	0,3855
20,35	-0,0063	0,387
20,4	-0,00645	0,3855
20,45	-0,0063	0,384
20,5	-0,006	0,387
20,55	-0,00645	0,387
20,6	-0,0063	0,3885
20,65	-0,0063	0,3885
20,7	-0,0063	0,387
20,75	-0,00645	0,3855
20,8	-0,00615	0,387
20,85	-0,0063	0,39
20,9	-0,00645	0,387
20,95	-0,0063	0,3885
21	-0,0063	0,3855
21,05	-0,0063	0,39
21,1	-0,0063	0,3855
21,15	-0,00645	0,39
21,2	-0,0063	0,3885
21,25	-0,00645	0,387
21,3	-0,0063	0,387
21,35	-0,00675	0,384
21,4	-0,0066	0,384
21,45	-0,0066	0,384
21,5	-0,00645	0,384
21,55	-0,00645	0,384
21,6	-0,00645	0,384
21,65	-0,0063	0,3855
21,7	-0,006	0,384
21,75	-0,0066	0,3825
21,8	-0,0063	0,381
21,85	-0,00615	0,3855
21,9	-0,0063	0,3855
21,95	-0,00645	0,3855
22	-0,0063	0,384
22,05	-0,00645	0,387
22,1	-0,0063	0,3855
22,15	-0,0063	0,3885
22,2	-0,00645	0,3885
22,25	-0,0063	0,3885
22,3	-0,00615	0,387
22,35	-0,0063	0,3855
22,4	-0,00615	0,3825
22,45	-0,00615	0,384
22,5	-0,0063	0,3825
22,55	-0,00645	0,3825
22,6	-0,0063	0,3825
22,65	-0,0063	0,384
22,7	-0,0063	0,384
22,75	-0,0063	0,384
22,8	-0,00645	0,384
22,85	-0,0063	0,384
22,9	-0,0063	0,384
22,95	-0,0063	0,3825
23	-0,0063	0,384
23,05	-0,00645	0,3825
23,1	-0,00645	0,3825
23,15	-0,0063	0,3825
23,2	-0,00645	0,3825
23,25	-0,0066	0,384
23,3	-0,0063	0,384
23,35	-0,0063	0,3855
23,4	-0,0063	0,3855
23,45	-0,0063	0,3855
23,5	-0,0063	0,381
23,55	-0,0063	0,3825
23,6	-0,00615	0,381
23,65	-0,00615	0,3825
23,7	-0,00615	0,384
23,75	-0,00645	0,3825
23,8	-0,0063	0,3825
23,85	-0,0066	0,3825
23,9	-0,0066	0,3825
23,95	-0,0066	0,3825
24	-0,0063	0,384
24,05	-0,00645	0,387
24,1	-0,0063	0,384
24,15	-0,00585	0,3855
24,2	-0,0063	0,384
24,25	-0,00555	0,3825
24,3	-0,0063	0,3825
24,35	-0,0057	0,381
24,4	-0,00645	0,381
24,45	-0,0057	0,3825
24,5	-0,0063	0,3855
24,55	-0,006	0,384
24,6	-0,0063	0,384
24,65	-0,006	0,384
24,7	-0,00615	0,3855
24,75	-0,00615	0,387
24,8	-0,0063	0,3855
24,85	-0,00645	0,3855
24,9	-0,0066	0,3855
24,95	-0,00615	0,3855
25	-0,00645	0,3855
25,05	-0,0063	0,3825
25,1	-0,0063	0,381
25,15	-0,00615	0,3795
25,2	-0,00645	0,3795
25,25	-0,0063	0,381
25,3	-0,00615	0,381
25,35	-0,0063	0,3825
25,4	-0,00645	0,381
25,45	-0,00615	0,3825
25,5	-0,0063	0,3825
25,55	-0,00615	0,384
25,6	-0,0063	0,3825
25,65	-0,00645	0,3855
25,7	-0,0063	0,384
25,75	-0,00645	0,3855
25,8	-0,0063	0,381
25,85	-0,00615	0,3825
25,9	-0,00615	0,381
25,95	-0,0063	0,3855
26	-0,0063	0,384
26,05	-0,0063	0,3825
26,1	-0,0063	0,381
26,15	-0,0063	0,3825
26,2	-0,0063	0,381
26,25	-0,0063	0,381
26,3	-0,0063	0,3795
26,35	-0,00615	0,381
26,4	-0,0063	0,3825
26,45	-0,00645	0,3795
26,5	-0,00615	0,3825
26,55	-0,0063	0,3825
26,6	-0,0063	0,3825
26,65	-0,0063	0,384
26,7	-0,00615	0,381
26,75	-0,0063	0,381
26,8	-0,0063	0,3795
26,85	-0,0063	0,381
26,9	-0,0063	0,3795
26,95	-0,00645	0,3795
27	-0,006	0,381
27,05	-0,00615	0,3825
27,1	-0,00615	0,3825
27,15	-0,00645	0,384
27,2	-0,0063	0,3825
27,25	-0,00645	0,381
27,3	-0,0063	0,378
27,35	-0,00645	0,381
27,4	-0,0063	0,381
27,45	-0,00645	0,381
27,5	-0,00645	0,3795
27,55	-0,0063	0,3795
27,6	-0,00615	0,3795
27,65	-0,0063	0,384
27,7	-0,0063	0,384
27,75	-0,0063	0,384
27,8	-0,0063	0,384
27,85	-0,0063	0,381
27,9	-0,0063	0,381
27,95	-0,0063	0,3795
28	-0,00615	0,3795
28,05	-0,0066	0,378
28,1	-0,00615	0,3795
28,15	-0,00645	0,381
28,2	-0,0063	0,3825
28,25	-0,00615	0,384
28,3	-0,00645	0,3825
28,35	-0,00645	0,3825
28,4	-0,0063	0,3825
28,45	-0,0063	0,381
28,5	-0,0063	0,3795
28,55	-0,0063	0,3795
28,6	-0,00615	0,3795
28,65	-0,0063	0,3795
28,7	-0,00645	0,3795
28,75	-0,00615	0,384
28,8	-0,00615	0,381
28,85	-0,0063	0,381
28,9	-0,00615	0,3795
28,95	-0,0063	0,378
29	-0,00615	0,3795
29,05	-0,0063	0,3825
29,1	-0,00615	0,381
29,15	-0,00615	0,3825
29,2	-0,0063	0,381
29,25	-0,0063	0,378
29,3	-0,00645	0,3795
29,35	-0,00645	0,3795
29,4	-0,0063	0,378
29,45	-0,00615	0,3795
29,5	-0,0063	0,3795
29,55	-0,00615	0,384
29,6	-0,0063	0,3825
29,65	-0,00645	0,384
29,7	-0,0063	0,3825
29,75	-0,0063	0,3795
29,8	-0,00615	0,378
29,85	-0,00645	0,378
29,9	-0,0063	0,378
29,95	-0,0063	0,3795
30	-0,0063	0,378
30,05	-0,00615	0,384
30,1	-0,00615	0,3825
30,15	-0,006	0,384
30,2	-0,00615	0,3825
30,25	-0,00645	0,378
30,3	-0,00645	0,3795
30,35	-0,0063	0,3795
30,4	-0,0063	0,3795
30,45	-0,006	0,3795
30,5	-0,0063	0,378
30,55	-0,0063	0,378
30,6	-0,00615	0,3795
30,65	-0,00615	0,378
30,7	-0,006	0,3795
30,75	-0,006	0,3825
30,8	-0,0063	0,3795
30,85	-0,006	0,381
30,9	-0,0063	0,381
30,95	-0,006	0,3795
31	-0,0063	0,381
31,05	-0,0063	0,378
31,1	-0,0063	0,3795
31,15	-0,0063	0,378
31,2	-0,006	0,3765
31,25	-0,00615	0,3765
31,3	-0,00615	0,378
31,35	-0,0063	0,378
31,4	-0,006	0,378
31,45	-0,006	0,3795
31,5	-0,006	0,378
31,55	-0,00615	0,378
31,6	-0,00585	0,378
31,65	-0,006	0,3765
31,7	-0,0063	0,378
31,75	-0,006	0,378
31,8	-0,0063	0,3765
31,85	-0,006	0,3765
31,9	-0,006	0,3795
31,95	-0,006	0,3765
32	-0,006	0,3795
32,05	-0,0063	0,3825
32,1	-0,006	0,3795
32,15	-0,006	0,378
32,2	-0,00615	0,3795
32,25	-0,00645	0,378
32,3	-0,00615	0,378
32,35	-0,0063	0,3765
32,4	-0,00615	0,378
32,45	-0,0063	0,3765
32,5	-0,00615	0,378
32,55	-0,0063	0,378
32,6	-0,006	0,378
32,65	-0,0063	0,381
32,7	-0,00615	0,3765
32,75	-0,006	0,3825
32,8	-0,006	0,378
32,85	-0,006	0,381
32,9	-0,006	0,378
32,95	-0,00645	0,3795
33	-0,00615	0,3765
33,05	-0,00615	0,378
33,1	-0,0063	0,375
33,15	-0,006	0,378
33,2	-0,0063	0,375
33,25	-0,006	0,3765
33,3	-0,006	0,3765
33,35	-0,006	0,3795
33,4	-0,006	0,3765
33,45	-0,00585	0,378
33,5	-0,0063	0,3765
33,55	-0,006	0,381
33,6	-0,00585	0,3795
33,65	-0,00615	0,384
33,7	-0,0063	0,381
33,75	-0,00615	0,378
33,8	-0,00615	0,3765
33,85	-0,006	0,378
33,9	-0,0063	0,3765
33,95	-0,00555	0,3765
34	-0,0063	0,3765
34,05	-0,0054	0,3765
34,1	-0,00615	0,375
34,15	-0,0057	0,3765
34,2	-0,0063	0,378
34,25	-0,006	0,375
34,3	-0,006	0,375
34,35	-0,00645	0,3765
34,4	-0,00615	0,3765
34,45	-0,0063	0,375
34,5	-0,00615	0,375
34,55	-0,00615	0,3765
34,6	-0,0063	0,3765
34,65	-0,00585	0,3765
34,7	-0,0063	0,3765
34,75	-0,00585	0,3765
34,8	-0,0063	0,375
34,85	-0,00615	0,3765
34,9	-0,00615	0,375
34,95	-0,0063	0,3765
35	-0,00585	0,375
35,05	-0,00615	0,375
35,1	-0,006	0,3765
35,15	-0,00615	0,375
35,2	-0,0063	0,3765
35,25	-0,00615	0,3765
35,3	-0,00585	0,375
35,35	-0,006	0,378
35,4	-0,00615	0,378
35,45	-0,00615	0,378
35,5	-0,00615	0,3765
35,55	-0,00615	0,375
35,6	-0,006	0,375
35,65	-0,006	0,375
35,7	-0,006	0,3765
35,75	-0,00615	0,375
35,8	-0,00615	0,375
35,85	-0,00585	0,378
35,9	-0,00585	0,378
35,95	-0,00585	0,381
36	-0,00615	0,378
36,05	-0,006	0,378
36,1	-0,006	0,3795
36,15	-0,006	0,3795
36,2	-0,00615	0,378
36,25	-0,006	0,3795
36,3	-0,006	0,378
36,35	-0,00585	0,3795
36,4	-0,006	0,378
36,45	-0,00585	0,3765
36,5	-0,00585	0,378
36,55	-0,00585	0,378
36,6	-0,0063	0,378
36,65	-0,00615	0,375
36,7	-0,006	0,3765
36,75	-0,006	0,375
36,8	-0,006	0,378
36,85	-0,00585	0,3765
36,9	-0,00615	0,3795
36,95	-0,006	0,3765
37	-0,006	0,3795
37,05	-0,006	0,378
37,1	-0,006	0,3795
37,15	-0,006	0,3765
37,2	-0,006	0,381
37,25	-0,006	0,378
37,3	-0,00585	0,384
37,35	-0,00615	0,3795
37,4	-0,006	0,3825
37,45	-0,00615	0,381
37,5	-0,00585	0,3855
37,55	-0,00585	0,3825
37,6	-0,006	0,3825
37,65	-0,00615	0,3765
37,7	-0,0063	0,381
37,75	-0,006	0,381
37,8	-0,006	0,3795
37,85	-0,00615	0,3765
37,9	-0,0063	0,3765
37,95	-0,00615	0,378
38	-0,00615	0,378
38,05	-0,006	0,3795
38,1	-0,006	0,378
38,15	-0,006	0,3765
38,2	-0,006	0,381
38,25	-0,00585	0,3825
38,3	-0,00615	0,3825
38,35	-0,00615	0,384
38,4	-0,00615	0,387
38,45	-0,00615	0,378
38,5	-0,00615	0,3795
38,55	-0,0063	0,375
38,6	-0,006	0,3765
38,65	-0,006	0,375
38,7	-0,00615	0,3795
38,75	-0,00615	0,375
38,8	-0,006	0,378
38,85	-0,00585	0,3765
38,9	-0,0063	0,375
38,95	-0,0063	0,3765
39	-0,00615	0,3765
39,05	-0,006	0,375
39,1	-0,006	0,375
39,15	-0,00615	0,3765
39,2	-0,00615	0,375
39,25	-0,006	0,375
39,3	-0,0063	0,378
39,35	-0,00615	0,378
39,4	-0,0063	0,387
39,45	-0,00615	0,3795
39,5	-0,00615	0,3885
39,55	-0,00615	0,3795
39,6	-0,00615	0,387
39,65	-0,006	0,378
39,7	-0,006	0,387
39,75	-0,0063	0,378
39,8	-0,00615	0,384
39,85	-0,00615	0,378
39,9	-0,006	0,3825
39,95	-0,006	0,3765
40	-0,006	0,381
40,05	-0,00615	0,375
40,1	-0,006	0,378
40,15	-0,00615	0,375
40,2	-0,00585	0,3765
40,25	-0,0063	0,375
40,3	-0,00615	0,3765
40,35	-0,0063	0,3735
40,4	-0,00615	0,378
40,45	-0,00615	0,378
40,5	-0,0063	0,381
40,55	-0,00615	0,375
40,6	-0,00615	0,375
40,65	-0,00615	0,375
40,7	-0,00615	0,375
40,75	-0,006	0,3735
40,8	-0,0063	0,3765
40,85	-0,00615	0,3765
40,9	-0,00615	0,3765
40,95	-0,006	0,3765
41	-0,00615	0,3765
41,05	-0,00585	0,3765
41,1	-0,006	0,378
41,15	-0,00585	0,3765
41,2	-0,00615	0,378
41,25	-0,006	0,3735
41,3	-0,00585	0,3765
41,35	-0,006	0,375
41,4	-0,00585	0,3765
41,45	-0,00585	0,378
41,5	-0,00585	0,381
41,55	-0,00585	0,3825
41,6	-0,0063	0,387
41,65	-0,00615	0,378
41,7	-0,006	0,3825
41,75	-0,00615	0,3765
41,8	-0,00615	0,384
41,85	-0,0063	0,378
41,9	-0,0063	0,3825
41,95	-0,00615	0,381
42	-0,0057	0,3855
42,05	-0,006	0,3825
42,1	-0,006	0,387
42,15	-0,006	0,378
42,2	-0,0057	0,3795
42,25	-0,00615	0,3735
42,3	-0,006	0,3735
42,35	-0,006	0,3735
42,4	-0,00615	0,375
42,45	-0,00585	0,3735
42,5	-0,00615	0,375
42,55	-0,006	0,3735
42,6	-0,006	0,372
42,65	-0,006	0,3735
42,7	-0,006	0,3735
42,75	-0,00585	0,375
42,8	-0,00585	0,375
42,85	-0,00585	0,378
42,9	-0,006	0,3765
42,95	-0,0057	0,3765
43	-0,0057	0,375
43,05	-0,00615	0,378
43,1	-0,006	0,378
43,15	-0,006	0,381
43,2	-0,006	0,3825
43,25	-0,006	0,3765
43,3	-0,006	0,3795
43,35	-0,006	0,372
43,4	-0,00585	0,3735
43,45	-0,00585	0,372
43,5	-0,00615	0,375
43,55	-0,00585	0,3735
43,6	-0,00585	0,3765
43,65	-0,006	0,3825
43,7	-0,006	0,3825
43,75	-0,006	0,3735
43,8	-0,00615	0,372
43,85	-0,006	0,372
43,9	-0,00585	0,3735
43,95	-0,006	0,372
44	-0,0057	0,3765
44,05	-0,006	0,3795
44,1	-0,006	0,381
44,15	-0,00615	0,3765
44,2	-0,006	0,378
44,25	-0,0063	0,3735
44,3	-0,00615	0,378
44,35	-0,006	0,375
44,4	-0,0063	0,3735
44,45	-0,006	0,372
44,5	-0,0057	0,3735
44,55	-0,00615	0,3735
44,6	-0,006	0,375
44,65	-0,006	0,381
44,7	-0,00585	0,378
44,75	-0,00615	0,381
44,8	-0,006	0,381
44,85	-0,006	0,3795
44,9	-0,006	0,3795
44,95	-0,00615	0,375
45	-0,00615	0,375
45,05	-0,006	0,372
45,1	-0,006	0,3705
45,15	-0,00585	0,372
45,2	-0,006	0,372
45,25	-0,006	0,3735
45,3	-0,00615	0,372
45,35	-0,00585	0,372
45,4	-0,00615	0,372
45,45	-0,00615	0,3735
45,5	-0,006	0,372
45,55	-0,00585	0,372
45,6	-0,006	0,3735
45,65	-0,006	0,372
45,7	-0,006	0,378
45,75	-0,006	0,375
45,8	-0,006	0,3765
45,85	-0,00645	0,375
45,9	-0,00615	0,378
45,95	-0,00615	0,3735
46	-0,006	0,3735
46,05	-0,00615	0,3705
46,1	-0,0057	0,3735
46,15	-0,006	0,3705
46,2	-0,006	0,3705
46,25	-0,00615	0,3705
46,3	-0,00585	0,372
46,35	-0,006	0,3705
46,4	-0,00585	0,3735
46,45	-0,0063	0,3705
46,5	-0,00585	0,372
46,55	-0,006	0,372
46,6	-0,0057	0,3735
46,65	-0,00615	0,372
46,7	-0,0057	0,3735
46,75	-0,006	0,3765
46,8	-0,0057	0,3735
46,85	-0,006	0,3735
46,9	-0,0057	0,372
46,95	-0,00585	0,375
47	-0,00585	0,375
47,05	-0,00585	0,375
47,1	-0,006	0,372
47,15	-0,00585	0,3735
47,2	-0,006	0,3735
47,25	-0,00615	0,375
47,3	-0,00615	0,3735
47,35	-0,00615	0,3795
47,4	-0,006	0,3735
47,45	-0,0057	0,3765
47,5	-0,00615	0,3735
47,55	-0,006	0,378
47,6	-0,00585	0,3735
47,65	-0,00585	0,3765
47,7	-0,00585	0,3735
47,75	-0,00615	0,375
47,8	-0,00615	0,3735
47,85	-0,006	0,378
47,9	-0,00585	0,3735
47,95	-0,006	0,381
48	-0,00585	0,3765
48,05	-0,00585	0,3765
48,1	-0,00585	0,3795
48,15	-0,006	0,381
48,2	-0,006	0,375
48,25	-0,00615	0,378
48,3	-0,006	0,3765
48,35	-0,00615	0,3735
48,4	-0,00585	0,3735
48,45	-0,0057	0,3735
48,5	-0,00585	0,3705
48,55	-0,006	0,3735
48,6	-0,006	0,369
48,65	-0,00585	0,372
48,7	-0,006	0,3705
48,75	-0,00585	0,372
48,8	-0,00585	0,3705
48,85	-0,00585	0,3735
48,9	-0,00615	0,372
48,95	-0,00585	0,372
49	-0,006	0,3705
49,05	-0,006	0,3705
49,1	-0,00585	0,372
49,15	-0,00585	0,3705
49,2	-0,00585	0,372
49,25	-0,006	0,372
49,3	-0,006	0,375
49,35	-0,00585	0,375
49,4	-0,00615	0,3795
49,45	-0,00585	0,3735
49,5	-0,00585	0,3705
49,55	-0,006	0,3705
49,6	-0,006	0,3705
49,65	-0,0057	0,3705
49,7	-0,006	0,372
49,75	-0,00585	0,369
49,8	-0,006	0,3705
49,85	-0,00585	0,369
49,9	-0,006	0,372
49,95	-0,006	0,3735
50	-0,006	0,3705
50,05	-0,00585	0,3765
50,1	-0,00585	0,375
50,15	-0,00585	0,375
50,2	-0,006	0,375
50,25	-0,00585	0,372
50,3	-0,006	0,372
50,35	-0,006	0,369
50,4	-0,00585	0,369
50,45	-0,00615	0,3705
50,5	-0,00585	0,3705
50,55	-0,006	0,3705
50,6	-0,00585	0,372
50,65	-0,006	0,375
50,7	-0,00585	0,372
50,75	-0,006	0,369
50,8	-0,00585	0,3705
50,85	-0,00585	0,372
50,9	-0,006	0,369
50,95	-0,00585	0,369
51	-0,0057	0,3675
51,05	-0,0057	0,3705
51,1	-0,00585	0,3705
51,15	-0,006	0,369
51,2	-0,0063	0,369
51,25	-0,0057	0,3705
51,3	-0,006	0,3735
51,35	-0,00585	0,3705
51,4	-0,006	0,375
51,45	-0,00645	0,375
51,5	-0,00585	0,378
51,55	-0,00585	0,3765
51,6	-0,006	0,3735
51,65	-0,006	0,3765
51,7	-0,00615	0,3735
51,75	-0,00585	0,375
51,8	-0,00585	0,372
51,85	-0,0057	0,378
51,9	-0,006	0,375
51,95	-0,00585	0,378
52	-0,0057	0,3735
52,05	-0,0057	0,3795
52,1	-0,00615	0,378
52,15	-0,00585	0,3735
52,2	-0,006	0,372
52,25	-0,00585	0,3705
52,3	-0,006	0,369
52,35	-0,00585	0,369
52,4	-0,00585	0,3675
52,45	-0,00585	0,372
52,5	-0,0057	0,3675
52,55	-0,00585	0,372
52,6	-0,00555	0,372
52,65	-0,00585	0,375
52,7	-0,00585	0,375
52,75	-0,00585	0,375
52,8	-0,00585	0,378
52,85	-0,00585	0,3735
52,9	-0,0057	0,372
52,95	-0,00585	0,369
53	-0,00585	0,369
53,05	-0,0057	0,369
53,1	-0,0057	0,3705
53,15	-0,0057	0,3705
53,2	-0,006	0,372
53,25	-0,00585	0,3765
53,3	-0,006	0,3765
53,35	-0,00585	0,3705
53,4	-0,00585	0,372
53,45	-0,0057	0,3705
53,5	-0,006	0,369
53,55	-0,006	0,3675
53,6	-0,0057	0,3675
53,65	-0,00585	0,3675
53,7	-0,0057	0,3675
53,75	-0,006	0,369
53,8	-0,006	0,369
53,85	-0,006	0,3675
53,9	-0,0057	0,3675
53,95	-0,0057	0,369
54	-0,00615	0,3675
54,05	-0,006	0,369
54,1	-0,00585	0,3675
54,15	-0,006	0,3705
54,2	-0,00615	0,369
54,25	-0,00585	0,3765
54,3	-0,0057	0,3765
54,35	-0,00585	0,372
54,4	-0,00585	0,375
54,45	-0,006	0,3675
54,5	-0,00585	0,369
54,55	-0,00585	0,366
54,6	-0,00585	0,3675
54,65	-0,006	0,3675
54,7	-0,0057	0,369
54,75	-0,00585	0,369
54,8	-0,00585	0,369
54,85	-0,00585	0,3675
54,9	-0,0057	0,369
54,95	-0,0057	0,3705
55	-0,006	0,369
55,05	-0,00585	0,372
55,1	-0,00585	0,3705
55,15	-0,00585	0,378
55,2	-0,00585	0,3765
55,25	-0,0057	0,375
55,3	-0,00585	0,3765
55,35	-0,00585	0,3735
55,4	-0,006	0,375
55,45	-0,0057	0,369
55,5	-0,006	0,369
55,55	-0,006	0,3675
55,6	-0,00585	0,369
55,65	-0,00585	0,369
55,7	-0,0057	0,3675
55,75	-0,0057	0,369
55,8	-0,0057	0,366
55,85	-0,00585	0,3675
55,9	-0,006	0,3675
55,95	-0,00585	0,372
56	-0,0057	0,372
56,05	-0,00555	0,375
56,1	-0,006	0,375
56,15	-0,00585	0,372
56,2	-0,006	0,372
56,25	-0,0057	0,369
56,3	-0,006	0,366
56,35	-0,00585	0,369
56,4	-0,006	0,366
56,45	-0,00585	0,3675
56,5	-0,006	0,366
56,55	-0,0057	0,372
56,6	-0,006	0,3675
56,65	-0,0057	0,3765
56,7	-0,006	0,375
56,75	-0,00585	0,372
56,8	-0,006	0,369
56,85	-0,00585	0,3675
56,9	-0,0057	0,366
56,95	-0,006	0,3675
57	-0,00585	0,366
57,05	-0,00585	0,369
57,1	-0,00585	0,369
57,15	-0,00585	0,3735
57,2	-0,00585	0,369
57,25	-0,0057	0,3735
57,3	-0,00585	0,372
57,35	-0,00585	0,3735
57,4	-0,0057	0,375
57,45	-0,00585	0,366
57,5	-0,00555	0,3675
57,55	-0,00585	0,3645
57,6	-0,0057	0,3675
57,65	-0,0057	0,3675
57,7	-0,0057	0,3705
57,75	-0,0057	0,375
57,8	-0,0057	0,372
57,85	-0,006	0,3705
57,9	-0,006	0,3675
57,95	-0,00585	0,366
58	-0,0057	0,369
58,05	-0,00555	0,372
58,1	-0,006	0,372
58,15	-0,0057	0,366
58,2	-0,006	0,3645
58,25	-0,00555	0,366
58,3	-0,00585	0,3675
58,35	-0,0057	0,372
58,4	-0,00585	0,3705
58,45	-0,0057	0,366
58,5	-0,00585	0,366
58,55	-0,00555	0,369
58,6	-0,0057	0,372
58,65	-0,00585	0,366
58,7	-0,0057	0,366
58,75	-0,0057	0,369
58,8	-0,00585	0,3735
58,85	-0,0057	0,3675
58,9	-0,006	0,366
58,95	-0,006	0,366
59	-0,00585	0,3645
59,05	-0,0054	0,369
59,1	-0,0057	0,369
59,15	-0,00585	0,372
59,2	-0,006	0,3675
59,25	-0,0057	0,366
59,3	-0,006	0,363
59,35	-0,0057	0,366
59,4	-0,00585	0,3645
59,45	-0,0057	0,3675
59,5	-0,0057	0,3675
59,55	-0,00585	0,372
59,6	-0,006	0,369
59,65	-0,0057	0,372
59,7	-0,00585	0,3705
59,75	-0,00585	0,375
59,8	-0,0057	0,369
59,85	-0,0057	0,375
59,9	-0,00585	0,372
59,95	-0,0057	0,372
60	-0,0057	0,372
60,05	-0,0057	0,372
60,1	-0,00585	0,372
60,15	-0,00585	0,3705
60,2	-0,006	0,3675
60,25	-0,0057	0,366
60,3	-0,00585	0,3645
60,35	-0,0057	0,366
60,4	-0,00585	0,369
60,45	-0,0057	0,366
60,5	-0,0057	0,3705
60,55	-0,0057	0,366
60,6	-0,006	0,366
60,65	-0,00555	0,3645
60,7	-0,00585	0,366
60,75	-0,0057	0,3645
60,8	-0,00555	0,3645
60,85	-0,00585	0,3645
60,9	-0,0057	0,3675
60,95	-0,0057	0,366
61	-0,0057	0,3645
61,05	-0,006	0,3645
61,1	-0,00585	0,3645
61,15	-0,00585	0,3645
61,2	-0,0057	0,3645
61,25	-0,006	0,366
61,3	-0,00585	0,3645
61,35	-0,0057	0,366
61,4	-0,00585	0,3645
61,45	-0,0057	0,3705
61,5	-0,0057	0,369
61,55	-0,0057	0,372
61,6	-0,00555	0,372
61,65	-0,006	0,3675
61,7	-0,00555	0,3675
61,75	-0,0057	0,363
61,8	-0,0057	0,366
61,85	-0,006	0,363
61,9	-0,00555	0,3645
61,95	-0,0057	0,3645
62	-0,00555	0,366
62,05	-0,0057	0,366
62,1	-0,0057	0,3645
62,15	-0,0057	0,3645
62,2	-0,0057	0,363
62,25	-0,0057	0,3675
62,3	-0,006	0,3645
62,35	-0,00555	0,3675
62,4	-0,0054	0,3735
62,45	-0,0057	0,369
62,5	-0,00585	0,3675
62,55	-0,00585	0,3675
62,6	-0,0057	0,369
62,65	-0,00585	0,3675
62,7	-0,00585	0,372
62,75	-0,0057	0,3705
62,8	-0,0057	0,3735
62,85	-0,0057	0,372
62,9	-0,0057	0,3705
62,95	-0,00585	0,366
63	-0,00585	0,363
63,05	-0,00555	0,366
63,1	-0,00585	0,363
63,15	-0,00555	0,3645
63,2	-0,0057	0,363
63,25	-0,0054	0,366
63,3	-0,0057	0,3645
63,35	-0,00555	0,3705
63,4	-0,0057	0,3675
63,45	-0,00585	0,3705
63,5	-0,00585	0,369
63,55	-0,00585	0,369
63,6	-0,006	0,3675
63,65	-0,00585	0,3645
63,7	-0,0057	0,3675
63,75	-0,0057	0,363
63,8	-0,0057	0,363
63,85	-0,00555	0,3645
63,9	-0,0057	0,363
63,95	-0,00555	0,3645
64	-0,00585	0,363
64,05	-0,00555	0,3675
64,1	-0,0057	0,3705
64,15	-0,0057	0,3675
64,2	-0,00555	0,366
64,25	-0,0057	0,363
64,3	-0,0057	0,363
64,35	-0,0057	0,363
64,4	-0,0057	0,363
64,45	-0,0057	0,3675
64,5	-0,00585	0,3675
64,55	-0,0054	0,369
64,6	-0,00555	0,366
64,65	-0,00555	0,366
64,7	-0,00555	0,366
64,75	-0,00555	0,3705
64,8	-0,00585	0,369
64,85	-0,00555	0,372
64,9	-0,00555	0,369
64,95	-0,00555	0,372
65	-0,0057	0,3705
65,05	-0,00555	0,372
65,1	-0,00585	0,369
65,15	-0,0057	0,366
65,2	-0,00585	0,363
65,25	-0,00585	0,363
65,3	-0,0057	0,3645
65,35	-0,00585	0,363
65,4	-0,0057	0,3615
65,45	-0,00555	0,366
65,5	-0,0054	0,366
65,55	-0,0054	0,372
65,6	-0,00585	0,372
65,65	-0,0054	0,3675
65,7	-0,00585	0,366
65,75	-0,00555	0,3645
65,8	-0,00555	0,3615
65,85	-0,0057	0,3645
65,9	-0,00555	0,363
65,95	-0,0057	0,3675
66	-0,00555	0,363
66,05	-0,00555	0,369
66,1	-0,00585	0,369
66,15	-0,00585	0,3705
66,2	-0,0057	0,3675
66,25	-0,00585	0,3645
66,3	-0,0054	0,366
66,35	-0,00585	0,363
66,4	-0,0054	0,363
66,45	-0,0057	0,3615
66,5	-0,0057	0,363
66,55	-0,00585	0,363
66,6	-0,0057	0,363
66,65	-0,0057	0,366
66,7	-0,00555	0,3675
66,75	-0,00585	0,3705
66,8	-0,00555	0,372
66,85	-0,00585	0,372
66,9	-0,00555	0,372
66,95	-0,00555	0,3675
67	-0,006	0,3645
67,05	-0,00555	0,3645
67,1	-0,0057	0,363
67,15	-0,00585	0,366
67,2	-0,00555	0,363
67,25	-0,00555	0,369
67,3	-0,00555	0,3705
67,35	-0,0057	0,372
67,4	-0,0057	0,3645
67,45	-0,0057	0,3615
67,5	-0,0057	0,363
67,55	-0,0054	0,3645
67,6	-0,0057	0,3645
67,65	-0,00585	0,375
67,7	-0,0057	0,366
67,75	-0,0057	0,3675
67,8	-0,0057	0,363
67,85	-0,0057	0,363
67,9	-0,00585	0,36
67,95	-0,00555	0,3645
68	-0,00585	0,363
68,05	-0,0057	0,3705
68,1	-0,0057	0,3645
68,15	-0,00555	0,375
68,2	-0,0057	0,369
68,25	-0,00555	0,3765
68,3	-0,00555	0,369
68,35	-0,00555	0,3675
68,4	-0,00555	0,366
68,45	-0,0057	0,3645
68,5	-0,0057	0,366
68,55	-0,00555	0,363
68,6	-0,0057	0,363
68,65	-0,00585	0,363
68,7	-0,0054	0,3615
68,75	-0,0057	0,363
68,8	-0,00555	0,363
68,85	-0,0054	0,366
68,9	-0,00555	0,363
68,95	-0,0057	0,372
69	-0,00555	0,366
69,05	-0,00585	0,375
69,1	-0,0057	0,366
69,15	-0,0057	0,3705
69,2	-0,00555	0,363
69,25	-0,00555	0,3645
69,3	-0,00555	0,36
69,35	-0,0057	0,363
69,4	-0,00555	0,36
69,45	-0,0057	0,3675
69,5	-0,0054	0,3705
69,55	-0,00585	0,369
69,6	-0,0057	0,366
69,65	-0,0057	0,363
69,7	-0,00555	0,36
69,75	-0,0057	0,3615
69,8	-0,0054	0,36
69,85	-0,0057	0,366
69,9	-0,0054	0,3675
69,95	-0,0057	0,3735
70	-0,0057	0,3645
70,05	-0,0057	0,36
70,1	-0,00555	0,3615
70,15	-0,0054	0,3645
70,2	-0,0057	0,3675
70,25	-0,0057	0,3705
70,3	-0,0057	0,3615
70,35	-0,00555	0,363
70,4	-0,00555	0,3615
70,45	-0,00555	0,3675
70,5	-0,00555	0,3705
70,55	-0,00525	0,3645
70,6	-0,00555	0,363
70,65	-0,0057	0,36
70,7	-0,00555	0,3615
70,75	-0,0054	0,363
70,8	-0,0057	0,3645
70,85	-0,00555	0,3705
70,9	-0,0057	0,366
70,95	-0,00555	0,3615
71	-0,0057	0,36
71,05	-0,00555	0,363
71,1	-0,00555	0,36
71,15	-0,0054	0,3675
71,2	-0,0057	0,363
71,25	-0,0057	0,36
71,3	-0,00555	0,36
71,35	-0,00555	0,3585
71,4	-0,0057	0,363
71,45	-0,0057	0,3615
71,5	-0,00585	0,3585
71,55	-0,00555	0,357
71,6	-0,0057	0,36
71,65	-0,0054	0,3615
71,7	-0,0057	0,36
71,75	-0,00555	0,3585
71,8	-0,0057	0,3585
71,85	-0,00555	0,3585
71,9	-0,00555	0,36
71,95	-0,0054	0,3585
72	-0,0054	0,3585
72,05	-0,00555	0,357
72,1	-0,0057	0,357
72,15	-0,0054	0,357
72,2	-0,00555	0,3585
72,25	-0,0057	0,357
72,3	-0,00525	0,357
72,35	-0,00555	0,3585
72,4	-0,0054	0,357
72,45	-0,00555	0,3585
72,5	-0,0057	0,357
72,55	-0,0054	0,357
72,6	-0,0057	0,357
72,65	-0,0057	0,357
72,7	-0,0054	0,357
72,75	-0,0057	0,3555
72,8	-0,0054	0,357
72,85	-0,00555	0,3585
72,9	-0,0054	0,357
72,95	-0,0054	0,357
73	-0,0054	0,3585
73,05	-0,00525	0,3585
73,1	-0,0054	0,357
73,15	-0,00555	0,357
73,2	-0,0057	0,357
73,25	-0,0054	0,3585
73,3	-0,00555	0,36
73,35	-0,00555	0,36
73,4	-0,00555	0,36
73,45	-0,0054	0,36
73,5	-0,00555	0,363
73,55	-0,00555	0,3585
73,6	-0,00555	0,3585
73,65	-0,0051	0,357
73,7	-0,0054	0,36
73,75	-0,00555	0,3585
73,8	-0,0054	0,357
73,85	-0,00555	0,357
73,9	-0,00555	0,3555
73,95	-0,0054	0,357
74	-0,0057	0,357
74,05	-0,00555	0,36
74,1	-0,0057	0,3615
74,15	-0,00555	0,357
74,2	-0,00555	0,357
74,25	-0,0054	0,357
74,3	-0,00555	0,3585
74,35	-0,0057	0,36
74,4	-0,00555	0,3615
74,45	-0,0057	0,357
74,5	-0,00555	0,357
74,55	-0,00555	0,3555
74,6	-0,00555	0,3585
74,65	-0,00555	0,357
74,7	-0,00555	0,357
74,75	-0,00555	0,3585
74,8	-0,00555	0,36
74,85	-0,00555	0,36
74,9	-0,00555	0,3585
74,95	-0,0054	0,357
75	-0,0054	0,357
75,05	-0,00555	0,357
75,1	-0,00555	0,357
75,15	-0,00555	0,3555
75,2	-0,0054	0,357
75,25	-0,00525	0,36
75,3	-0,0057	0,36
75,35	-0,00555	0,3585
75,4	-0,0057	0,357
75,45	-0,00525	0,357
75,5	-0,00555	0,3555
75,55	-0,00525	0,3555
75,6	-0,00555	0,3555
75,65	-0,0051	0,3555
75,7	-0,00525	0,36
75,75	-0,0057	0,357
75,8	-0,00525	0,36
75,85	-0,0054	0,36
75,9	-0,00555	0,36
75,95	-0,00525	0,357
76	-0,00555	0,357
76,05	-0,0054	0,3555
76,1	-0,0057	0,3555
76,15	-0,00525	0,3555
76,2	-0,0054	0,357
76,25	-0,0054	0,357
76,3	-0,0054	0,3555
76,35	-0,0054	0,357
76,4	-0,0054	0,36
76,45	-0,0054	0,3585
76,5	-0,0057	0,357
76,55	-0,0054	0,3585
76,6	-0,00525	0,3555
76,65	-0,0054	0,354
76,7	-0,0057	0,3555
76,75	-0,0054	0,3555
76,8	-0,0054	0,357
76,85	-0,0054	0,357
76,9	-0,00555	0,36
76,95	-0,0054	0,3585
77	-0,0054	0,36
77,05	-0,00555	0,3585
77,1	-0,0057	0,3585
77,15	-0,00555	0,3555
77,2	-0,0054	0,36
77,25	-0,0054	0,3585
77,3	-0,00555	0,354
77,35	-0,00555	0,3555
77,4	-0,0054	0,3555
77,45	-0,0054	0,3555
77,5	-0,00555	0,3555
77,55	-0,0054	0,354
77,6	-0,00555	0,354
77,65	-0,00555	0,354
77,7	-0,0054	0,357
77,75	-0,00525	0,3555
77,8	-0,0054	0,3585
77,85	-0,0051	0,3585
77,9	-0,0054	0,36
77,95	-0,0054	0,3585
78	-0,0054	0,3615
78,05	-0,00555	0,3585
78,1	-0,00555	0,357
78,15	-0,0054	0,357
78,2	-0,00525	0,354
78,25	-0,0054	0,354
78,3	-0,0054	0,3555
78,35	-0,0054	0,3555
78,4	-0,00555	0,3555
78,45	-0,00525	0,3555
78,5	-0,00555	0,354
78,55	-0,00525	0,354
78,6	-0,00555	0,354
78,65	-0,0054	0,354
78,7	-0,00525	0,3555
78,75	-0,0054	0,3555
78,8	-0,00525	0,3585
78,85	-0,00555	0,357
78,9	-0,0054	0,3585
78,95	-0,00525	0,357
79	-0,0054	0,36
79,05	-0,0057	0,357
79,1	-0,0054	0,3585
79,15	-0,0054	0,3585
79,2	-0,00555	0,36
79,25	-0,0054	0,3585
79,3	-0,00555	0,3585
79,35	-0,00525	0,357
79,4	-0,0057	0,3585
79,45	-0,00555	0,357
79,5	-0,0054	0,3585
79,55	-0,00555	0,3555
79,6	-0,0057	0,357
79,65	-0,0054	0,354
79,7	-0,0054	0,3555
79,75	-0,0057	0,354
79,8	-0,00555	0,3555
79,85	-0,00555	0,354
79,9	-0,00555	0,3555
79,95	-0,0054	0,354
80	-0,0054	0,3555
80,05	-0,00525	0,354
80,1	-0,00555	0,354
80,15	-0,00525	0,354
80,2	-0,00555	0,354
80,25	-0,00555	0,3525
80,3	-0,0057	0,354
80,35	-0,00555	0,3525
80,4	-0,0054	0,354
80,45	-0,0057	0,3555
80,5	-0,00555	0,354
80,55	-0,0054	0,3555
80,6	-0,0057	0,3525
80,65	-0,0054	0,354
80,7	-0,0054	0,3525
80,75	-0,00555	0,3525
80,8	-0,0054	0,354
80,85	-0,00555	0,3525
80,9	-0,0054	0,354
80,95	-0,0054	0,354
81	-0,0054	0,3555
81,05	-0,0054	0,354
81,1	-0,00525	0,357
81,15	-0,00555	0,3555
81,2	-0,00555	0,3555
81,25	-0,0057	0,3555
81,3	-0,0054	0,3555
81,35	-0,00555	0,354
81,4	-0,00555	0,354
81,45	-0,00555	0,354
81,5	-0,00555	0,3525
81,55	-0,00555	0,3525
81,6	-0,0054	0,354
81,65	-0,00555	0,354
81,7	-0,00555	0,3555
81,75	-0,00555	0,351
81,8	-0,0054	0,354
81,85	-0,00555	0,354
81,9	-0,00525	0,357
81,95	-0,00555	0,3555
82	-0,0054	0,354
82,05	-0,0054	0,3525
82,1	-0,00555	0,3525
82,15	-0,0054	0,3525
82,2	-0,0054	0,3555
82,25	-0,00555	0,3525
82,3	-0,0054	0,354
82,35	-0,00555	0,354
82,4	-0,0054	0,3555
82,45	-0,00555	0,354
82,5	-0,0054	0,3555
82,55	-0,00555	0,357
82,6	-0,00555	0,3555
82,65	-0,00555	0,357
82,7	-0,00525	0,3585
82,75	-0,00555	0,3555
82,8	-0,0054	0,357
82,85	-0,0054	0,354
82,9	-0,00555	0,3555
82,95	-0,0054	0,3525
83	-0,0054	0,3555
83,05	-0,0054	0,354
83,1	-0,00525	0,3525
83,15	-0,0054	0,354
83,2	-0,00555	0,354
83,25	-0,0054	0,3555
83,3	-0,0057	0,3555
83,35	-0,0054	0,3555
83,4	-0,0057	0,3525
83,45	-0,0054	0,3525
83,5	-0,0048	0,351
83,55	-0,00525	0,3525
83,6	-0,0051	0,3525
83,65	-0,0054	0,3525
83,7	-0,0057	0,351
83,75	-0,0057	0,351
83,8	-0,00525	0,351
83,85	-0,00585	0,351
83,9	-0,00555	0,354
83,95	-0,00555	0,3525
84	-0,0054	0,3525
84,05	-0,0054	0,3525
84,1	-0,00555	0,3525
84,15	-0,0054	0,354
84,2	-0,00555	0,351
84,25	-0,0054	0,3525
84,3	-0,00555	0,3525
84,35	-0,00555	0,354
84,4	-0,0054	0,3555
84,45	-0,0054	0,3555
84,5	-0,00525	0,357
84,55	-0,0054	0,354
84,6	-0,00525	0,354
84,65	-0,0054	0,3525
84,7	-0,00555	0,351
84,75	-0,00555	0,351
84,8	-0,00525	0,3525
84,85	-0,00555	0,351
84,9	-0,0057	0,3525
84,95	-0,00555	0,351
85	-0,0054	0,3525
85,05	-0,0054	0,354
85,1	-0,0054	0,3555
85,15	-0,0054	0,3555
85,2	-0,0057	0,3555
85,25	-0,00555	0,3525
85,3	-0,0054	0,354
85,35	-0,0057	0,354
85,4	-0,0057	0,351
85,45	-0,00525	0,3525
85,5	-0,00555	0,351
85,55	-0,0054	0,351
85,6	-0,00555	0,351
85,65	-0,00555	0,3525
85,7	-0,0057	0,3525
85,75	-0,0054	0,3525
85,8	-0,0054	0,3525
85,85	-0,0057	0,3525
85,9	-0,00525	0,3525
85,95	-0,00555	0,3525
86	-0,00555	0,351
86,05	-0,0054	0,3525
86,1	-0,0054	0,351
86,15	-0,00525	0,354
86,2	-0,0054	0,351
86,25	-0,0051	0,3555
86,3	-0,0057	0,351
86,35	-0,0054	0,3525
86,4	-0,0057	0,3525
86,45	-0,00555	0,354
86,5	-0,00555	0,354
86,55	-0,0054	0,357
86,6	-0,0054	0,3555
86,65	-0,00555	0,3645
86,7	-0,0054	0,357
86,75	-0,0054	0,3615
86,8	-0,0054	0,357
86,85	-0,00555	0,3615
86,9	-0,0054	0,357
86,95	-0,0054	0,36
87	-0,0054	0,36
87,05	-0,00555	0,366
87,1	-0,0054	0,3585
87,15	-0,00525	0,363
87,2	-0,0054	0,354
87,25	-0,0054	0,3555
87,3	-0,0054	0,3555
87,35	-0,0054	0,354
87,4	-0,00525	0,3555
87,45	-0,00555	0,354
87,5	-0,0054	0,354
87,55	-0,00555	0,354
87,6	-0,00555	0,351
87,65	-0,0054	0,354
87,7	-0,0054	0,351
87,75	-0,0054	0,354
87,8	-0,00525	0,3525
87,85	-0,0054	0,3555
87,9	-0,00555	0,351
87,95	-0,00525	0,3555
88	-0,0054	0,3495
88,05	-0,0054	0,354
88,1	-0,0054	0,354
88,15	-0,00555	0,351
88,2	-0,0054	0,354
88,25	-0,0054	0,354
88,3	-0,0054	0,3525
88,35	-0,00555	0,351
88,4	-0,0054	0,3555
88,45	-0,0054	0,3525
88,5	-0,0054	0,3525
88,55	-0,00555	0,354
88,6	-0,00555	0,351
88,65	-0,00525	0,354
88,7	-0,0054	0,351
88,75	-0,0054	0,354
88,8	-0,0054	0,3525
88,85	-0,00525	0,3585
88,9	-0,00525	0,357
88,95	-0,0054	0,3645
89	-0,0051	0,354
89,05	-0,0054	0,363
89,1	-0,00525	0,3555
89,15	-0,0054	0,3585
89,2	-0,0054	0,3525
89,25	-0,00555	0,363
89,3	-0,0054	0,354
89,35	-0,0054	0,36
89,4	-0,0054	0,351
89,45	-0,0054	0,354
89,5	-0,0051	0,351
89,55	-0,0054	0,354
89,6	-0,00525	0,3525
89,65	-0,0054	0,354
89,7	-0,00525	0,3525
89,75	-0,0054	0,354
89,8	-0,00555	0,351
89,85	-0,0051	0,3555
89,9	-0,00525	0,351
89,95	-0,00525	0,354
90	-0,00525	0,351
90,05	-0,00525	0,354
90,1	-0,0054	0,3525
90,15	-0,00525	0,3585
90,2	-0,0054	0,357
90,25	-0,0054	0,366
90,3	-0,0054	0,357
90,35	-0,0054	0,366
90,4	-0,0054	0,3585
90,45	-0,00525	0,363
90,5	-0,0054	0,3555
90,55	-0,0051	0,36
90,6	-0,0054	0,3555
90,65	-0,0051	0,3645
90,7	-0,0054	0,3555
90,75	-0,0054	0,363
90,8	-0,0054	0,354
90,85	-0,0054	0,357
90,9	-0,00525	0,351
90,95	-0,0054	0,36
91	-0,0054	0,354
91,05	-0,00525	0,3615
91,1	-0,00525	0,354
91,15	-0,00555	0,3615
91,2	-0,0051	0,357
91,25	-0,0054	0,3615
91,3	-0,0051	0,3615
91,35	-0,00525	0,36
91,4	-0,00525	0,3555
91,45	-0,00525	0,3555
91,5	-0,00525	0,3525
91,55	-0,0054	0,3495
91,6	-0,0054	0,3495
91,65	-0,0054	0,3525
91,7	-0,0054	0,351
91,75	-0,0054	0,357
91,8	-0,00525	0,3525
91,85	-0,0054	0,3585
91,9	-0,00555	0,348
91,95	-0,00525	0,354
92	-0,0054	0,3495
92,05	-0,00525	0,354
92,1	-0,00525	0,3495
92,15	-0,0054	0,3525
92,2	-0,00525	0,3525
92,25	-0,0054	0,3645
92,3	-0,0054	0,36
92,35	-0,00495	0,36
92,4	-0,00525	0,3585
92,45	-0,0054	0,3585
92,5	-0,0051	0,354
92,55	-0,0054	0,3555
92,6	-0,00495	0,354
92,65	-0,0051	0,357
92,7	-0,00555	0,3525
92,75	-0,0054	0,3555
92,8	-0,0054	0,354
92,85	-0,00525	0,3555
92,9	-0,00525	0,351
92,95	-0,0054	0,351
93	-0,00525	0,3495
93,05	-0,0054	0,351
93,1	-0,0054	0,3495
93,15	-0,0051	0,36
93,2	-0,00525	0,3585
93,25	-0,0051	0,36
93,3	-0,0054	0,3585
93,35	-0,0054	0,357
93,4	-0,00525	0,354
93,45	-0,00525	0,354
93,5	-0,00525	0,351
93,55	-0,00555	0,351
93,6	-0,00525	0,3525
93,65	-0,0054	0,3645
93,7	-0,0051	0,357
93,75	-0,0054	0,3615
93,8	-0,00495	0,3555
93,85	-0,0051	0,3525
93,9	-0,0054	0,3525
93,95	-0,00555	0,351
94	-0,0051	0,354
94,05	-0,00525	0,351
94,1	-0,0051	0,348
94,15	-0,0054	0,3525
94,2	-0,0054	0,351
94,25	-0,00525	0,3585
94,3	-0,0051	0,3555
94,35	-0,0051	0,351
94,4	-0,0051	0,3495
94,45	-0,00525	0,3495
94,5	-0,00525	0,3495
94,55	-0,00525	0,3495
94,6	-0,0054	0,348
94,65	-0,0051	0,351
94,7	-0,0051	0,348
94,75	-0,00555	0,3525
94,8	-0,0054	0,3495
94,85	-0,00525	0,3585
94,9	-0,0054	0,354
94,95	-0,00525	0,36
95	-0,00525	0,357
95,05	-0,00525	0,3555
95,1	-0,0051	0,354
95,15	-0,00525	0,3525
95,2	-0,00525	0,3495
95,25	-0,00525	0,3495
95,3	-0,0054	0,3495
95,35	-0,0054	0,3495
95,4	-0,00525	0,3495
95,45	-0,0054	0,351
95,5	-0,0054	0,3495
95,55	-0,00525	0,351
95,6	-0,00525	0,348
95,65	-0,0054	0,3495
95,7	-0,00525	0,348
95,75	-0,00525	0,351
95,8	-0,00525	0,351
95,85	-0,0054	0,354
95,9	-0,00525	0,348
95,95	-0,0054	0,3525
96	-0,00525	0,348
96,05	-0,00525	0,354
96,1	-0,00525	0,348
96,15	-0,00525	0,3495
96,2	-0,0054	0,3465
96,25	-0,00525	0,348
96,3	-0,00525	0,3465
96,35	-0,0051	0,3495
96,4	-0,00525	0,348
96,45	-0,00525	0,354
96,5	-0,0057	0,3495
96,55	-0,00525	0,3555
96,6	-0,0054	0,3465
96,65	-0,0051	0,3495
96,7	-0,00525	0,3465
96,75	-0,00495	0,3495
96,8	-0,00525	0,3495
96,85	-0,00525	0,351
96,9	-0,00525	0,351
96,95	-0,0054	0,351
97	-0,0054	0,351
97,05	-0,0054	0,351
97,1	-0,00525	0,3555
97,15	-0,00495	0,3555
97,2	-0,00525	0,3555
97,25	-0,00525	0,3585
97,3	-0,00525	0,354
97,35	-0,00525	0,3525
97,4	-0,0051	0,3465
97,45	-0,00525	0,3465
97,5	-0,00525	0,348
97,55	-0,00495	0,348
97,6	-0,0054	0,3495
97,65	-0,00525	0,3495
97,7	-0,0051	0,351
97,75	-0,00525	0,3495
97,8	-0,0051	0,3525
97,85	-0,00525	0,351
97,9	-0,0051	0,348
97,95	-0,00525	0,3495
98	-0,00525	0,348
98,05	-0,0051	0,351
98,1	-0,0051	0,3495
98,15	-0,0051	0,351
98,2	-0,0051	0,3495
98,25	-0,0054	0,348
98,3	-0,00495	0,351
98,35	-0,0054	0,3495
98,4	-0,00525	0,354
98,45	-0,0054	0,351
98,5	-0,0051	0,348
98,55	-0,0051	0,348
98,6	-0,00525	0,3465
98,65	-0,00525	0,348
98,7	-0,0054	0,348
98,75	-0,00525	0,3525
98,8	-0,00525	0,351
98,85	-0,00525	0,354
98,9	-0,0054	0,351
98,95	-0,0054	0,3585
99	-0,00525	0,3555
99,05	-0,00525	0,3585
99,1	-0,0054	0,351
99,15	-0,0051	0,3585
99,2	-0,0054	0,354
99,25	-0,00525	0,357
99,3	-0,00525	0,354
99,35	-0,0054	0,36
99,4	-0,00525	0,3495
99,45	-0,00525	0,354
99,5	-0,0054	0,3495
99,55	-0,00525	0,3585
99,6	-0,0051	0,3555
99,65	-0,00525	0,354
99,7	-0,0051	0,351
99,75	-0,0051	0,3495
99,8	-0,0054	0,3495
99,85	-0,00525	0,3555
99,9	-0,0054	0,3555
99,95	-0,0051	0,36
100	-0,0051	0,3525
100,05	-0,00525	0,3555
100,1	-0,0054	0,3555
100,15	-0,0051	0,351
100,2	-0,0051	0,354
100,25	-0,00525	0,351
100,3	-0,0051	0,351
100,35	-0,00525	0,348
100,4	-0,0054	0,3495
100,45	-0,00525	0,351
100,5	-0,0054	0,3495
100,55	-0,0051	0,351
100,6	-0,00495	0,3495
100,65	-0,0051	0,354
100,7	-0,00525	0,3525
100,75	-0,0051	0,354
100,8	-0,00525	0,3555
100,85	-0,00525	0,357
100,9	-0,00495	0,3465
100,95	-0,00495	0,3495
101	-0,0054	0,345
101,05	-0,00525	0,348
101,1	-0,00525	0,3465
101,15	-0,0051	0,3465
101,2	-0,00525	0,3465
101,25	-0,0051	0,3465
101,3	-0,0051	0,3465
101,35	-0,00525	0,348
101,4	-0,0051	0,3465
101,45	-0,00525	0,3465
101,5	-0,00525	0,3435
101,55	-0,00495	0,3495
101,6	-0,00525	0,345
101,65	-0,0054	0,3495
101,7	-0,00525	0,3465
101,75	-0,00555	0,3495
101,8	-0,00525	0,3465
101,85	-0,0054	0,354
101,9	-0,0054	0,3465
101,95	-0,0054	0,3525
102	-0,0051	0,348
102,05	-0,00525	0,354
102,1	-0,0054	0,351
102,15	-0,0054	0,357
102,2	-0,0054	0,3525
102,25	-0,0054	0,36
102,3	-0,00525	0,3495
102,35	-0,0054	0,351
102,4	-0,0051	0,3465
102,45	-0,00525	0,348
102,5	-0,0051	0,3465
102,55	-0,00525	0,3465
102,6	-0,00525	0,345
102,65	-0,00525	0,3465
102,7	-0,00525	0,3465
102,75	-0,00525	0,3465
102,8	-0,0051	0,348
102,85	-0,0054	0,3495
102,9	-0,0051	0,3465
102,95	-0,0051	0,348
103	-0,00525	0,3465
103,05	-0,0054	0,3435
103,1	-0,0051	0,345
103,15	-0,0057	0,345
103,2	-0,0051	0,3465
103,25	-0,00525	0,345
103,3	-0,0051	0,348
103,35	-0,00525	0,348
103,4	-0,0051	0,3525
103,45	-0,0051	0,3525
103,5	-0,0051	0,354
103,55	-0,0054	0,354
103,6	-0,00525	0,354
103,65	-0,0054	0,357
103,7	-0,0054	0,351
103,75	-0,0054	0,3525
103,8	-0,0051	0,345
103,85	-0,0057	0,348
103,9	-0,00525	0,3465
103,95	-0,0054	0,3435
104	-0,00525	0,345
104,05	-0,0051	0,3465
104,1	-0,00525	0,345
104,15	-0,0051	0,348
104,2	-0,00525	0,3465
104,25	-0,00525	0,351
104,3	-0,0051	0,351
104,35	-0,0051	0,348
104,4	-0,0054	0,348
104,45	-0,00525	0,348
104,5	-0,00525	0,351
104,55	-0,0054	0,351
104,6	-0,00525	0,354
104,65	-0,0054	0,3525
104,7	-0,00525	0,3525
104,75	-0,0051	0,3525
104,8	-0,0054	0,3525
104,85	-0,00525	0,3555
104,9	-0,0054	0,348
104,95	-0,00525	0,354
105	-0,00525	0,3495
105,05	-0,0051	0,351
105,1	-0,0051	0,3465
105,15	-0,0051	0,351
105,2	-0,00495	0,345
105,25	-0,00525	0,345
105,3	-0,0051	0,3435
105,35	-0,0051	0,3465
105,4	-0,0051	0,3465
105,45	-0,0051	0,354
105,5	-0,00525	0,3525
105,55	-0,0054	0,351
105,6	-0,00525	0,345
105,65	-0,00525	0,3465
105,7	-0,0054	0,3435
105,75	-0,00525	0,345
105,8	-0,0054	0,3465
105,85	-0,0051	0,348
105,9	-0,00525	0,3495
105,95	-0,0051	0,351
106	-0,0054	0,3525
106,05	-0,00495	0,3555
106,1	-0,00525	0,3465
106,15	-0,00525	0,3465
106,2	-0,00525	0,342
106,25	-0,00525	0,345
106,3	-0,0054	0,3435
106,35	-0,0051	0,345
106,4	-0,00525	0,345
106,45	-0,0051	0,345
106,5	-0,00525	0,342
106,55	-0,0051	0,345
106,6	-0,00525	0,3465
106,65	-0,0051	0,3525
106,7	-0,00525	0,351
106,75	-0,00525	0,3525
106,8	-0,00525	0,345
106,85	-0,0051	0,3465
106,9	-0,0054	0,345
106,95	-0,00525	0,3465
107	-0,0054	0,3435
107,05	-0,00525	0,348
107,1	-0,00525	0,3435
107,15	-0,00495	0,345
107,2	-0,0054	0,342
107,25	-0,0054	0,3465
107,3	-0,00525	0,345
107,35	-0,00525	0,345
107,4	-0,0051	0,3435
107,45	-0,0051	0,345
107,5	-0,0054	0,3465
107,55	-0,00525	0,345
107,6	-0,0051	0,345
107,65	-0,00525	0,345
107,7	-0,00525	0,342
107,75	-0,0051	0,3435
107,8	-0,00525	0,3435
107,85	-0,0051	0,3435
107,9	-0,00525	0,342
107,95	-0,0054	0,342
108	-0,00525	0,342
108,05	-0,0051	0,345
108,1	-0,0051	0,345
108,15	-0,0054	0,348
108,2	-0,00525	0,3465
108,25	-0,0051	0,3465
108,3	-0,0054	0,3435
108,35	-0,0051	0,3465
108,4	-0,00525	0,342
108,45	-0,00525	0,3465
108,5	-0,0054	0,3435
108,55	-0,00525	0,3465
108,6	-0,00525	0,345
108,65	-0,0054	0,345
108,7	-0,00525	0,3435
108,75	-0,00525	0,3435
108,8	-0,0054	0,345
108,85	-0,0054	0,3465
108,9	-0,00525	0,3495
108,95	-0,00525	0,3495
109	-0,0054	0,351
109,05	-0,00525	0,354
109,1	-0,0054	0,345
109,15	-0,0054	0,3435
109,2	-0,0054	0,342
109,25	-0,0054	0,3435
109,3	-0,00525	0,3435
109,35	-0,00525	0,3435
109,4	-0,0051	0,3435
109,45	-0,0054	0,3435
109,5	-0,0051	0,3435
109,55	-0,00525	0,3435
109,6	-0,0051	0,342
109,65	-0,0051	0,3435
109,7	-0,00525	0,342
109,75	-0,0054	0,3435
109,8	-0,0051	0,3435
109,85	-0,00495	0,3435
109,9	-0,00525	0,342
109,95	-0,0051	0,345
110	-0,00525	0,342
110,05	-0,00525	0,3435
110,1	-0,0051	0,345
110,15	-0,0051	0,342
110,2	-0,00525	0,3435
110,25	-0,00525	0,345
110,3	-0,00495	0,348
110,35	-0,0054	0,345
110,4	-0,00525	0,3525
110,45	-0,00525	0,3465
110,5	-0,0051	0,348
110,55	-0,0054	0,3465
110,6	-0,0051	0,348
110,65	-0,00495	0,354
110,7	-0,0051	0,3435
110,75	-0,0051	0,342
110,8	-0,0051	0,342
110,85	-0,00525	0,342
110,9	-0,00525	0,3405
110,95	-0,0051	0,342
111	-0,0051	0,342
111,05	-0,00525	0,3435
111,1	-0,00525	0,3435
111,15	-0,00525	0,3495
111,2	-0,0051	0,345
111,25	-0,0051	0,348
111,3	-0,00525	0,3435
111,35	-0,0054	0,345
111,4	-0,0051	0,3435
111,45	-0,00525	0,345
111,5	-0,00525	0,342
111,55	-0,0051	0,3465
111,6	-0,00495	0,3435
111,65	-0,00495	0,348
111,7	-0,0054	0,342
111,75	-0,00525	0,3465
111,8	-0,0054	0,3435
111,85	-0,00525	0,3495
111,9	-0,00525	0,3465
111,95	-0,0051	0,351
112	-0,0048	0,3495
112,05	-0,0051	0,3465
112,1	-0,0051	0,3435
112,15	-0,00525	0,342
112,2	-0,00525	0,339
112,25	-0,0051	0,3435
112,3	-0,0054	0,342
112,35	-0,00525	0,345
112,4	-0,0051	0,342
112,45	-0,00525	0,345
112,5	-0,00525	0,342
112,55	-0,00525	0,345
112,6	-0,0054	0,3405
112,65	-0,0051	0,3465
112,7	-0,0054	0,3405
112,75	-0,00525	0,342
112,8	-0,0054	0,3405
112,85	-0,00525	0,342
112,9	-0,00525	0,3405
112,95	-0,00525	0,345
113	-0,00525	0,3435
113,05	-0,0054	0,3435
113,1	-0,00525	0,342
113,15	-0,00525	0,348
113,2	-0,0054	0,3405
113,25	-0,0051	0,342
113,3	-0,0054	0,342
113,35	-0,0051	0,342
113,4	-0,0054	0,342
113,45	-0,00495	0,345
113,5	-0,00525	0,3435
113,55	-0,00555	0,3405
113,6	-0,00525	0,3435
113,65	-0,00525	0,3405
113,7	-0,00525	0,3435
113,75	-0,0054	0,342
113,8	-0,0051	0,3405
113,85	-0,0051	0,3405
113,9	-0,00525	0,342
113,95	-0,0051	0,3405
114	-0,0054	0,3465
114,05	-0,0051	0,3435
114,1	-0,00525	0,3465
114,15	-0,00525	0,3435
114,2	-0,00525	0,348
114,25	-0,00525	0,345
114,3	-0,0051	0,3435
114,35	-0,00495	0,342
114,4	-0,00525	0,342
114,45	-0,0051	0,339
114,5	-0,00525	0,342
114,55	-0,0051	0,342
114,6	-0,0054	0,342
114,65	-0,00525	0,342
114,7	-0,0051	0,345
114,75	-0,00525	0,345
114,8	-0,00525	0,3495
114,85	-0,0051	0,3465
114,9	-0,00525	0,3435
114,95	-0,00525	0,345
115	-0,00525	0,3435
115,05	-0,0051	0,348
115,1	-0,0051	0,342
115,15	-0,00525	0,348
115,2	-0,00525	0,342
115,25	-0,00525	0,348
115,3	-0,0051	0,3465
115,35	-0,0054	0,348
115,4	-0,0051	0,342
115,45	-0,00525	0,342
115,5	-0,00495	0,3405
115,55	-0,0051	0,342
115,6	-0,0051	0,342
115,65	-0,0051	0,3405
115,7	-0,0048	0,342
115,75	-0,0051	0,342
115,8	-0,0051	0,3465
115,85	-0,00495	0,345
115,9	-0,00495	0,348
115,95	-0,0051	0,351
116	-0,0051	0,3465
116,05	-0,00495	0,3465
116,1	-0,00525	0,345
116,15	-0,00525	0,348
116,2	-0,00495	0,3435
116,25	-0,0051	0,345
116,3	-0,0051	0,3435
116,35	-0,00495	0,3465
116,4	-0,00525	0,345
116,45	-0,0054	0,348
116,5	-0,0051	0,351
116,55	-0,0051	0,3465
116,6	-0,00525	0,3495
116,65	-0,00495	0,3465
116,7	-0,0051	0,348
116,75	-0,00495	0,345
116,8	-0,0051	0,3495
116,85	-0,00495	0,3435
116,9	-0,00495	0,345
116,95	-0,0051	0,3435
117	-0,0051	0,345
117,05	-0,0051	0,342
117,1	-0,0051	0,351
117,15	-0,0051	0,342
117,2	-0,00495	0,348
117,25	-0,0051	0,342
117,3	-0,0051	0,342
117,35	-0,00495	0,342
117,4	-0,0051	0,342
117,45	-0,00495	0,339
117,5	-0,0051	0,3405
117,55	-0,0051	0,339
117,6	-0,0051	0,339
117,65	-0,0051	0,3405
117,7	-0,0051	0,339
117,75	-0,0054	0,3435
117,8	-0,0051	0,3495
117,85	-0,00495	0,3465
117,9	-0,00525	0,348
117,95	-0,0051	0,342
118	-0,00495	0,345
118,05	-0,00525	0,3405
118,1	-0,0051	0,3405
118,15	-0,00495	0,339
118,2	-0,0051	0,3405
118,25	-0,00525	0,345
118,3	-0,0051	0,348
118,35	-0,0048	0,348
118,4	-0,0051	0,3495
118,45	-0,00495	0,3435
118,5	-0,00495	0,3435
118,55	-0,0051	0,3405
118,6	-0,00525	0,339
118,65	-0,00495	0,339
118,7	-0,0051	0,3405
118,75	-0,00525	0,3375
118,8	-0,0051	0,3435
118,85	-0,0051	0,3465
118,9	-0,00525	0,348
118,95	-0,0048	0,348
119	-0,0048	0,351
119,05	-0,0051	0,345
119,1	-0,0051	0,354
119,15	-0,00525	0,351
119,2	-0,0051	0,348
119,25	-0,0054	0,3465
119,3	-0,0051	0,345
119,35	-0,0051	0,3465
119,4	-0,0054	0,3465
119,45	-0,00495	0,345
119,5	-0,0051	0,348
119,55	-0,00525	0,348
119,6	-0,0054	0,3525
119,65	-0,00525	0,348
119,7	-0,0051	0,351
119,75	-0,0051	0,348
119,8	-0,0051	0,3525
119,85	-0,0051	0,342
119,9	-0,00525	0,348
119,95	-0,00495	0,342
120	-0,0054	0,345
120,05	-0,0051	0,3435
120,1	-0,0051	0,3465
120,15	-0,00495	0,339
120,2	-0,00495	0,3465
120,25	-0,0051	0,3405
120,3	-0,00495	0,351
120,35	-0,0051	0,348
120,4	-0,0051	0,3465
120,45	-0,00495	0,3405
120,5	-0,00525	0,3405
120,55	-0,00495	0,3375
120,6	-0,00495	0,342
120,65	-0,00495	0,339
120,7	-0,00495	0,342
120,75	-0,0051	0,3405
120,8	-0,0051	0,3465
120,85	-0,0051	0,3405
120,9	-0,00495	0,345
120,95	-0,0051	0,3405
121	-0,0051	0,345
121,05	-0,00495	0,342
121,1	-0,00495	0,342
121,15	-0,0051	0,339
121,2	-0,0048	0,342
121,25	-0,0048	0,339
121,3	-0,0048	0,345
121,35	-0,00495	0,342
121,4	-0,00495	0,3435
121,45	-0,00495	0,3405
121,5	-0,00465	0,3405
121,55	-0,00495	0,3435
121,6	-0,00525	0,342
121,65	-0,00495	0,342
121,7	-0,0048	0,3405
121,75	-0,00495	0,342
121,8	-0,00495	0,3375
121,85	-0,0051	0,339
121,9	-0,0048	0,336
121,95	-0,0051	0,3345
122	-0,00495	0,336
122,05	-0,00495	0,336
122,1	-0,00465	0,336
122,15	-0,0051	0,336
122,2	-0,0051	0,336
122,25	-0,00495	0,3375
122,3	-0,0051	0,3375
122,35	-0,0051	0,3375
122,4	-0,00495	0,336
122,45	-0,00495	0,339
122,5	-0,0051	0,336
122,55	-0,0051	0,336
122,6	-0,00465	0,336
122,65	-0,00495	0,336
122,7	-0,00465	0,336
122,75	-0,00495	0,3375
122,8	-0,00495	0,3345
122,85	-0,00495	0,336
122,9	-0,0048	0,3345
122,95	-0,0048	0,336
123	-0,00465	0,3375
123,05	-0,0051	0,3375
123,1	-0,00495	0,3375
123,15	-0,0051	0,3375
123,2	-0,0051	0,336
123,25	-0,0048	0,336
123,3	-0,00495	0,336
123,35	-0,0051	0,3345
123,4	-0,0048	0,336
123,45	-0,00495	0,3375
123,5	-0,0051	0,336
123,55	-0,00465	0,339
123,6	-0,00495	0,3375
123,65	-0,0048	0,336
123,7	-0,00525	0,333
123,75	-0,0051	0,336
123,8	-0,00495	0,3345
123,85	-0,00495	0,3345
123,9	-0,0048	0,336
123,95	-0,0051	0,336
124	-0,00465	0,336
124,05	-0,00495	0,3375
124,1	-0,0048	0,336
124,15	-0,0045	0,3375
124,2	-0,0048	0,336
124,25	-0,0048	0,339
124,3	-0,00495	0,336
124,35	-0,00495	0,3375
124,4	-0,0048	0,3345
124,45	-0,00495	0,336
124,5	-0,0048	0,336
124,55	-0,0051	0,3375
124,6	-0,00495	0,3345
124,65	-0,00495	0,336
124,7	-0,00495	0,3345
124,75	-0,0051	0,336
124,8	-0,00495	0,3345
124,85	-0,00525	0,336
124,9	-0,00495	0,3345
124,95	-0,0051	0,3345
125	-0,0045	0,3345
125,05	-0,00495	0,3375
125,1	-0,00495	0,336
125,15	-0,0051	0,336
125,2	-0,0048	0,336
125,25	-0,00495	0,336
125,3	-0,00465	0,336
125,35	-0,00495	0,339
125,4	-0,00495	0,336
125,45	-0,00495	0,3375
125,5	-0,0048	0,336
125,55	-0,00465	0,3345
125,6	-0,00495	0,3345
125,65	-0,0048	0,3375
125,7	-0,0048	0,3375
125,75	-0,0051	0,3345
125,8	-0,0048	0,3345
125,85	-0,00465	0,336
125,9	-0,00495	0,336
125,95	-0,0051	0,336
126	-0,00495	0,3345
126,05	-0,00495	0,336
126,1	-0,00495	0,336
126,15	-0,0048	0,333
126,2	-0,00495	0,3345
126,25	-0,00495	0,336
126,3	-0,0051	0,336
126,35	-0,00495	0,339
126,4	-0,00465	0,339
126,45	-0,0048	0,3375
126,5	-0,00495	0,336
126,55	-0,00495	0,3345
126,6	-0,00525	0,333
126,65	-0,00495	0,336
126,7	-0,0045	0,3375
126,75	-0,00465	0,339
126,8	-0,0048	0,3345
126,85	-0,0048	0,3345
126,9	-0,00495	0,336
126,95	-0,00495	0,339
127	-0,00495	0,3345
127,05	-0,00495	0,3345
127,1	-0,0048	0,333
127,15	-0,00495	0,3345
127,2	-0,00495	0,336
127,25	-0,00495	0,339
127,3	-0,00465	0,3375
127,35	-0,0051	0,336
127,4	-0,00495	0,333
127,45	-0,00495	0,3345
127,5	-0,0048	0,336
127,55	-0,0048	0,3345
127,6	-0,00495	0,3345
127,65	-0,00495	0,339
127,7	-0,00495	0,336
127,75	-0,00495	0,3345
127,8	-0,0048	0,3345
127,85	-0,0048	0,336
127,9	-0,0048	0,333
127,95	-0,0051	0,333
128	-0,0048	0,3345
128,05	-0,0048	0,3345
128,1	-0,0048	0,3345
128,15	-0,0048	0,3345
128,2	-0,0048	0,336
128,25	-0,00525	0,3375
128,3	-0,0048	0,339
128,35	-0,0048	0,339
128,4	-0,00495	0,3345
128,45	-0,0051	0,3345
128,5	-0,0051	0,333
128,55	-0,0048	0,3345
128,6	-0,00495	0,3345
128,65	-0,00495	0,3345
128,7	-0,00495	0,333
128,75	-0,0048	0,3345
128,8	-0,00495	0,3345
128,85	-0,0048	0,339
128,9	-0,0048	0,3375
128,95	-0,0048	0,3375
129	-0,0048	0,336
129,05	-0,00465	0,336
129,1	-0,0048	0,3345
129,15	-0,00465	0,336
129,2	-0,0048	0,333
129,25	-0,00495	0,3345
129,3	-0,00495	0,333
129,35	-0,00495	0,336
129,4	-0,00465	0,3375
129,45	-0,00465	0,3375
129,5	-0,0048	0,3345
129,55	-0,00465	0,3345
129,6	-0,0048	0,333
129,65	-0,0048	0,333
129,7	-0,00495	0,336
129,75	-0,00465	0,336
129,8	-0,0045	0,3375
129,85	-0,0048	0,336
129,9	-0,00465	0,3345
129,95	-0,00465	0,333
130	-0,0051	0,333
130,05	-0,0048	0,3345
130,1	-0,00495	0,333
130,15	-0,0048	0,336
130,2	-0,0048	0,3375
130,25	-0,0048	0,339
130,3	-0,0048	0,336
130,35	-0,00465	0,3345
130,4	-0,00495	0,333
130,45	-0,0048	0,3315
130,5	-0,00495	0,3315
130,55	-0,00495	0,336
130,6	-0,00495	0,3345
130,65	-0,0048	0,336
130,7	-0,0048	0,3345
130,75	-0,00465	0,3345
130,8	-0,00465	0,3345
130,85	-0,0048	0,3345
130,9	-0,00495	0,333
130,95	-0,0051	0,333
131	-0,00495	0,3345
131,05	-0,0051	0,3345
131,1	-0,00495	0,336
131,15	-0,00465	0,339
131,2	-0,00465	0,3345
131,25	-0,00495	0,3345
131,3	-0,0045	0,3345
131,35	-0,0048	0,333
131,4	-0,0048	0,333
131,45	-0,0048	0,333
131,5	-0,0048	0,333
131,55	-0,0048	0,336
131,6	-0,00465	0,3375
131,65	-0,0048	0,3375
131,7	-0,0048	0,3345
131,75	-0,0051	0,3345
131,8	-0,0048	0,333
131,85	-0,0048	0,3345
131,9	-0,0048	0,333
131,95	-0,00495	0,3345
132	-0,0048	0,3345
132,05	-0,0045	0,3345
132,1	-0,0045	0,3345
132,15	-0,00495	0,336
132,2	-0,00495	0,3345
132,25	-0,0048	0,333
132,3	-0,0048	0,3315
132,35	-0,00465	0,333
132,4	-0,0048	0,333
132,45	-0,00465	0,333
132,5	-0,00495	0,333
132,55	-0,0051	0,333
132,6	-0,00525	0,333
132,65	-0,00465	0,3345
132,7	-0,00465	0,336
132,75	-0,0048	0,333
132,8	-0,00465	0,3315
132,85	-0,00465	0,333
132,9	-0,0048	0,333
132,95	-0,0048	0,333
133	-0,00465	0,333
133,05	-0,00495	0,336
133,1	-0,00495	0,3345
133,15	-0,0048	0,339
133,2	-0,0048	0,333
133,25	-0,0048	0,3345
133,3	-0,0048	0,3315
133,35	-0,0048	0,333
133,4	-0,00465	0,3345
133,45	-0,00465	0,333
133,5	-0,0048	0,333
133,55	-0,0048	0,3315
133,6	-0,00495	0,3345
133,65	-0,00465	0,336
133,7	-0,0051	0,3345
133,75	-0,0048	0,333
133,8	-0,0048	0,333
133,85	-0,0048	0,333
133,9	-0,00465	0,333
133,95	-0,00495	0,333
134	-0,0048	0,33
134,05	-0,0048	0,33
134,1	-0,0048	0,3315
134,15	-0,00495	0,3315
134,2	-0,0048	0,3315
134,25	-0,00465	0,3315
134,3	-0,00465	0,333
134,35	-0,00495	0,3315
134,4	-0,0048	0,3315
134,45	-0,0051	0,3315
134,5	-0,0051	0,3315
134,55	-0,0048	0,333
134,6	-0,00495	0,3345
134,65	-0,00495	0,3345
134,7	-0,0048	0,3345
134,75	-0,0048	0,3345
134,8	-0,00495	0,3315
134,85	-0,0045	0,333
134,9	-0,0048	0,3315
134,95	-0,0048	0,333
135	-0,0045	0,3315
135,05	-0,0048	0,3315
135,1	-0,00465	0,333
135,15	-0,0048	0,3315
135,2	-0,0048	0,33
135,25	-0,0048	0,333
135,3	-0,00465	0,33
135,35	-0,0048	0,33
135,4	-0,00465	0,3315
135,45	-0,00465	0,333
135,5	-0,00465	0,3315
135,55	-0,00465	0,3315
135,6	-0,00465	0,333
135,65	-0,0048	0,3345
135,7	-0,0048	0,3345
135,75	-0,00495	0,3315
135,8	-0,0051	0,333
135,85	-0,00465	0,3315
135,9	-0,00465	0,33
135,95	-0,0048	0,33
136	-0,00465	0,3315
136,05	-0,00495	0,3315
136,1	-0,0048	0,3315
136,15	-0,00495	0,3315
136,2	-0,00465	0,3315
136,25	-0,00465	0,33
136,3	-0,00465	0,33
136,35	-0,0048	0,33
136,4	-0,00495	0,33
136,45	-0,0048	0,33
136,5	-0,0048	0,3315
136,55	-0,00465	0,3315
136,6	-0,0048	0,3315
136,65	-0,0048	0,33
136,7	-0,0048	0,33
136,75	-0,0045	0,333
136,8	-0,00465	0,333
136,85	-0,00495	0,336
136,9	-0,0048	0,3345
136,95	-0,0048	0,333
137	-0,0045	0,3315
137,05	-0,00465	0,333
137,1	-0,0045	0,3315
137,15	-0,00495	0,3315
137,2	-0,00495	0,33
137,25	-0,0048	0,33
137,3	-0,00465	0,333
137,35	-0,0048	0,336
137,4	-0,00465	0,3345
137,45	-0,00465	0,333
137,5	-0,00465	0,33
137,55	-0,0048	0,3315
137,6	-0,0045	0,33
137,65	-0,00495	0,33
137,7	-0,0048	0,3315
137,75	-0,00495	0,33
137,8	-0,00465	0,333
137,85	-0,0048	0,333
137,9	-0,0048	0,3315
137,95	-0,00495	0,3345
138	-0,00465	0,333
138,05	-0,0045	0,333
138,1	-0,0045	0,3315
138,15	-0,0048	0,3315
138,2	-0,00465	0,33
138,25	-0,0048	0,33
138,3	-0,00465	0,33
138,35	-0,00465	0,33
138,4	-0,0048	0,3285
138,45	-0,00465	0,33
138,5	-0,0048	0,3315
138,55	-0,00495	0,3315
138,6	-0,0048	0,3315
138,65	-0,0048	0,333
138,7	-0,0048	0,3315
138,75	-0,0048	0,3315
138,8	-0,0048	0,33
138,85	-0,00495	0,33
138,9	-0,00465	0,33
138,95	-0,0048	0,3315
139	-0,0048	0,333
139,05	-0,0048	0,333
139,1	-0,00465	0,333
139,15	-0,0048	0,333
139,2	-0,00465	0,33
139,25	-0,0045	0,333
139,3	-0,00465	0,3315
139,35	-0,00465	0,3315
139,4	-0,00495	0,33
139,45	-0,0048	0,33
139,5	-0,00465	0,33
139,55	-0,0048	0,3285
139,6	-0,0048	0,33
139,65	-0,00465	0,33
139,7	-0,00465	0,333
139,75	-0,0048	0,333
139,8	-0,00465	0,3315
139,85	-0,00465	0,3345
139,9	-0,00495	0,3315
139,95	-0,00465	0,3345
140	-0,0048	0,333
140,05	-0,0045	0,336
140,1	-0,00465	0,3315
140,15	-0,0048	0,3315
140,2	-0,0048	0,33
140,25	-0,0048	0,3285
140,3	-0,00465	0,33
140,35	-0,0048	0,333
140,4	-0,0048	0,3315
140,45	-0,0048	0,3315
140,5	-0,00465	0,3315
140,55	-0,0045	0,336
140,6	-0,0048	0,3315
140,65	-0,00495	0,333
140,7	-0,0045	0,3315
140,75	-0,00465	0,333
140,8	-0,00465	0,3315
140,85	-0,00465	0,3345
140,9	-0,0048	0,333
140,95	-0,00465	0,333
141	-0,00465	0,3315
141,05	-0,00465	0,333
141,1	-0,0045	0,3315
141,15	-0,00465	0,33
141,2	-0,00465	0,3315
141,25	-0,00465	0,333
141,3	-0,00465	0,3285
141,35	-0,00465	0,33
141,4	-0,00465	0,33
141,45	-0,0048	0,33
141,5	-0,0048	0,3285
141,55	-0,0048	0,3285
141,6	-0,0048	0,33
141,65	-0,00465	0,33
141,7	-0,0048	0,327
141,75	-0,0048	0,33
141,8	-0,0048	0,3285
141,85	-0,0048	0,3315
141,9	-0,00465	0,3315
141,95	-0,00465	0,333
142	-0,0048	0,333
142,05	-0,00465	0,333
142,1	-0,0048	0,3315
142,15	-0,0048	0,3315
142,2	-0,00465	0,33
142,25	-0,0048	0,33
142,3	-0,0048	0,327
142,35	-0,00495	0,327
142,4	-0,00465	0,33
142,45	-0,0048	0,3285
142,5	-0,00495	0,3285
142,55	-0,0048	0,33
142,6	-0,0045	0,33
142,65	-0,00465	0,3315
142,7	-0,0048	0,3285
142,75	-0,00465	0,3315
142,8	-0,00465	0,3285
142,85	-0,00465	0,3285
142,9	-0,0048	0,33
142,95	-0,00495	0,3285
143	-0,00465	0,327
143,05	-0,0045	0,33
143,1	-0,0048	0,3285
143,15	-0,0048	0,327
143,2	-0,00465	0,3285
143,25	-0,00465	0,3285
143,3	-0,00495	0,3285
143,35	-0,0048	0,3285
143,4	-0,0045	0,33
143,45	-0,0048	0,3315
143,5	-0,00495	0,3315
143,55	-0,0048	0,333
143,6	-0,0045	0,3315
143,65	-0,0048	0,333
143,7	-0,00465	0,33
143,75	-0,00465	0,333
143,8	-0,0048	0,33
143,85	-0,00465	0,3285
143,9	-0,00465	0,327
143,95	-0,00465	0,3285
144	-0,00465	0,327
144,05	-0,00465	0,3285
144,1	-0,0048	0,3285
144,15	-0,0048	0,3285
144,2	-0,00465	0,3285
144,25	-0,0045	0,33
144,3	-0,0048	0,3285
144,35	-0,0048	0,3285
144,4	-0,0048	0,3285
144,45	-0,0048	0,33
144,5	-0,00465	0,3315
144,55	-0,0048	0,333
144,6	-0,0045	0,33
144,65	-0,00465	0,33
144,7	-0,0048	0,327
144,75	-0,00465	0,3285
144,8	-0,00465	0,3285
144,85	-0,00465	0,3285
144,9	-0,0048	0,327
144,95	-0,00465	0,3285
145	-0,0048	0,3285
145,05	-0,00465	0,33
145,1	-0,0048	0,3315
145,15	-0,00465	0,333
145,2	-0,0045	0,3315
145,25	-0,0048	0,3315
145,3	-0,00435	0,3285
145,35	-0,00435	0,3315
145,4	-0,0045	0,3285
145,45	-0,00495	0,327
145,5	-0,00465	0,327
145,55	-0,00465	0,3285
145,6	-0,00465	0,327
145,65	-0,00465	0,327
145,7	-0,00495	0,3285
145,75	-0,0045	0,33
145,8	-0,00465	0,33
145,85	-0,0048	0,333
145,9	-0,0048	0,3285
145,95	-0,0048	0,3285
146	-0,00465	0,3285
146,05	-0,0045	0,327
146,1	-0,00495	0,327
146,15	-0,0048	0,3285
146,2	-0,00435	0,33
146,25	-0,0045	0,3285
146,3	-0,00465	0,33
146,35	-0,0048	0,3315
146,4	-0,00465	0,333
146,45	-0,00465	0,3315
146,5	-0,0048	0,3285
146,55	-0,0048	0,327
146,6	-0,0048	0,327
146,65	-0,00465	0,3285
146,7	-0,0048	0,33
146,75	-0,0048	0,3315
146,8	-0,00465	0,327
146,85	-0,00465	0,327
146,9	-0,0048	0,3285
146,95	-0,0045	0,3285
147	-0,00465	0,33
147,05	-0,00465	0,33
147,1	-0,00465	0,3315
147,15	-0,00465	0,3315
147,2	-0,0048	0,33
147,25	-0,0048	0,3285
147,3	-0,00435	0,3285
147,35	-0,00465	0,3315
147,4	-0,00465	0,33
147,45	-0,0048	0,3315
147,5	-0,00465	0,3285
147,55	-0,0048	0,327
147,6	-0,00465	0,3285
147,65	-0,0048	0,327
147,7	-0,0048	0,327
147,75	-0,0045	0,3285
147,8	-0,00465	0,327
147,85	-0,0045	0,327
147,9	-0,0048	0,3285
147,95	-0,0048	0,3315
148	-0,0045	0,33
148,05	-0,00465	0,3315
148,1	-0,0048	0,3285
148,15	-0,0048	0,327
148,2	-0,0048	0,3285
148,25	-0,00465	0,3285
148,3	-0,00465	0,327
148,35	-0,00465	0,3285
148,4	-0,00465	0,327
148,45	-0,00465	0,327
148,5	-0,00465	0,3255
148,55	-0,00465	0,3285
148,6	-0,00465	0,3285
148,65	-0,00465	0,3285
148,7	-0,0045	0,327
148,75	-0,0048	0,3315
148,8	-0,0045	0,33
148,85	-0,0048	0,33
148,9	-0,00465	0,3285
148,95	-0,00465	0,3285
149	-0,00465	0,327
149,05	-0,0045	0,3285
149,1	-0,00465	0,327
149,15	-0,0048	0,327
149,2	-0,00465	0,327
149,25	-0,0048	0,3285
149,3	-0,00465	0,3255
149,35	-0,0045	0,327
149,4	-0,0045	0,327
149,45	-0,0048	0,3255
149,5	-0,00465	0,327
149,55	-0,0045	0,3285
149,6	-0,0048	0,327
149,65	-0,00495	0,3285
149,7	-0,00465	0,3285
149,75	-0,00465	0,3315
149,8	-0,00465	0,33
149,85	-0,0051	0,333
149,9	-0,0045	0,3315
149,95	-0,0048	0,33
150	-0,0048	0,3285
150,05	-0,0048	0,3285
150,1	-0,00495	0,327
150,15	-0,0045	0,327
150,2	-0,00465	0,327
150,25	-0,00495	0,327
150,3	-0,0045	0,327
150,35	-0,0051	0,3255
150,4	-0,00465	0,327
150,45	-0,0048	0,327
150,5	-0,00465	0,3255
150,55	-0,0048	0,3285
150,6	-0,00465	0,33
150,65	-0,00465	0,33
150,7	-0,0048	0,327
150,75	-0,00495	0,3255
150,8	-0,00465	0,3255
150,85	-0,00465	0,327
150,9	-0,00465	0,3285
150,95	-0,0048	0,33
151	-0,00465	0,3255
151,05	-0,00465	0,3255
151,1	-0,0048	0,327
151,15	-0,0048	0,327
151,2	-0,00465	0,327
151,25	-0,00465	0,3315
151,3	-0,00465	0,327
151,35	-0,0048	0,327
151,4	-0,0045	0,3255
151,45	-0,0048	0,3285
151,5	-0,00465	0,3285
151,55	-0,00465	0,3285
151,6	-0,0048	0,327
151,65	-0,00465	0,327
151,7	-0,00465	0,3255
151,75	-0,00465	0,3255
151,8	-0,0048	0,327
151,85	-0,00465	0,33
151,9	-0,0048	0,3255
151,95	-0,0045	0,3255
152	-0,0045	0,3255
152,05	-0,0045	0,327
152,1	-0,00465	0,327
152,15	-0,0045	0,3255
152,2	-0,0048	0,3255
152,25	-0,00465	0,327
152,3	-0,00465	0,3285
152,35	-0,00465	0,3285
152,4	-0,0045	0,3255
152,45	-0,00465	0,327
152,5	-0,00465	0,327
152,55	-0,00465	0,33
152,6	-0,00465	0,327
152,65	-0,0048	0,327
152,7	-0,0048	0,324
152,75	-0,0042	0,327
152,8	-0,00465	0,3255
152,85	-0,00465	0,327
152,9	-0,00465	0,327
152,95	-0,0045	0,33
153	-0,0045	0,327
153,05	-0,00465	0,3255
153,1	-0,0045	0,3255
153,15	-0,0045	0,3255
153,2	-0,00465	0,3255
153,25	-0,0045	0,3285
153,3	-0,00465	0,3285
153,35	-0,0045	0,3255
153,4	-0,0045	0,324
153,45	-0,0045	0,327
153,5	-0,0048	0,3255
153,55	-0,0045	0,3255
153,6	-0,00465	0,3255
153,65	-0,0048	0,324
153,7	-0,0048	0,324
153,75	-0,0045	0,3255
153,8	-0,00465	0,3285
153,85	-0,00465	0,3315
153,9	-0,00465	0,3285
153,95	-0,00465	0,327
154	-0,0045	0,3255
154,05	-0,0045	0,3255
154,1	-0,0048	0,3255
154,15	-0,0048	0,33
154,2	-0,00465	0,327
154,25	-0,00465	0,3255
154,3	-0,0045	0,324
154,35	-0,00465	0,3255
154,4	-0,0045	0,3285
154,45	-0,00465	0,33
154,5	-0,0048	0,3255
154,55	-0,00465	0,3255
154,6	-0,0045	0,3255
154,65	-0,00465	0,3255
154,7	-0,00465	0,327
154,75	-0,0045	0,3285
154,8	-0,0045	0,327
154,85	-0,00465	0,3255
154,9	-0,0045	0,324
154,95	-0,0045	0,3255
155	-0,00465	0,327
155,05	-0,00465	0,3285
155,1	-0,00465	0,3255
155,15	-0,00465	0,324
155,2	-0,00465	0,324
155,25	-0,00465	0,3255
155,3	-0,0045	0,3255
155,35	-0,00465	0,327
155,4	-0,0045	0,3285
155,45	-0,00465	0,3285
155,5	-0,00465	0,327
155,55	-0,00465	0,3255
155,6	-0,0045	0,3255
155,65	-0,0045	0,3255
155,7	-0,00465	0,324
155,75	-0,00465	0,324
155,8	-0,00465	0,324
155,85	-0,00465	0,3255
155,9	-0,00435	0,3285
155,95	-0,0045	0,3285
156	-0,00465	0,3255
156,05	-0,00465	0,324
156,1	-0,00465	0,324
156,15	-0,00465	0,324
156,2	-0,0048	0,324
156,25	-0,0045	0,324
156,3	-0,0045	0,3255
156,35	-0,00465	0,324
156,4	-0,00465	0,3255
156,45	-0,00435	0,327
156,5	-0,0045	0,3225
156,55	-0,00465	0,3225
156,6	-0,00465	0,3255
156,65	-0,00465	0,327
156,7	-0,00435	0,3255
156,75	-0,0045	0,324
156,8	-0,00465	0,3225
156,85	-0,00435	0,3255
156,9	-0,0045	0,3255
156,95	-0,0045	0,327
157	-0,00465	0,324
157,05	-0,00465	0,324
157,1	-0,0045	0,324
157,15	-0,0045	0,324
157,2	-0,00435	0,327
157,25	-0,0045	0,324
157,3	-0,00465	0,3225
157,35	-0,00465	0,3225
157,4	-0,0045	0,3225
157,45	-0,00465	0,3255
157,5	-0,00435	0,3255
157,55	-0,0045	0,3255
157,6	-0,0045	0,3225
157,65	-0,00495	0,3225
157,7	-0,00465	0,324
157,75	-0,00465	0,3255
157,8	-0,00435	0,327
157,85	-0,0045	0,324
157,9	-0,0045	0,324
157,95	-0,0048	0,324
158	-0,0045	0,324
158,05	-0,0048	0,3255
158,1	-0,0045	0,3255
158,15	-0,00465	0,3255
158,2	-0,00465	0,324
158,25	-0,0045	0,3225
158,3	-0,0045	0,324
158,35	-0,00435	0,3255
158,4	-0,0045	0,324
158,45	-0,00465	0,3255
158,5	-0,00465	0,324
158,55	-0,0045	0,324
158,6	-0,0045	0,324
158,65	-0,00465	0,324
158,7	-0,00435	0,3225
158,75	-0,00465	0,324
158,8	-0,00465	0,324
158,85	-0,0048	0,3225
158,9	-0,00435	0,324
158,95	-0,00435	0,324
159	-0,0045	0,324
159,05	-0,00465	0,3255
159,1	-0,00435	0,327
159,15	-0,0048	0,327
159,2	-0,0045	0,327
159,25	-0,00465	0,324
159,3	-0,00465	0,327
159,35	-0,0048	0,33
159,4	-0,0045	0,333
159,45	-0,0045	0,3285
159,5	-0,0045	0,327
159,55	-0,00465	0,3255
159,6	-0,00465	0,327
159,65	-0,0048	0,33
159,7	-0,0048	0,33
159,75	-0,00465	0,3255
159,8	-0,0048	0,327
159,85	-0,0048	0,327
159,9	-0,0048	0,3345
159,95	-0,00495	0,3285
160	-0,00465	0,3315
160,05	-0,00465	0,327
160,1	-0,00465	0,3285
160,15	-0,00495	0,3255
160,2	-0,0048	0,327
160,25	-0,00465	0,3315
160,3	-0,00465	0,333
160,35	-0,00435	0,327
160,4	-0,0048	0,3285
160,45	-0,00465	0,327
160,5	-0,0048	0,3375
160,55	-0,0048	0,3285
160,6	-0,0048	0,333
160,65	-0,0048	0,327
160,7	-0,0048	0,327
160,75	-0,0048	0,3285
160,8	-0,00495	0,3405
160,85	-0,00465	0,327
160,9	-0,0045	0,33
160,95	-0,0048	0,324
161	-0,00495	0,3315
161,05	-0,00495	0,333
161,1	-0,0048	0,3345
161,15	-0,00465	0,324
161,2	-0,0048	0,3255
161,25	-0,00465	0,3285
161,3	-0,00465	0,3405
161,35	-0,0045	0,324
161,4	-0,00465	0,327
161,45	-0,00465	0,33
161,5	-0,00465	0,3345
161,55	-0,00465	0,327
161,6	-0,00465	0,324
161,65	-0,0048	0,3255
161,7	-0,00495	0,3345
161,75	-0,0045	0,3255
161,8	-0,00465	0,3255
161,85	-0,0048	0,3315
161,9	-0,0048	0,339
161,95	-0,00465	0,3255
162	-0,0045	0,3285
162,05	-0,0048	0,324
162,1	-0,00495	0,327
162,15	-0,00495	0,3285
162,2	-0,0048	0,3375
162,25	-0,0045	0,33
162,3	-0,0048	0,33
162,35	-0,0048	0,3255
162,4	-0,0048	0,324
162,45	-0,00465	0,33
162,5	-0,00465	0,339
162,55	-0,0045	0,3285
162,6	-0,0048	0,3255
162,65	-0,0048	0,324
162,7	-0,0048	0,3285
162,75	-0,0048	0,3315
162,8	-0,00465	0,3285
162,85	-0,0045	0,324
162,9	-0,0048	0,3255
162,95	-0,0048	0,3345
163	-0,00465	0,333
163,05	-0,0045	0,3255
163,1	-0,0048	0,324
163,15	-0,0048	0,327
163,2	-0,0048	0,333
163,25	-0,0048	0,327
163,3	-0,0045	0,327
163,35	-0,0045	0,324
163,4	-0,0048	0,3255
163,45	-0,0048	0,333
163,5	-0,0048	0,336
163,55	-0,00465	0,3255
163,6	-0,0045	0,324
163,65	-0,0048	0,327
163,7	-0,00435	0,333
163,75	-0,0045	0,324
163,8	-0,00465	0,324
163,85	-0,0045	0,327
163,9	-0,0048	0,33
163,95	-0,0048	0,3285
164	-0,0045	0,3255
164,05	-0,00465	0,3225
164,1	-0,00465	0,33
164,15	-0,00435	0,33
164,2	-0,0045	0,33
164,25	-0,0045	0,3255
164,3	-0,00465	0,324
164,35	-0,0045	0,324
164,4	-0,00465	0,327
164,45	-0,00465	0,333
164,5	-0,0045	0,3345
164,55	-0,0045	0,324
164,6	-0,0045	0,3225
164,65	-0,0048	0,327
164,7	-0,00465	0,333
164,75	-0,00465	0,327
164,8	-0,0045	0,3285
164,85	-0,00465	0,324
164,9	-0,00465	0,3225
164,95	-0,00465	0,33
165	-0,0048	0,33
165,05	-0,0048	0,3225
165,1	-0,0045	0,3225
165,15	-0,0045	0,327
165,2	-0,0045	0,3315
165,25	-0,0045	0,324
165,3	-0,00435	0,324
165,35	-0,00435	0,3315
165,4	-0,0045	0,3345
165,45	-0,00465	0,3255
165,5	-0,0045	0,324
165,55	-0,0045	0,324
165,6	-0,0045	0,333
165,65	-0,0048	0,324
165,7	-0,00465	0,3225
165,75	-0,00465	0,3255
165,8	-0,0045	0,33
165,85	-0,0045	0,327
165,9	-0,00465	0,327
165,95	-0,0048	0,324
166	-0,0045	0,324
166,05	-0,0045	0,3285
166,1	-0,0048	0,324
166,15	-0,00465	0,3225
166,2	-0,00465	0,3255
166,25	-0,00465	0,3285
166,3	-0,0045	0,327
166,35	-0,0045	0,3225
166,4	-0,00465	0,324
166,45	-0,0048	0,3285
166,5	-0,0048	0,33
166,55	-0,00465	0,324
166,6	-0,00465	0,3225
166,65	-0,00465	0,324
166,7	-0,0045	0,3285
166,75	-0,0045	0,3285
166,8	-0,0045	0,327
166,85	-0,0048	0,324
166,9	-0,0048	0,327
166,95	-0,00465	0,3255
167	-0,0048	0,3255
167,05	-0,0045	0,3225
167,1	-0,00465	0,3285
167,15	-0,00465	0,327
167,2	-0,00465	0,324
167,25	-0,00465	0,321
167,3	-0,00465	0,324
167,35	-0,00465	0,3315
167,4	-0,0045	0,327
167,45	-0,00465	0,3225
167,5	-0,0048	0,3225
167,55	-0,0048	0,327
167,6	-0,0048	0,3315
167,65	-0,0048	0,324
167,7	-0,0048	0,324
167,75	-0,0045	0,321
167,8	-0,00465	0,324
167,85	-0,00465	0,33
167,9	-0,0045	0,324
167,95	-0,00465	0,3225
168	-0,0048	0,3225
168,05	-0,0048	0,324
168,1	-0,0045	0,3255
168,15	-0,00465	0,3285
168,2	-0,00465	0,33
168,25	-0,00465	0,3255
168,3	-0,00465	0,324
168,35	-0,0045	0,3225
168,4	-0,00465	0,321
168,45	-0,0045	0,324
168,5	-0,0048	0,324
168,55	-0,0048	0,3285
168,6	-0,0048	0,33
168,65	-0,0048	0,3225
168,7	-0,0045	0,324
168,75	-0,00465	0,3225
168,8	-0,0048	0,3225
168,85	-0,0048	0,3255
168,9	-0,0045	0,3315
168,95	-0,00465	0,3225
169	-0,0048	0,321
169,05	-0,0048	0,324
169,1	-0,0048	0,33
169,15	-0,00465	0,3225
169,2	-0,0045	0,3225
169,25	-0,0045	0,3225
169,3	-0,00465	0,3225
169,35	-0,0048	0,33
169,4	-0,00465	0,327
169,45	-0,00435	0,324
169,5	-0,00465	0,324
169,55	-0,0045	0,3225
169,6	-0,00465	0,3225
169,65	-0,00465	0,33
169,7	-0,0045	0,3285
169,75	-0,0045	0,324
169,8	-0,0045	0,3225
169,85	-0,00465	0,3255
169,9	-0,0048	0,3255
169,95	-0,00435	0,3285
170	-0,0045	0,3255
170,05	-0,00465	0,321
170,1	-0,00465	0,321
170,15	-0,00435	0,3225
170,2	-0,00465	0,324
170,25	-0,0045	0,33
170,3	-0,0048	0,3285
170,35	-0,0048	0,324
170,4	-0,00435	0,324
170,45	-0,00435	0,324
170,5	-0,0045	0,321
170,55	-0,00465	0,3255
170,6	-0,00465	0,3285
170,65	-0,0045	0,3225
170,7	-0,0045	0,321
170,75	-0,0045	0,3255
170,8	-0,00465	0,3285
170,85	-0,0045	0,33
170,9	-0,0045	0,3255
170,95	-0,00465	0,3195
171	-0,0045	0,3225
171,05	-0,00435	0,3285
171,1	-0,00435	0,3285
171,15	-0,00435	0,324
171,2	-0,0045	0,321
171,25	-0,0045	0,327
171,3	-0,0045	0,33
171,35	-0,0045	0,324
171,4	-0,0045	0,3225
171,45	-0,0045	0,324
171,5	-0,0045	0,327
171,55	-0,0045	0,3255
171,6	-0,0045	0,3225
171,65	-0,0042	0,321
171,7	-0,00435	0,321
171,75	-0,00435	0,327
171,8	-0,0045	0,327
171,85	-0,0045	0,327
171,9	-0,0045	0,327
171,95	-0,00435	0,324
172	-0,0045	0,3225
172,05	-0,0045	0,321
172,1	-0,00465	0,3255
172,15	-0,00435	0,327
172,2	-0,0045	0,3255
172,25	-0,0045	0,324
172,3	-0,00465	0,321
172,35	-0,00465	0,324
172,4	-0,0045	0,324
172,45	-0,0045	0,3315
172,5	-0,00465	0,33
172,55	-0,0045	0,324
172,6	-0,00435	0,3225
172,65	-0,0045	0,3225
172,7	-0,00465	0,3195
172,75	-0,00465	0,33
172,8	-0,0045	0,327
172,85	-0,0045	0,3225
172,9	-0,0045	0,321
172,95	-0,00435	0,324
173	-0,00465	0,3255
173,05	-0,0045	0,327
173,1	-0,00465	0,3225
173,15	-0,0045	0,3255
173,2	-0,00465	0,327
173,25	-0,0045	0,3285
173,3	-0,0042	0,324
173,35	-0,0045	0,324
173,4	-0,0045	0,321
173,45	-0,00465	0,3255
173,5	-0,0045	0,3255
173,55	-0,0045	0,3315
173,6	-0,00465	0,327
173,65	-0,0045	0,324
173,7	-0,00435	0,321
173,75	-0,0045	0,324
173,8	-0,00435	0,324
173,85	-0,0045	0,336
173,9	-0,00465	0,3255
173,95	-0,00465	0,324
174	-0,0045	0,3225
174,05	-0,0045	0,3225
174,1	-0,0048	0,3225
174,15	-0,00465	0,327
174,2	-0,0045	0,33
174,25	-0,0045	0,3255
174,3	-0,00435	0,3225
174,35	-0,00465	0,3225
174,4	-0,00465	0,321
174,45	-0,00435	0,33
174,5	-0,0045	0,33
174,55	-0,00465	0,3255
174,6	-0,0045	0,321
174,65	-0,0048	0,324
174,7	-0,00435	0,3255
174,75	-0,00405	0,3315
174,8	-0,00435	0,3225
174,85	-0,00465	0,3225
174,9	-0,0048	0,3195
174,95	-0,00465	0,333
175	-0,00465	0,321
175,05	-0,0045	0,321
175,1	-0,0045	0,3225
175,15	-0,00465	0,336
175,2	-0,0045	0,321
175,25	-0,0045	0,324
175,3	-0,00465	0,321
175,35	-0,00465	0,3285
175,4	-0,0045	0,327
175,45	-0,0045	0,327
175,5	-0,00465	0,3225
175,55	-0,0045	0,321
175,6	-0,0045	0,321
175,65	-0,0045	0,324
175,7	-0,0045	0,3225
175,75	-0,00465	0,327
175,8	-0,0045	0,324
175,85	-0,00435	0,324
175,9	-0,0045	0,3195
175,95	-0,00435	0,3195
176	-0,0045	0,321
176,05	-0,0045	0,321
176,1	-0,0045	0,3225
176,15	-0,00435	0,321
176,2	-0,0042	0,3195
176,25	-0,00435	0,318
176,3	-0,0045	0,318
176,35	-0,0048	0,318
176,4	-0,0045	0,3225
176,45	-0,00435	0,3195
176,5	-0,00405	0,321
176,55	-0,0045	0,318
176,6	-0,00465	0,3195
176,65	-0,00465	0,3195
176,7	-0,00465	0,318
176,75	-0,00435	0,318
176,8	-0,00435	0,318
176,85	-0,0042	0,321
176,9	-0,0042	0,3225
176,95	-0,00435	0,318
177	-0,0045	0,318
177,05	-0,00435	0,3195
177,1	-0,00435	0,3195
177,15	-0,00435	0,321
177,2	-0,0045	0,3225
177,25	-0,0045	0,3165
177,3	-0,00435	0,3195
177,35	-0,00435	0,318
177,4	-0,0045	0,3195
177,45	-0,0045	0,3195
177,5	-0,0045	0,321
177,55	-0,00435	0,321
177,6	-0,0045	0,321
177,65	-0,0042	0,3195
177,7	-0,00435	0,321
177,75	-0,0045	0,318
177,8	-0,0045	0,318
177,85	-0,0042	0,3195
177,9	-0,00465	0,318
177,95	-0,0045	0,318
178	-0,0045	0,3225
178,05	-0,0042	0,3195
178,1	-0,0045	0,3195
178,15	-0,0045	0,318
178,2	-0,0045	0,318
178,25	-0,00465	0,3195
178,3	-0,0045	0,3225
178,35	-0,00435	0,318
178,4	-0,00435	0,318
178,45	-0,00465	0,318
178,5	-0,0045	0,3225
178,55	-0,00465	0,318
178,6	-0,0045	0,318
178,65	-0,00435	0,318
178,7	-0,00435	0,3195
178,75	-0,00435	0,321
178,8	-0,0045	0,318
178,85	-0,0045	0,3165
178,9	-0,0045	0,3195
178,95	-0,0042	0,3225
179	-0,0042	0,321
179,05	-0,00465	0,3165
179,1	-0,0045	0,318
179,15	-0,0045	0,3165
179,2	-0,00435	0,3225
179,25	-0,00435	0,3195
179,3	-0,00465	0,318
179,35	-0,00435	0,318
179,4	-0,00465	0,3225
179,45	-0,0045	0,318
179,5	-0,0045	0,3165
179,55	-0,00435	0,3195
179,6	-0,00435	0,321
179,65	-0,0042	0,3195
179,7	-0,0045	0,3195
179,75	-0,0045	0,3165
179,8	-0,0045	0,3195
179,85	-0,00435	0,321
179,9	-0,00435	0,3225
179,95	-0,0045	0,318
180	-0,0045	0,318
